%!PS-Adobe-2.0 EPSF-2.0
%%Title: Mindist.eps
%%Creator: gnuplot 4.2 patchlevel 6 
%%CreationDate: Tue Sep 20 09:49:32 2016
%%DocumentFonts: (atend)
%%BoundingBox: 50 50 410 302
%%EndComments
%%BeginProlog
/gnudict 256 dict def
gnudict begin
%
% The following 6 true/false flags may be edited by hand if required
% The unit line width may also be changed
%
/Color true def
/Blacktext false def
/Solid false def
/Dashlength 1 def
/Landscape false def
/Level1 false def
/Rounded false def
/TransparentPatterns false def
/gnulinewidth 5.000 def
/userlinewidth gnulinewidth def
%
/vshift -66 def
/dl1 {
  10.0 Dashlength mul mul
  Rounded { currentlinewidth 0.75 mul sub dup 0 le { pop 0.01 } if } if
} def
/dl2 {
  10.0 Dashlength mul mul
  Rounded { currentlinewidth 0.75 mul add } if
} def
/hpt_ 31.5 def
/vpt_ 31.5 def
/hpt hpt_ def
/vpt vpt_ def
Level1 {} {
/SDict 10 dict def
systemdict /pdfmark known not {
  userdict /pdfmark systemdict /cleartomark get put
} if
SDict begin [
  /Title (Mindist.eps)
  /Subject (gnuplot plot)
  /Creator (gnuplot 4.2 patchlevel 6 )
  /Author (Marcos F. Calegari Andrade,Chemistry,Annabella Selloni)
%  /Producer (gnuplot)
%  /Keywords ()
  /CreationDate (Tue Sep 20 09:49:32 2016)
  /DOCINFO pdfmark
end
} ifelse
%
% Gnuplot Prolog Version 4.2 (August 2006)
%
/M {moveto} bind def
/L {lineto} bind def
/R {rmoveto} bind def
/V {rlineto} bind def
/N {newpath moveto} bind def
/Z {closepath} bind def
/C {setrgbcolor} bind def
/f {rlineto fill} bind def
/vpt2 vpt 2 mul def
/hpt2 hpt 2 mul def
/Lshow {currentpoint stroke M 0 vshift R 
	Blacktext {gsave 0 setgray show grestore} {show} ifelse} def
/Rshow {currentpoint stroke M dup stringwidth pop neg vshift R
	Blacktext {gsave 0 setgray show grestore} {show} ifelse} def
/Cshow {currentpoint stroke M dup stringwidth pop -2 div vshift R 
	Blacktext {gsave 0 setgray show grestore} {show} ifelse} def
/UP {dup vpt_ mul /vpt exch def hpt_ mul /hpt exch def
  /hpt2 hpt 2 mul def /vpt2 vpt 2 mul def} def
/DL {Color {setrgbcolor Solid {pop []} if 0 setdash}
 {pop pop pop 0 setgray Solid {pop []} if 0 setdash} ifelse} def
/BL {stroke userlinewidth 2 mul setlinewidth
	Rounded {1 setlinejoin 1 setlinecap} if} def
/AL {stroke userlinewidth 2 div setlinewidth
	Rounded {1 setlinejoin 1 setlinecap} if} def
/UL {dup gnulinewidth mul /userlinewidth exch def
	dup 1 lt {pop 1} if 10 mul /udl exch def} def
/PL {stroke userlinewidth setlinewidth
	Rounded {1 setlinejoin 1 setlinecap} if} def
% Default Line colors
/LCw {1 1 1} def
/LCb {0 0 0} def
/LCa {0 0 0} def
/LC0 {1 0 0} def
/LC1 {0 1 0} def
/LC2 {0 0 1} def
/LC3 {1 0 1} def
/LC4 {0 1 1} def
/LC5 {1 1 0} def
/LC6 {0 0 0} def
/LC7 {1 0.3 0} def
/LC8 {0.5 0.5 0.5} def
% Default Line Types
/LTw {PL [] 1 setgray} def
/LTb {BL [] LCb DL} def
/LTa {AL [1 udl mul 2 udl mul] 0 setdash LCa setrgbcolor} def
/LT0 {PL [] LC0 DL} def
/LT1 {PL [4 dl1 2 dl2] LC1 DL} def
/LT2 {PL [2 dl1 3 dl2] LC2 DL} def
/LT3 {PL [1 dl1 1.5 dl2] LC3 DL} def
/LT4 {PL [6 dl1 2 dl2 1 dl1 2 dl2] LC4 DL} def
/LT5 {PL [3 dl1 3 dl2 1 dl1 3 dl2] LC5 DL} def
/LT6 {PL [2 dl1 2 dl2 2 dl1 6 dl2] LC6 DL} def
/LT7 {PL [1 dl1 2 dl2 6 dl1 2 dl2 1 dl1 2 dl2] LC7 DL} def
/LT8 {PL [2 dl1 2 dl2 2 dl1 2 dl2 2 dl1 2 dl2 2 dl1 4 dl2] LC8 DL} def
/Pnt {stroke [] 0 setdash gsave 1 setlinecap M 0 0 V stroke grestore} def
/Dia {stroke [] 0 setdash 2 copy vpt add M
  hpt neg vpt neg V hpt vpt neg V
  hpt vpt V hpt neg vpt V closepath stroke
  Pnt} def
/Pls {stroke [] 0 setdash vpt sub M 0 vpt2 V
  currentpoint stroke M
  hpt neg vpt neg R hpt2 0 V stroke
 } def
/Box {stroke [] 0 setdash 2 copy exch hpt sub exch vpt add M
  0 vpt2 neg V hpt2 0 V 0 vpt2 V
  hpt2 neg 0 V closepath stroke
  Pnt} def
/Crs {stroke [] 0 setdash exch hpt sub exch vpt add M
  hpt2 vpt2 neg V currentpoint stroke M
  hpt2 neg 0 R hpt2 vpt2 V stroke} def
/TriU {stroke [] 0 setdash 2 copy vpt 1.12 mul add M
  hpt neg vpt -1.62 mul V
  hpt 2 mul 0 V
  hpt neg vpt 1.62 mul V closepath stroke
  Pnt} def
/Star {2 copy Pls Crs} def
/BoxF {stroke [] 0 setdash exch hpt sub exch vpt add M
  0 vpt2 neg V hpt2 0 V 0 vpt2 V
  hpt2 neg 0 V closepath fill} def
/TriUF {stroke [] 0 setdash vpt 1.12 mul add M
  hpt neg vpt -1.62 mul V
  hpt 2 mul 0 V
  hpt neg vpt 1.62 mul V closepath fill} def
/TriD {stroke [] 0 setdash 2 copy vpt 1.12 mul sub M
  hpt neg vpt 1.62 mul V
  hpt 2 mul 0 V
  hpt neg vpt -1.62 mul V closepath stroke
  Pnt} def
/TriDF {stroke [] 0 setdash vpt 1.12 mul sub M
  hpt neg vpt 1.62 mul V
  hpt 2 mul 0 V
  hpt neg vpt -1.62 mul V closepath fill} def
/DiaF {stroke [] 0 setdash vpt add M
  hpt neg vpt neg V hpt vpt neg V
  hpt vpt V hpt neg vpt V closepath fill} def
/Pent {stroke [] 0 setdash 2 copy gsave
  translate 0 hpt M 4 {72 rotate 0 hpt L} repeat
  closepath stroke grestore Pnt} def
/PentF {stroke [] 0 setdash gsave
  translate 0 hpt M 4 {72 rotate 0 hpt L} repeat
  closepath fill grestore} def
/Circle {stroke [] 0 setdash 2 copy
  hpt 0 360 arc stroke Pnt} def
/CircleF {stroke [] 0 setdash hpt 0 360 arc fill} def
/C0 {BL [] 0 setdash 2 copy moveto vpt 90 450 arc} bind def
/C1 {BL [] 0 setdash 2 copy moveto
	2 copy vpt 0 90 arc closepath fill
	vpt 0 360 arc closepath} bind def
/C2 {BL [] 0 setdash 2 copy moveto
	2 copy vpt 90 180 arc closepath fill
	vpt 0 360 arc closepath} bind def
/C3 {BL [] 0 setdash 2 copy moveto
	2 copy vpt 0 180 arc closepath fill
	vpt 0 360 arc closepath} bind def
/C4 {BL [] 0 setdash 2 copy moveto
	2 copy vpt 180 270 arc closepath fill
	vpt 0 360 arc closepath} bind def
/C5 {BL [] 0 setdash 2 copy moveto
	2 copy vpt 0 90 arc
	2 copy moveto
	2 copy vpt 180 270 arc closepath fill
	vpt 0 360 arc} bind def
/C6 {BL [] 0 setdash 2 copy moveto
	2 copy vpt 90 270 arc closepath fill
	vpt 0 360 arc closepath} bind def
/C7 {BL [] 0 setdash 2 copy moveto
	2 copy vpt 0 270 arc closepath fill
	vpt 0 360 arc closepath} bind def
/C8 {BL [] 0 setdash 2 copy moveto
	2 copy vpt 270 360 arc closepath fill
	vpt 0 360 arc closepath} bind def
/C9 {BL [] 0 setdash 2 copy moveto
	2 copy vpt 270 450 arc closepath fill
	vpt 0 360 arc closepath} bind def
/C10 {BL [] 0 setdash 2 copy 2 copy moveto vpt 270 360 arc closepath fill
	2 copy moveto
	2 copy vpt 90 180 arc closepath fill
	vpt 0 360 arc closepath} bind def
/C11 {BL [] 0 setdash 2 copy moveto
	2 copy vpt 0 180 arc closepath fill
	2 copy moveto
	2 copy vpt 270 360 arc closepath fill
	vpt 0 360 arc closepath} bind def
/C12 {BL [] 0 setdash 2 copy moveto
	2 copy vpt 180 360 arc closepath fill
	vpt 0 360 arc closepath} bind def
/C13 {BL [] 0 setdash 2 copy moveto
	2 copy vpt 0 90 arc closepath fill
	2 copy moveto
	2 copy vpt 180 360 arc closepath fill
	vpt 0 360 arc closepath} bind def
/C14 {BL [] 0 setdash 2 copy moveto
	2 copy vpt 90 360 arc closepath fill
	vpt 0 360 arc} bind def
/C15 {BL [] 0 setdash 2 copy vpt 0 360 arc closepath fill
	vpt 0 360 arc closepath} bind def
/Rec {newpath 4 2 roll moveto 1 index 0 rlineto 0 exch rlineto
	neg 0 rlineto closepath} bind def
/Square {dup Rec} bind def
/Bsquare {vpt sub exch vpt sub exch vpt2 Square} bind def
/S0 {BL [] 0 setdash 2 copy moveto 0 vpt rlineto BL Bsquare} bind def
/S1 {BL [] 0 setdash 2 copy vpt Square fill Bsquare} bind def
/S2 {BL [] 0 setdash 2 copy exch vpt sub exch vpt Square fill Bsquare} bind def
/S3 {BL [] 0 setdash 2 copy exch vpt sub exch vpt2 vpt Rec fill Bsquare} bind def
/S4 {BL [] 0 setdash 2 copy exch vpt sub exch vpt sub vpt Square fill Bsquare} bind def
/S5 {BL [] 0 setdash 2 copy 2 copy vpt Square fill
	exch vpt sub exch vpt sub vpt Square fill Bsquare} bind def
/S6 {BL [] 0 setdash 2 copy exch vpt sub exch vpt sub vpt vpt2 Rec fill Bsquare} bind def
/S7 {BL [] 0 setdash 2 copy exch vpt sub exch vpt sub vpt vpt2 Rec fill
	2 copy vpt Square fill Bsquare} bind def
/S8 {BL [] 0 setdash 2 copy vpt sub vpt Square fill Bsquare} bind def
/S9 {BL [] 0 setdash 2 copy vpt sub vpt vpt2 Rec fill Bsquare} bind def
/S10 {BL [] 0 setdash 2 copy vpt sub vpt Square fill 2 copy exch vpt sub exch vpt Square fill
	Bsquare} bind def
/S11 {BL [] 0 setdash 2 copy vpt sub vpt Square fill 2 copy exch vpt sub exch vpt2 vpt Rec fill
	Bsquare} bind def
/S12 {BL [] 0 setdash 2 copy exch vpt sub exch vpt sub vpt2 vpt Rec fill Bsquare} bind def
/S13 {BL [] 0 setdash 2 copy exch vpt sub exch vpt sub vpt2 vpt Rec fill
	2 copy vpt Square fill Bsquare} bind def
/S14 {BL [] 0 setdash 2 copy exch vpt sub exch vpt sub vpt2 vpt Rec fill
	2 copy exch vpt sub exch vpt Square fill Bsquare} bind def
/S15 {BL [] 0 setdash 2 copy Bsquare fill Bsquare} bind def
/D0 {gsave translate 45 rotate 0 0 S0 stroke grestore} bind def
/D1 {gsave translate 45 rotate 0 0 S1 stroke grestore} bind def
/D2 {gsave translate 45 rotate 0 0 S2 stroke grestore} bind def
/D3 {gsave translate 45 rotate 0 0 S3 stroke grestore} bind def
/D4 {gsave translate 45 rotate 0 0 S4 stroke grestore} bind def
/D5 {gsave translate 45 rotate 0 0 S5 stroke grestore} bind def
/D6 {gsave translate 45 rotate 0 0 S6 stroke grestore} bind def
/D7 {gsave translate 45 rotate 0 0 S7 stroke grestore} bind def
/D8 {gsave translate 45 rotate 0 0 S8 stroke grestore} bind def
/D9 {gsave translate 45 rotate 0 0 S9 stroke grestore} bind def
/D10 {gsave translate 45 rotate 0 0 S10 stroke grestore} bind def
/D11 {gsave translate 45 rotate 0 0 S11 stroke grestore} bind def
/D12 {gsave translate 45 rotate 0 0 S12 stroke grestore} bind def
/D13 {gsave translate 45 rotate 0 0 S13 stroke grestore} bind def
/D14 {gsave translate 45 rotate 0 0 S14 stroke grestore} bind def
/D15 {gsave translate 45 rotate 0 0 S15 stroke grestore} bind def
/DiaE {stroke [] 0 setdash vpt add M
  hpt neg vpt neg V hpt vpt neg V
  hpt vpt V hpt neg vpt V closepath stroke} def
/BoxE {stroke [] 0 setdash exch hpt sub exch vpt add M
  0 vpt2 neg V hpt2 0 V 0 vpt2 V
  hpt2 neg 0 V closepath stroke} def
/TriUE {stroke [] 0 setdash vpt 1.12 mul add M
  hpt neg vpt -1.62 mul V
  hpt 2 mul 0 V
  hpt neg vpt 1.62 mul V closepath stroke} def
/TriDE {stroke [] 0 setdash vpt 1.12 mul sub M
  hpt neg vpt 1.62 mul V
  hpt 2 mul 0 V
  hpt neg vpt -1.62 mul V closepath stroke} def
/PentE {stroke [] 0 setdash gsave
  translate 0 hpt M 4 {72 rotate 0 hpt L} repeat
  closepath stroke grestore} def
/CircE {stroke [] 0 setdash 
  hpt 0 360 arc stroke} def
/Opaque {gsave closepath 1 setgray fill grestore 0 setgray closepath} def
/DiaW {stroke [] 0 setdash vpt add M
  hpt neg vpt neg V hpt vpt neg V
  hpt vpt V hpt neg vpt V Opaque stroke} def
/BoxW {stroke [] 0 setdash exch hpt sub exch vpt add M
  0 vpt2 neg V hpt2 0 V 0 vpt2 V
  hpt2 neg 0 V Opaque stroke} def
/TriUW {stroke [] 0 setdash vpt 1.12 mul add M
  hpt neg vpt -1.62 mul V
  hpt 2 mul 0 V
  hpt neg vpt 1.62 mul V Opaque stroke} def
/TriDW {stroke [] 0 setdash vpt 1.12 mul sub M
  hpt neg vpt 1.62 mul V
  hpt 2 mul 0 V
  hpt neg vpt -1.62 mul V Opaque stroke} def
/PentW {stroke [] 0 setdash gsave
  translate 0 hpt M 4 {72 rotate 0 hpt L} repeat
  Opaque stroke grestore} def
/CircW {stroke [] 0 setdash 
  hpt 0 360 arc Opaque stroke} def
/BoxFill {gsave Rec 1 setgray fill grestore} def
/Density {
  /Fillden exch def
  currentrgbcolor
  /ColB exch def /ColG exch def /ColR exch def
  /ColR ColR Fillden mul Fillden sub 1 add def
  /ColG ColG Fillden mul Fillden sub 1 add def
  /ColB ColB Fillden mul Fillden sub 1 add def
  ColR ColG ColB setrgbcolor} def
/BoxColFill {gsave Rec PolyFill} def
/PolyFill {gsave Density fill grestore grestore} def
/h {rlineto rlineto rlineto gsave closepath fill grestore} bind def
%
% PostScript Level 1 Pattern Fill routine for rectangles
% Usage: x y w h s a XX PatternFill
%	x,y = lower left corner of box to be filled
%	w,h = width and height of box
%	  a = angle in degrees between lines and x-axis
%	 XX = 0/1 for no/yes cross-hatch
%
/PatternFill {gsave /PFa [ 9 2 roll ] def
  PFa 0 get PFa 2 get 2 div add PFa 1 get PFa 3 get 2 div add translate
  PFa 2 get -2 div PFa 3 get -2 div PFa 2 get PFa 3 get Rec
  gsave 1 setgray fill grestore clip
  currentlinewidth 0.5 mul setlinewidth
  /PFs PFa 2 get dup mul PFa 3 get dup mul add sqrt def
  0 0 M PFa 5 get rotate PFs -2 div dup translate
  0 1 PFs PFa 4 get div 1 add floor cvi
	{PFa 4 get mul 0 M 0 PFs V} for
  0 PFa 6 get ne {
	0 1 PFs PFa 4 get div 1 add floor cvi
	{PFa 4 get mul 0 2 1 roll M PFs 0 V} for
 } if
  stroke grestore} def
%
/languagelevel where
 {pop languagelevel} {1} ifelse
 2 lt
	{/InterpretLevel1 true def}
	{/InterpretLevel1 Level1 def}
 ifelse
%
% PostScript level 2 pattern fill definitions
%
/Level2PatternFill {
/Tile8x8 {/PaintType 2 /PatternType 1 /TilingType 1 /BBox [0 0 8 8] /XStep 8 /YStep 8}
	bind def
/KeepColor {currentrgbcolor [/Pattern /DeviceRGB] setcolorspace} bind def
<< Tile8x8
 /PaintProc {0.5 setlinewidth pop 0 0 M 8 8 L 0 8 M 8 0 L stroke} 
>> matrix makepattern
/Pat1 exch def
<< Tile8x8
 /PaintProc {0.5 setlinewidth pop 0 0 M 8 8 L 0 8 M 8 0 L stroke
	0 4 M 4 8 L 8 4 L 4 0 L 0 4 L stroke}
>> matrix makepattern
/Pat2 exch def
<< Tile8x8
 /PaintProc {0.5 setlinewidth pop 0 0 M 0 8 L
	8 8 L 8 0 L 0 0 L fill}
>> matrix makepattern
/Pat3 exch def
<< Tile8x8
 /PaintProc {0.5 setlinewidth pop -4 8 M 8 -4 L
	0 12 M 12 0 L stroke}
>> matrix makepattern
/Pat4 exch def
<< Tile8x8
 /PaintProc {0.5 setlinewidth pop -4 0 M 8 12 L
	0 -4 M 12 8 L stroke}
>> matrix makepattern
/Pat5 exch def
<< Tile8x8
 /PaintProc {0.5 setlinewidth pop -2 8 M 4 -4 L
	0 12 M 8 -4 L 4 12 M 10 0 L stroke}
>> matrix makepattern
/Pat6 exch def
<< Tile8x8
 /PaintProc {0.5 setlinewidth pop -2 0 M 4 12 L
	0 -4 M 8 12 L 4 -4 M 10 8 L stroke}
>> matrix makepattern
/Pat7 exch def
<< Tile8x8
 /PaintProc {0.5 setlinewidth pop 8 -2 M -4 4 L
	12 0 M -4 8 L 12 4 M 0 10 L stroke}
>> matrix makepattern
/Pat8 exch def
<< Tile8x8
 /PaintProc {0.5 setlinewidth pop 0 -2 M 12 4 L
	-4 0 M 12 8 L -4 4 M 8 10 L stroke}
>> matrix makepattern
/Pat9 exch def
/Pattern1 {PatternBgnd KeepColor Pat1 setpattern} bind def
/Pattern2 {PatternBgnd KeepColor Pat2 setpattern} bind def
/Pattern3 {PatternBgnd KeepColor Pat3 setpattern} bind def
/Pattern4 {PatternBgnd KeepColor Landscape {Pat5} {Pat4} ifelse setpattern} bind def
/Pattern5 {PatternBgnd KeepColor Landscape {Pat4} {Pat5} ifelse setpattern} bind def
/Pattern6 {PatternBgnd KeepColor Landscape {Pat9} {Pat6} ifelse setpattern} bind def
/Pattern7 {PatternBgnd KeepColor Landscape {Pat8} {Pat7} ifelse setpattern} bind def
} def
%
%
%End of PostScript Level 2 code
%
/PatternBgnd {
  TransparentPatterns {} {gsave 1 setgray fill grestore} ifelse
} def
%
% Substitute for Level 2 pattern fill codes with
% grayscale if Level 2 support is not selected.
%
/Level1PatternFill {
/Pattern1 {0.250 Density} bind def
/Pattern2 {0.500 Density} bind def
/Pattern3 {0.750 Density} bind def
/Pattern4 {0.125 Density} bind def
/Pattern5 {0.375 Density} bind def
/Pattern6 {0.625 Density} bind def
/Pattern7 {0.875 Density} bind def
} def
%
% Now test for support of Level 2 code
%
Level1 {Level1PatternFill} {Level2PatternFill} ifelse
%
/Symbol-Oblique /Symbol findfont [1 0 .167 1 0 0] makefont
dup length dict begin {1 index /FID eq {pop pop} {def} ifelse} forall
currentdict end definefont pop
/MFshow {
   { dup 5 get 3 ge
     { 5 get 3 eq {gsave} {grestore} ifelse }
     {dup dup 0 get findfont exch 1 get scalefont setfont
     [ currentpoint ] exch dup 2 get 0 exch R dup 5 get 2 ne {dup dup 6
     get exch 4 get {show} {stringwidth pop 0 R} ifelse }if dup 5 get 0 eq
     {dup 3 get {2 get neg 0 exch R pop} {pop aload pop M} ifelse} {dup 5
     get 1 eq {dup 2 get exch dup 3 get exch 6 get stringwidth pop -2 div
     dup 0 R} {dup 6 get stringwidth pop -2 div 0 R 6 get
     show 2 index {aload pop M neg 3 -1 roll neg R pop pop} {pop pop pop
     pop aload pop M} ifelse }ifelse }ifelse }
     ifelse }
   forall} bind def
/MFwidth {0 exch { dup 5 get 3 ge { 5 get 3 eq { 0 } { pop } ifelse }
 {dup 3 get{dup dup 0 get findfont exch 1 get scalefont setfont
     6 get stringwidth pop add} {pop} ifelse} ifelse} forall} bind def
/MLshow { currentpoint stroke M
  0 exch R
  Blacktext {gsave 0 setgray MFshow grestore} {MFshow} ifelse } bind def
/MRshow { currentpoint stroke M
  exch dup MFwidth neg 3 -1 roll R
  Blacktext {gsave 0 setgray MFshow grestore} {MFshow} ifelse } bind def
/MCshow { currentpoint stroke M
  exch dup MFwidth -2 div 3 -1 roll R
  Blacktext {gsave 0 setgray MFshow grestore} {MFshow} ifelse } bind def
/XYsave    { [( ) 1 2 true false 3 ()] } bind def
/XYrestore { [( ) 1 2 true false 4 ()] } bind def
end
%%EndProlog
gnudict begin
gsave
50 50 translate
0.050 0.050 scale
0 setgray
newpath
(times) findfont 200 scalefont setfont
1.000 UL
LTb
1340 640 M
63 0 V
5497 0 R
-63 0 V
stroke
1220 640 M
[ [(times) 200.0 0.0 true true 0 ( 1.7)]
] -66.7 MRshow
1.000 UL
LTb
1340 1056 M
63 0 V
5497 0 R
-63 0 V
stroke
1220 1056 M
[ [(times) 200.0 0.0 true true 0 ( 1.72)]
] -66.7 MRshow
1.000 UL
LTb
1340 1472 M
63 0 V
5497 0 R
-63 0 V
stroke
1220 1472 M
[ [(times) 200.0 0.0 true true 0 ( 1.74)]
] -66.7 MRshow
1.000 UL
LTb
1340 1888 M
63 0 V
5497 0 R
-63 0 V
stroke
1220 1888 M
[ [(times) 200.0 0.0 true true 0 ( 1.76)]
] -66.7 MRshow
1.000 UL
LTb
1340 2304 M
63 0 V
5497 0 R
-63 0 V
stroke
1220 2304 M
[ [(times) 200.0 0.0 true true 0 ( 1.78)]
] -66.7 MRshow
1.000 UL
LTb
1340 2720 M
63 0 V
5497 0 R
-63 0 V
stroke
1220 2720 M
[ [(times) 200.0 0.0 true true 0 ( 1.8)]
] -66.7 MRshow
1.000 UL
LTb
1340 3136 M
63 0 V
5497 0 R
-63 0 V
stroke
1220 3136 M
[ [(times) 200.0 0.0 true true 0 ( 1.82)]
] -66.7 MRshow
1.000 UL
LTb
1340 3552 M
63 0 V
5497 0 R
-63 0 V
stroke
1220 3552 M
[ [(times) 200.0 0.0 true true 0 ( 1.84)]
] -66.7 MRshow
1.000 UL
LTb
1340 3968 M
63 0 V
5497 0 R
-63 0 V
stroke
1220 3968 M
[ [(times) 200.0 0.0 true true 0 ( 1.86)]
] -66.7 MRshow
1.000 UL
LTb
1340 4384 M
63 0 V
5497 0 R
-63 0 V
stroke
1220 4384 M
[ [(times) 200.0 0.0 true true 0 ( 1.88)]
] -66.7 MRshow
1.000 UL
LTb
1340 4800 M
63 0 V
5497 0 R
-63 0 V
stroke
1220 4800 M
[ [(times) 200.0 0.0 true true 0 ( 1.9)]
] -66.7 MRshow
1.000 UL
LTb
1340 640 M
0 63 V
0 4097 R
0 -63 V
stroke
1340 440 M
[ [(times) 200.0 0.0 true true 0 ( 4)]
] -66.7 MCshow
1.000 UL
LTb
1896 640 M
0 63 V
0 4097 R
0 -63 V
stroke
1896 440 M
[ [(times) 200.0 0.0 true true 0 ( 6)]
] -66.7 MCshow
1.000 UL
LTb
2452 640 M
0 63 V
0 4097 R
0 -63 V
stroke
2452 440 M
[ [(times) 200.0 0.0 true true 0 ( 8)]
] -66.7 MCshow
1.000 UL
LTb
3008 640 M
0 63 V
0 4097 R
0 -63 V
stroke
3008 440 M
[ [(times) 200.0 0.0 true true 0 ( 10)]
] -66.7 MCshow
1.000 UL
LTb
3564 640 M
0 63 V
0 4097 R
0 -63 V
stroke
3564 440 M
[ [(times) 200.0 0.0 true true 0 ( 12)]
] -66.7 MCshow
1.000 UL
LTb
4120 640 M
0 63 V
0 4097 R
0 -63 V
stroke
4120 440 M
[ [(times) 200.0 0.0 true true 0 ( 14)]
] -66.7 MCshow
1.000 UL
LTb
4676 640 M
0 63 V
0 4097 R
0 -63 V
stroke
4676 440 M
[ [(times) 200.0 0.0 true true 0 ( 16)]
] -66.7 MCshow
1.000 UL
LTb
5232 640 M
0 63 V
0 4097 R
0 -63 V
stroke
5232 440 M
[ [(times) 200.0 0.0 true true 0 ( 18)]
] -66.7 MCshow
1.000 UL
LTb
5788 640 M
0 63 V
0 4097 R
0 -63 V
stroke
5788 440 M
[ [(times) 200.0 0.0 true true 0 ( 20)]
] -66.7 MCshow
1.000 UL
LTb
6344 640 M
0 63 V
0 4097 R
0 -63 V
stroke
6344 440 M
[ [(times) 200.0 0.0 true true 0 ( 22)]
] -66.7 MCshow
1.000 UL
LTb
6900 640 M
0 63 V
0 4097 R
0 -63 V
stroke
6900 440 M
[ [(times) 200.0 0.0 true true 0 ( 24)]
] -66.7 MCshow
1.000 UL
LTb
1.000 UL
LTb
1340 4800 N
0 -4160 V
5560 0 V
0 4160 V
-5560 0 V
Z stroke
LCb setrgbcolor
400 2720 M
currentpoint gsave translate 90 rotate 0 0 moveto
[ [(times) 200.0 0.0 true true 0 (Mindist - Oti-Ow \(Angstrom\))]
] -66.7 MCshow
grestore
LTb
LCb setrgbcolor
4120 140 M
[ [(times) 200.0 0.0 true true 0 (Time \(ps\))]
] -66.7 MCshow
LTb
1.000 UP
1.000 UL
LTb
2.000 UL
LT0
1.00 0.00 0.00 C 1619 3028 M
2 477 V
1 82 V
2 24 V
1 16 V
1 -349 V
2 -124 V
1 -124 V
2 -114 V
1 239 V
1 540 V
2 514 V
1 -1 V
1 -743 V
2 -379 V
1 -326 V
2 -128 V
1 510 V
1 382 V
2 -35 V
1 192 V
2 487 V
1 -1235 V
1 -1074 V
2 -72 V
1 872 V
2 607 V
1 -922 V
1 -391 V
2 351 V
1 900 V
1 -50 V
2 -131 V
1 227 V
2 -854 V
1 -5 V
1 367 V
2 250 V
1 -67 V
2 -217 V
1 270 V
1 466 V
2 81 V
1 136 V
2 -384 V
1 -454 V
1 187 V
2 620 V
1 77 V
2 -562 V
1 -139 V
1 255 V
2 -196 V
1 88 V
1 -456 V
2 -52 V
1 733 V
2 -245 V
1 -239 V
1 -231 V
2 -540 V
1 60 V
2 509 V
1 535 V
1 -329 V
2 -210 V
1 -41 V
2 152 V
1 -247 V
1 -179 V
2 2 V
1 -950 V
1 458 V
2 1613 V
1 -210 V
2 -407 V
1 11 V
1 379 V
2 627 V
1 -787 V
2 -830 V
1 -563 V
1 -73 V
2 1055 V
1 1100 V
2 267 V
1 -198 V
1 -121 V
2 -671 V
1 -329 V
1 66 V
2 -22 V
1 -867 V
2 -247 V
1 -163 V
1 971 V
2 1097 V
1 -383 V
2 5 V
1 323 V
1 -411 V
2 140 V
1 -374 V
2 -817 V
1 -335 V
stroke 1764 1745 M
1 601 V
2 710 V
1 1189 V
2 169 V
1 -680 V
1 -670 V
2 -99 V
1 -233 V
1 -796 V
2 -603 V
1 710 V
2 419 V
1 572 V
1 570 V
2 527 V
1 -229 V
2 -507 V
1 -1151 V
1 -375 V
2 598 V
1 549 V
2 460 V
1 -23 V
1 4 V
2 219 V
1 198 V
1 84 V
2 -94 V
1 -315 V
2 -1146 V
1 -931 V
1 420 V
2 1239 V
1 448 V
2 -9 V
1 -176 V
1 156 V
2 -56 V
1 -547 V
2 -305 V
1 -587 V
1 -86 V
2 226 V
1 440 V
2 258 V
1 249 V
1 295 V
2 -329 V
1 176 V
1 158 V
2 -38 V
1 -108 V
2 -140 V
1 -328 V
1 8 V
2 464 V
1 -35 V
2 95 V
1 -207 V
1 -124 V
2 227 V
1 -218 V
2 -613 V
1 -75 V
1 111 V
2 151 V
1 222 V
1 110 V
2 -154 V
1 121 V
2 687 V
1 318 V
1 -314 V
2 -378 V
1 -349 V
2 -224 V
1 -220 V
1 -700 V
2 385 V
1 611 V
2 344 V
1 772 V
1 -107 V
2 -628 V
1 -807 V
1 -527 V
2 244 V
1 1035 V
2 509 V
1 70 V
1 78 V
2 -137 V
1 -92 V
2 -375 V
1 -281 V
1 277 V
2 -813 V
1 -181 V
2 -420 V
1 557 V
1 1372 V
2 956 V
1 -273 V
2 -988 V
stroke 1909 3312 M
1 -717 V
1 -272 V
2 -179 V
1 -448 V
1 808 V
2 263 V
1 -352 V
2 387 V
1 459 V
1 -125 V
2 -471 V
1 -59 V
2 255 V
1 82 V
1 -581 V
2 -91 V
1 -409 V
2 729 V
1 983 V
1 -416 V
2 -541 V
1 -477 V
1 -196 V
2 503 V
1 763 V
2 -342 V
1 -747 V
1 -2 V
2 790 V
1 202 V
2 171 V
1 -391 V
1 -493 V
2 -160 V
1 350 V
2 486 V
1 -106 V
1 246 V
2 -52 V
1 -349 V
2 -616 V
1 -205 V
1 298 V
2 724 V
1 703 V
1 -220 V
2 132 V
1 303 V
2 -677 V
1 -484 V
1 -329 V
2 -667 V
1 14 V
2 776 V
1 615 V
1 276 V
2 -455 V
1 -156 V
2 -101 V
1 -760 V
1 -337 V
2 293 V
1 660 V
1 676 V
2 459 V
1 -44 V
2 -314 V
1 -395 V
1 -498 V
2 -506 V
1 -234 V
2 15 V
1 134 V
1 368 V
2 356 V
1 227 V
2 89 V
1 -464 V
1 164 V
2 -134 V
1 23 V
1 105 V
2 102 V
1 202 V
2 26 V
1 -27 V
1 -311 V
2 -960 V
1 -114 V
2 538 V
1 668 V
1 -131 V
2 82 V
1 472 V
2 -144 V
1 -317 V
1 -219 V
2 59 V
1 461 V
2 336 V
1 156 V
1 -540 V
2 -66 V
1 166 V
stroke 2053 3066 M
1 -117 V
2 -87 V
1 117 V
2 96 V
1 -568 V
1 -108 V
2 -204 V
1 250 V
2 513 V
1 756 V
1 -330 V
2 -725 V
1 -85 V
2 -119 V
1 -2 V
1 198 V
2 391 V
1 428 V
1 146 V
2 -115 V
1 -471 V
2 -698 V
1 -533 V
1 48 V
2 472 V
1 582 V
2 126 V
1 14 V
1 119 V
2 -219 V
1 -393 V
2 -269 V
1 50 V
1 184 V
2 263 V
1 451 V
2 251 V
1 72 V
1 400 V
2 -115 V
1 -390 V
1 -435 V
2 -516 V
1 -151 V
2 254 V
1 160 V
1 -286 V
2 -339 V
1 -95 V
2 443 V
1 754 V
1 118 V
2 -61 V
1 -107 V
2 -19 V
1 18 V
1 -423 V
2 -775 V
1 196 V
1 1058 V
2 513 V
1 -143 V
2 -36 V
1 -390 V
1 -521 V
2 -108 V
1 195 V
2 288 V
1 34 V
1 -401 V
2 18 V
1 180 V
2 371 V
1 -109 V
1 91 V
2 -415 V
1 -65 V
1 370 V
2 -384 V
1 -137 V
2 488 V
1 831 V
1 -421 V
2 -608 V
1 -728 V
2 -343 V
1 311 V
1 791 V
2 -77 V
1 808 V
2 512 V
1 -27 V
1 245 V
2 -642 V
1 -933 V
2 -745 V
1 -170 V
1 686 V
2 1047 V
1 297 V
1 -313 V
2 -720 V
1 -807 V
2 -282 V
stroke 2198 1790 M
1 307 V
1 465 V
2 -25 V
1 -66 V
2 582 V
1 140 V
1 -267 V
2 32 V
1 28 V
2 281 V
1 406 V
1 -104 V
2 204 V
1 -817 V
1 -442 V
2 301 V
1 679 V
2 -122 V
1 -252 V
1 -120 V
2 13 V
1 47 V
2 -91 V
1 212 V
1 -342 V
2 -374 V
1 -171 V
2 1 V
1 162 V
1 565 V
2 517 V
1 -391 V
2 266 V
1 752 V
1 -641 V
2 -480 V
1 -25 V
1 -784 V
2 -427 V
1 -9 V
2 527 V
1 803 V
1 -648 V
2 -229 V
1 308 V
2 837 V
1 106 V
1 -1074 V
2 -447 V
1 -162 V
2 344 V
1 758 V
1 295 V
2 529 V
1 -619 V
1 -962 V
2 -545 V
1 344 V
2 776 V
1 701 V
1 -151 V
2 -767 V
1 -917 V
2 244 V
1 871 V
1 175 V
2 359 V
1 45 V
2 -97 V
1 -150 V
1 68 V
2 -288 V
1 -216 V
1 102 V
2 182 V
1 -254 V
2 390 V
1 43 V
1 -96 V
2 17 V
1 -68 V
2 167 V
1 105 V
1 229 V
2 -120 V
1 -464 V
2 139 V
1 499 V
1 -574 V
2 -247 V
1 285 V
2 58 V
1 -280 V
1 389 V
2 -161 V
1 163 V
1 133 V
2 49 V
1 -446 V
2 -127 V
1 306 V
1 47 V
2 2 V
1 168 V
stroke 2342 3254 M
2 89 V
1 78 V
1 112 V
2 -5 V
1 -15 V
2 -24 V
1 267 V
1 -444 V
2 -236 V
1 -79 V
1 -3 V
2 162 V
1 287 V
2 -264 V
1 -220 V
1 -166 V
2 115 V
1 -634 V
2 -232 V
1 215 V
1 611 V
2 178 V
1 314 V
2 558 V
1 -672 V
1 -896 V
2 -507 V
1 241 V
2 570 V
1 508 V
1 -140 V
2 -274 V
1 211 V
1 601 V
2 -171 V
1 -155 V
2 26 V
1 345 V
1 92 V
2 -451 V
1 -104 V
2 -502 V
1 124 V
1 731 V
2 746 V
1 40 V
2 -386 V
1 41 V
1 -12 V
2 -351 V
1 5 V
1 -63 V
2 -480 V
1 -255 V
2 196 V
1 673 V
1 73 V
2 -262 V
1 -661 V
2 -398 V
1 35 V
1 587 V
2 38 V
1 -240 V
2 -38 V
1 105 V
1 499 V
2 428 V
1 36 V
1 -661 V
2 -304 V
1 143 V
2 291 V
1 186 V
1 -239 V
2 -828 V
1 233 V
2 448 V
1 -45 V
1 136 V
2 -6 V
1 -295 V
2 -440 V
1 113 V
1 482 V
2 -1176 V
1 -123 V
2 23 V
1 593 V
1 1384 V
2 54 V
1 43 V
1 22 V
2 -570 V
1 -264 V
2 298 V
1 -566 V
1 -382 V
2 380 V
1 720 V
2 311 V
1 -214 V
1 -621 V
2 -756 V
stroke 2487 2221 M
1 -176 V
2 733 V
1 -106 V
1 -74 V
2 276 V
1 229 V
1 -103 V
2 130 V
1 -924 V
2 -342 V
1 417 V
1 875 V
2 787 V
1 -215 V
2 -350 V
1 -27 V
1 -304 V
2 -195 V
1 -255 V
2 134 V
1 540 V
1 -294 V
2 -580 V
1 -195 V
2 464 V
1 226 V
1 314 V
2 27 V
1 -416 V
1 -248 V
2 17 V
1 332 V
2 470 V
1 -858 V
1 -341 V
2 320 V
1 868 V
2 -23 V
1 -1005 V
1 -742 V
2 -21 V
1 578 V
2 1056 V
1 -316 V
1 -228 V
2 363 V
1 665 V
1 -230 V
2 -490 V
1 -317 V
2 7 V
1 412 V
1 264 V
2 -641 V
1 10 V
2 717 V
1 -600 V
1 -43 V
2 132 V
1 -232 V
2 -167 V
1 -120 V
1 12 V
2 -48 V
1 775 V
1 855 V
2 -177 V
1 -484 V
2 -207 V
1 127 V
1 26 V
2 -592 V
1 -586 V
2 118 V
1 833 V
1 378 V
2 -200 V
1 305 V
2 85 V
1 118 V
1 -898 V
2 -566 V
1 -78 V
2 -221 V
1 275 V
1 905 V
2 458 V
1 -278 V
1 -579 V
2 -358 V
1 280 V
2 -171 V
1 -35 V
1 -29 V
2 -147 V
1 111 V
2 430 V
1 -401 V
1 447 V
2 858 V
1 126 V
2 -902 V
1 -982 V
1 -526 V
stroke 2631 1463 M
2 245 V
1 1012 V
1 139 V
2 18 V
1 -201 V
2 336 V
1 -328 V
1 -1153 V
2 -250 V
1 736 V
2 693 V
1 22 V
1 -249 V
2 -193 V
1 655 V
2 365 V
1 149 V
1 -5 V
2 -472 V
1 -277 V
2 38 V
1 -52 V
1 -95 V
2 269 V
1 639 V
1 499 V
2 -178 V
1 -370 V
2 -1044 V
1 -241 V
1 -220 V
2 62 V
1 733 V
2 -14 V
1 414 V
1 744 V
2 -218 V
1 132 V
2 105 V
1 -939 V
1 -1019 V
2 63 V
1 732 V
1 -14 V
2 414 V
1 744 V
2 -218 V
1 132 V
1 105 V
2 -937 V
1 -944 V
2 -207 V
1 502 V
1 977 V
2 -326 V
1 41 V
2 -72 V
1 490 V
1 296 V
2 -798 V
1 -652 V
1 -182 V
2 360 V
1 492 V
2 348 V
1 520 V
1 8 V
2 -455 V
1 -794 V
2 -665 V
1 -117 V
1 301 V
2 659 V
1 21 V
2 -549 V
1 252 V
1 713 V
2 373 V
1 -772 V
2 -838 V
1 -467 V
1 342 V
2 904 V
1 324 V
1 -772 V
2 -138 V
1 673 V
2 297 V
1 -1320 V
1 -859 V
2 473 V
1 1357 V
2 596 V
1 -228 V
1 -170 V
2 -934 V
1 157 V
2 787 V
1 -626 V
1 -62 V
2 353 V
1 -321 V
1 -109 V
2 643 V
stroke 2776 2853 M
1 147 V
2 -967 V
1 -857 V
1 279 V
2 1331 V
1 -82 V
2 -78 V
1 174 V
1 220 V
2 -492 V
1 100 V
2 194 V
1 -995 V
1 35 V
2 984 V
1 45 V
2 -586 V
1 -143 V
1 -61 V
2 145 V
1 951 V
1 118 V
2 -508 V
1 -593 V
2 60 V
1 -477 V
1 106 V
2 1148 V
1 464 V
2 -476 V
1 -87 V
1 300 V
2 -658 V
1 -598 V
2 -221 V
1 -409 V
1 619 V
2 1015 V
1 1014 V
1 95 V
2 -174 V
1 -510 V
2 -324 V
1 -625 V
1 -177 V
2 309 V
1 525 V
2 305 V
1 -519 V
1 -209 V
2 370 V
1 558 V
2 -941 V
1 -315 V
1 -224 V
2 -354 V
1 287 V
1 706 V
2 234 V
1 -18 V
2 -653 V
1 -40 V
1 -339 V
2 -159 V
1 -23 V
2 -211 V
1 600 V
1 1132 V
2 610 V
1 103 V
2 -1003 V
1 -613 V
1 154 V
2 -248 V
1 -412 V
2 94 V
1 606 V
1 566 V
2 -197 V
1 -571 V
1 172 V
2 603 V
1 74 V
2 -85 V
1 -183 V
1 -414 V
2 -52 V
1 -33 V
2 517 V
1 281 V
1 251 V
2 158 V
1 79 V
2 7 V
1 -701 V
1 -654 V
2 118 V
1 95 V
1 490 V
2 540 V
1 53 V
2 -526 V
1 -304 V
1 -95 V
stroke 2920 2800 M
2 -109 V
1 98 V
2 121 V
1 53 V
1 139 V
2 -108 V
1 46 V
2 -271 V
1 88 V
1 384 V
2 505 V
1 112 V
2 -166 V
1 -347 V
1 -114 V
2 83 V
1 -2 V
1 -205 V
2 -29 V
1 -79 V
2 -74 V
1 153 V
1 175 V
2 -665 V
1 -78 V
2 586 V
1 97 V
1 -352 V
2 -373 V
1 -240 V
2 272 V
1 654 V
1 277 V
2 -63 V
1 38 V
1 250 V
2 -338 V
1 -89 V
2 -61 V
1 -913 V
1 -184 V
2 379 V
1 497 V
2 378 V
1 -218 V
1 235 V
2 333 V
1 -52 V
2 -408 V
1 -610 V
1 -191 V
2 184 V
1 -668 V
1 -223 V
2 531 V
1 879 V
2 631 V
1 -510 V
1 -363 V
2 -321 V
1 -153 V
2 320 V
1 347 V
1 -58 V
2 444 V
1 353 V
2 291 V
1 95 V
1 -313 V
2 -418 V
1 -371 V
2 -367 V
1 -87 V
1 53 V
2 104 V
1 259 V
1 69 V
2 289 V
1 2 V
2 -234 V
1 -631 V
1 -653 V
2 -375 V
1 52 V
2 718 V
1 705 V
1 -156 V
2 274 V
1 111 V
2 -232 V
1 331 V
1 -438 V
2 -226 V
1 -159 V
1 1 V
2 2 V
1 379 V
2 182 V
1 -199 V
1 -1183 V
2 -54 V
1 1144 V
2 -5 V
1 19 V
stroke 3065 2786 M
1 -340 V
2 -36 V
1 336 V
2 422 V
1 45 V
1 241 V
2 -581 V
1 9 V
2 -214 V
1 -379 V
1 -93 V
2 470 V
1 297 V
1 -221 V
2 129 V
1 -240 V
2 -166 V
1 45 V
1 188 V
2 -684 V
1 192 V
2 786 V
1 35 V
1 -253 V
2 178 V
1 304 V
2 169 V
1 15 V
1 -278 V
2 -177 V
1 220 V
1 285 V
2 155 V
1 -23 V
2 213 V
1 194 V
1 -868 V
2 -619 V
1 86 V
2 418 V
1 -166 V
1 -331 V
2 -59 V
1 93 V
2 213 V
1 112 V
1 -858 V
2 -265 V
1 682 V
1 767 V
2 -722 V
1 -717 V
2 60 V
1 724 V
1 -303 V
2 -184 V
1 419 V
2 666 V
1 868 V
1 -34 V
2 -479 V
1 -384 V
2 -225 V
1 -89 V
1 -406 V
2 -193 V
1 -30 V
2 120 V
1 711 V
1 392 V
2 600 V
1 -313 V
1 -629 V
2 -315 V
1 -319 V
2 161 V
1 -85 V
1 -97 V
2 681 V
1 384 V
2 482 V
1 -9 V
1 -609 V
2 -241 V
1 -593 V
2 -80 V
1 -246 V
1 296 V
2 190 V
1 141 V
1 671 V
2 489 V
1 -293 V
2 -206 V
1 -564 V
1 -253 V
2 106 V
1 -664 V
2 -223 V
1 528 V
1 838 V
2 194 V
1 -186 V
2 -142 V
stroke 3210 3122 M
1 -577 V
1 -195 V
2 -206 V
1 -46 V
2 318 V
1 40 V
1 -235 V
2 -103 V
1 -351 V
1 -24 V
2 424 V
1 221 V
2 327 V
1 291 V
1 -133 V
2 -84 V
1 -195 V
2 13 V
1 481 V
1 461 V
2 -383 V
1 -770 V
2 -575 V
1 11 V
1 656 V
2 114 V
1 152 V
1 -295 V
2 -1 V
1 -8 V
2 424 V
1 343 V
1 58 V
2 360 V
1 -306 V
2 -76 V
1 300 V
1 -52 V
2 -593 V
1 -303 V
2 -166 V
1 340 V
1 496 V
2 698 V
1 -14 V
1 -362 V
2 -285 V
1 -369 V
2 -755 V
1 -33 V
1 -305 V
2 433 V
1 1012 V
2 839 V
1 -331 V
1 -458 V
2 -417 V
1 -1147 V
2 -596 V
1 137 V
1 766 V
2 747 V
1 34 V
2 -61 V
1 20 V
1 395 V
2 -335 V
1 -329 V
1 -94 V
2 236 V
1 365 V
2 627 V
1 -219 V
1 -618 V
2 -304 V
1 315 V
2 -496 V
1 -95 V
1 150 V
2 -312 V
1 342 V
2 667 V
1 889 V
1 -278 V
2 -186 V
1 -720 V
1 -512 V
2 -121 V
1 -179 V
2 -11 V
1 636 V
1 858 V
2 641 V
1 244 V
2 -250 V
1 -966 V
1 -833 V
2 -922 V
1 -744 V
2 587 V
1 1099 V
1 434 V
2 577 V
1 191 V
stroke 3354 3557 M
2 -280 V
1 -819 V
1 -467 V
2 85 V
1 249 V
1 -518 V
2 399 V
1 456 V
2 537 V
1 482 V
1 -259 V
2 -34 V
1 -54 V
2 133 V
1 -531 V
1 -377 V
2 35 V
1 516 V
2 269 V
1 166 V
1 -144 V
2 -76 V
1 137 V
1 78 V
2 -448 V
1 -88 V
2 -49 V
1 -580 V
1 387 V
2 822 V
1 -9 V
2 106 V
1 141 V
1 328 V
2 -761 V
1 -748 V
2 -217 V
1 585 V
1 152 V
2 -45 V
1 355 V
1 -158 V
2 -7 V
1 460 V
2 -52 V
1 -891 V
1 -279 V
2 307 V
1 689 V
2 206 V
1 -1281 V
1 -671 V
2 274 V
1 988 V
2 695 V
1 -630 V
1 -879 V
2 -441 V
1 -110 V
2 197 V
1 843 V
1 809 V
2 -227 V
1 -241 V
1 45 V
2 12 V
1 -246 V
2 9 V
1 174 V
1 416 V
2 219 V
1 -46 V
2 41 V
1 26 V
1 -264 V
2 58 V
1 -613 V
2 -13 V
1 332 V
1 698 V
2 -59 V
1 -721 V
1 -841 V
2 -391 V
1 247 V
2 671 V
1 716 V
1 365 V
2 -275 V
1 -176 V
2 -64 V
1 -29 V
1 65 V
2 150 V
1 -79 V
2 -149 V
1 -46 V
1 -527 V
2 -237 V
1 325 V
2 288 V
1 425 V
1 538 V
2 6 V
stroke 3499 4122 M
1 -290 V
1 -291 V
2 -468 V
1 -392 V
2 -2 V
1 495 V
1 509 V
2 632 V
1 -149 V
2 -529 V
1 -623 V
1 -293 V
2 -33 V
1 693 V
2 102 V
1 160 V
1 -189 V
2 -20 V
1 -121 V
1 -111 V
2 80 V
1 -96 V
2 32 V
1 17 V
1 -33 V
2 -22 V
1 -119 V
2 185 V
1 121 V
1 -89 V
2 7 V
1 -241 V
2 -551 V
1 -97 V
1 0 V
2 -389 V
1 118 V
1 1061 V
2 1230 V
1 -155 V
2 -737 V
1 -790 V
1 -648 V
2 -380 V
1 234 V
2 360 V
1 310 V
1 152 V
2 -233 V
1 -335 V
2 -91 V
1 226 V
1 643 V
2 287 V
1 298 V
2 -410 V
1 -895 V
1 -245 V
2 581 V
1 -404 V
1 -391 V
2 220 V
1 629 V
2 809 V
1 501 V
1 -73 V
2 -1206 V
1 -527 V
2 414 V
1 -324 V
1 -773 V
2 -29 V
1 842 V
2 756 V
1 -764 V
1 -295 V
2 239 V
1 -64 V
1 416 V
2 6 V
1 -1154 V
2 -182 V
1 993 V
1 1699 V
2 464 V
1 -141 V
2 -278 V
1 -234 V
1 -247 V
2 -1376 V
1 -933 V
2 332 V
1 1250 V
1 783 V
2 -511 V
1 -328 V
2 -7 V
1 447 V
1 371 V
2 -375 V
1 -54 V
1 96 V
2 -301 V
1 -141 V
stroke 3643 2743 M
2 268 V
1 -581 V
1 -263 V
2 225 V
1 627 V
2 196 V
1 -649 V
1 -46 V
2 539 V
1 -234 V
2 -34 V
1 477 V
1 451 V
2 -152 V
1 114 V
1 -454 V
2 -63 V
1 315 V
2 -341 V
1 -696 V
1 -214 V
2 440 V
1 806 V
2 33 V
1 148 V
1 139 V
2 -311 V
1 37 V
2 -77 V
1 -202 V
1 -171 V
2 -476 V
1 314 V
1 570 V
2 -243 V
1 -658 V
2 -348 V
1 152 V
1 803 V
2 988 V
1 -546 V
2 -521 V
1 -234 V
1 -4 V
2 -161 V
1 -13 V
2 363 V
1 611 V
1 290 V
2 49 V
1 295 V
2 -213 V
1 -271 V
1 -741 V
2 -286 V
1 393 V
1 243 V
2 160 V
1 103 V
2 194 V
1 253 V
1 297 V
2 -900 V
1 -1028 V
2 -1141 V
1 -225 V
1 718 V
2 1139 V
1 45 V
2 -315 V
1 236 V
1 579 V
2 -41 V
1 -510 V
1 -311 V
2 40 V
1 198 V
2 -394 V
1 57 V
1 168 V
2 35 V
1 464 V
2 -248 V
1 -767 V
1 -272 V
2 242 V
1 648 V
2 -135 V
1 -118 V
1 403 V
2 95 V
1 87 V
2 483 V
1 -1047 V
1 -753 V
2 41 V
1 587 V
1 904 V
2 57 V
1 -391 V
2 -23 V
1 238 V
1 -120 V
2 -467 V
stroke 3788 2691 M
1 -264 V
2 377 V
1 741 V
1 428 V
2 109 V
1 -376 V
2 -693 V
1 -332 V
1 393 V
2 -36 V
1 -729 V
1 -307 V
2 115 V
1 579 V
2 782 V
1 385 V
1 -468 V
2 -370 V
1 -60 V
2 -740 V
1 -423 V
1 370 V
2 907 V
1 1075 V
2 -32 V
1 -391 V
1 -148 V
2 -569 V
1 3 V
1 -432 V
2 -539 V
1 77 V
2 900 V
1 844 V
1 -474 V
2 -434 V
1 17 V
2 194 V
1 -150 V
1 -614 V
2 -197 V
1 140 V
2 305 V
1 461 V
1 220 V
2 -139 V
1 -112 V
2 257 V
1 261 V
1 240 V
2 -301 V
1 -202 V
1 -225 V
2 133 V
1 94 V
2 65 V
1 87 V
1 -156 V
2 281 V
1 107 V
2 -445 V
1 -698 V
1 -214 V
2 296 V
1 567 V
2 15 V
1 -436 V
1 -32 V
2 242 V
1 298 V
1 -844 V
2 -600 V
1 143 V
2 910 V
1 -118 V
1 -114 V
2 333 V
1 244 V
2 -57 V
1 -405 V
1 -263 V
2 310 V
1 807 V
2 -715 V
1 -956 V
1 -306 V
2 915 V
1 87 V
2 -683 V
1 124 V
1 584 V
2 277 V
1 196 V
1 233 V
2 -692 V
1 -263 V
2 629 V
1 618 V
1 56 V
2 -184 V
1 -383 V
2 -913 V
1 -124 V
1 826 V
stroke 3932 2990 M
2 1096 V
1 -524 V
2 -322 V
1 -380 V
1 -310 V
2 467 V
1 67 V
1 -519 V
2 140 V
1 647 V
2 961 V
1 -675 V
1 -630 V
2 -497 V
1 -115 V
2 639 V
1 626 V
1 617 V
2 -732 V
1 -427 V
2 -47 V
1 548 V
1 417 V
2 -918 V
1 -703 V
1 14 V
2 623 V
1 844 V
2 -479 V
1 -647 V
1 175 V
2 483 V
1 315 V
2 159 V
1 -526 V
1 -277 V
2 208 V
1 -288 V
2 244 V
1 -227 V
1 120 V
2 438 V
1 401 V
2 -137 V
1 -556 V
1 -939 V
2 -574 V
1 40 V
1 756 V
2 367 V
1 551 V
2 -213 V
1 119 V
1 467 V
2 -402 V
1 -440 V
2 -92 V
1 515 V
1 -98 V
2 -127 V
1 -259 V
2 -239 V
1 67 V
1 201 V
2 52 V
1 -440 V
1 265 V
2 724 V
1 317 V
2 -265 V
1 -326 V
1 -428 V
2 -124 V
1 289 V
2 380 V
1 381 V
1 -113 V
2 -424 V
1 110 V
2 564 V
1 -431 V
1 -345 V
2 -119 V
1 317 V
2 288 V
1 -648 V
1 -757 V
2 47 V
1 779 V
1 390 V
2 -486 V
1 -393 V
2 217 V
1 744 V
1 -295 V
2 -406 V
1 -416 V
2 -12 V
1 79 V
1 -150 V
2 -205 V
1 490 V
2 1044 V
1 52 V
stroke 4077 3749 M
1 -252 V
2 -388 V
1 538 V
1 128 V
2 -96 V
1 -484 V
2 163 V
1 797 V
1 -279 V
2 -740 V
1 -1441 V
2 -177 V
1 1031 V
1 729 V
2 -176 V
1 -275 V
2 -24 V
1 261 V
1 362 V
2 331 V
1 112 V
1 -130 V
2 -102 V
1 74 V
2 -128 V
1 30 V
1 -31 V
2 232 V
1 -189 V
2 -75 V
1 -64 V
1 97 V
2 -496 V
1 -364 V
2 426 V
1 613 V
1 -38 V
2 75 V
1 -91 V
2 -651 V
1 -321 V
1 237 V
2 -519 V
1 -111 V
1 416 V
2 550 V
1 442 V
2 157 V
1 -197 V
1 -224 V
2 -172 V
1 61 V
2 -75 V
1 71 V
1 -85 V
2 -139 V
1 -542 V
2 -126 V
1 142 V
1 545 V
2 -71 V
1 325 V
1 90 V
2 -528 V
1 -326 V
2 -208 V
1 -122 V
1 320 V
2 369 V
1 313 V
2 -115 V
1 -102 V
1 287 V
2 -55 V
1 -94 V
2 72 V
1 140 V
1 -54 V
2 -212 V
1 -168 V
2 62 V
1 -54 V
1 44 V
2 278 V
1 95 V
1 159 V
2 481 V
1 243 V
2 -20 V
1 -246 V
1 -581 V
2 -366 V
1 -255 V
2 80 V
1 457 V
1 683 V
2 234 V
1 -399 V
2 -345 V
1 33 V
1 135 V
2 -338 V
1 -558 V
1 -767 V
stroke 4221 2083 M
2 -107 V
1 709 V
2 1166 V
1 -363 V
1 66 V
2 76 V
1 117 V
2 166 V
1 -742 V
1 -354 V
2 117 V
1 -106 V
2 -85 V
1 109 V
1 176 V
2 299 V
1 96 V
1 -116 V
2 -285 V
1 82 V
2 7 V
1 339 V
1 248 V
2 -133 V
1 -526 V
2 -760 V
1 -653 V
1 -124 V
2 641 V
1 1138 V
2 168 V
1 40 V
1 173 V
2 -512 V
1 -282 V
2 -231 V
1 498 V
1 304 V
2 -223 V
1 0 V
1 247 V
2 232 V
1 300 V
2 -1363 V
1 -756 V
1 350 V
2 557 V
1 202 V
2 -590 V
1 -146 V
1 212 V
2 509 V
1 -577 V
2 -999 V
1 50 V
1 1068 V
2 255 V
1 328 V
1 654 V
2 276 V
1 -325 V
2 68 V
1 -683 V
1 -1123 V
2 -254 V
1 743 V
2 331 V
1 363 V
1 -104 V
2 332 V
1 370 V
2 -138 V
1 -675 V
1 -747 V
2 63 V
1 511 V
2 88 V
1 267 V
1 40 V
2 458 V
1 139 V
1 386 V
2 -1098 V
1 -546 V
2 377 V
1 -559 V
1 -76 V
2 551 V
1 610 V
2 263 V
1 -329 V
1 -97 V
2 -655 V
1 -358 V
2 4 V
1 553 V
1 805 V
2 691 V
1 215 V
1 -437 V
2 -554 V
1 -55 V
2 -54 V
1 -365 V
stroke 4366 3021 M
1 -262 V
2 84 V
1 297 V
2 325 V
1 293 V
1 -322 V
2 -752 V
1 -42 V
2 -223 V
1 -61 V
1 429 V
2 213 V
1 403 V
1 -58 V
2 75 V
1 247 V
2 -414 V
1 -481 V
1 -303 V
2 -11 V
1 390 V
2 504 V
1 377 V
1 -101 V
2 168 V
1 337 V
2 -111 V
1 -738 V
1 -527 V
2 -237 V
1 102 V
2 232 V
1 1 V
1 291 V
2 318 V
1 29 V
1 -516 V
2 -560 V
1 -299 V
2 98 V
1 370 V
1 269 V
2 31 V
1 188 V
2 -140 V
1 -36 V
1 151 V
2 132 V
1 263 V
2 -273 V
1 -614 V
1 -174 V
2 308 V
1 -247 V
1 -113 V
2 313 V
1 -107 V
2 -102 V
1 27 V
1 -184 V
2 -118 V
1 201 V
2 275 V
1 98 V
1 -357 V
2 -124 V
1 689 V
2 831 V
1 -653 V
1 -262 V
2 -145 V
1 -123 V
2 66 V
1 -11 V
1 -144 V
2 -615 V
1 137 V
1 121 V
2 169 V
1 599 V
2 -12 V
1 223 V
1 115 V
2 140 V
1 157 V
2 -249 V
1 -1268 V
1 -322 V
2 743 V
1 735 V
2 572 V
1 -45 V
1 333 V
2 67 V
1 -533 V
1 -400 V
2 -865 V
1 -733 V
2 382 V
1 1014 V
1 -22 V
2 137 V
1 -374 V
2 -384 V
stroke 4511 2323 M
1 -43 V
1 362 V
2 582 V
1 340 V
2 -53 V
1 -55 V
1 -342 V
2 -492 V
1 -250 V
1 -2 V
2 494 V
1 352 V
2 10 V
1 -324 V
1 -303 V
2 -419 V
1 540 V
2 493 V
1 316 V
1 232 V
2 -35 V
1 -108 V
2 -64 V
1 -894 V
1 -252 V
2 162 V
1 316 V
2 -20 V
1 120 V
1 63 V
2 -28 V
1 -416 V
1 -25 V
2 219 V
1 410 V
2 -1011 V
1 -541 V
1 279 V
2 1350 V
1 88 V
2 -373 V
1 -406 V
1 -160 V
2 78 V
1 46 V
2 -461 V
1 285 V
1 748 V
2 -88 V
1 -834 V
1 -974 V
2 -344 V
1 618 V
2 1183 V
1 152 V
1 140 V
2 218 V
1 124 V
2 287 V
1 -580 V
1 -580 V
2 -129 V
1 365 V
2 441 V
1 -150 V
1 277 V
2 725 V
1 -239 V
2 -939 V
1 -305 V
1 550 V
2 -324 V
1 -494 V
1 117 V
2 497 V
1 952 V
2 73 V
1 -253 V
1 -447 V
2 -522 V
1 101 V
2 195 V
1 -913 V
1 -521 V
2 192 V
1 673 V
2 608 V
1 351 V
1 193 V
2 -634 V
1 -283 V
1 214 V
2 -74 V
1 53 V
2 334 V
1 365 V
1 -295 V
2 -132 V
1 42 V
2 199 V
1 -220 V
1 -143 V
2 -364 V
1 -716 V
stroke 4655 1873 M
2 -131 V
1 354 V
1 214 V
2 537 V
1 502 V
1 -588 V
2 -270 V
1 348 V
2 -251 V
1 -532 V
1 -223 V
2 824 V
1 355 V
2 65 V
1 83 V
1 383 V
2 -226 V
1 -300 V
2 186 V
1 -603 V
1 -456 V
2 360 V
1 249 V
2 15 V
1 314 V
1 105 V
2 387 V
1 468 V
1 -118 V
2 -1159 V
1 -510 V
2 376 V
1 -593 V
1 -588 V
2 205 V
1 797 V
2 790 V
1 280 V
1 105 V
2 -730 V
1 -426 V
2 436 V
1 -256 V
1 -259 V
2 140 V
1 -306 V
1 74 V
2 580 V
1 571 V
2 491 V
1 -390 V
1 -30 V
2 34 V
1 -249 V
2 103 V
1 -251 V
1 -184 V
2 367 V
1 187 V
2 -523 V
1 -37 V
1 338 V
2 -141 V
1 -9 V
2 -242 V
1 -170 V
1 -35 V
2 308 V
1 484 V
1 -94 V
2 21 V
1 232 V
2 -120 V
1 -368 V
1 -53 V
2 -175 V
1 -204 V
2 155 V
1 242 V
1 -81 V
2 -19 V
1 162 V
2 60 V
1 247 V
1 -134 V
2 -35 V
1 67 V
1 -262 V
2 178 V
1 -95 V
2 -122 V
1 -99 V
1 174 V
2 184 V
1 -274 V
2 -137 V
1 353 V
1 -288 V
2 -246 V
1 -147 V
2 -179 V
1 -150 V
1 -8 V
2 198 V
stroke 4800 2485 M
1 356 V
1 466 V
2 546 V
1 81 V
2 -585 V
1 -526 V
1 -108 V
2 499 V
1 347 V
2 -463 V
1 -244 V
1 -178 V
2 93 V
1 -232 V
2 -439 V
1 180 V
1 599 V
2 857 V
1 91 V
2 -1203 V
1 -1088 V
1 -582 V
2 426 V
1 1361 V
1 -84 V
2 7 V
1 127 V
2 90 V
1 242 V
1 305 V
2 -398 V
1 -526 V
2 -48 V
1 230 V
1 20 V
2 -179 V
1 85 V
2 366 V
1 425 V
1 22 V
2 -328 V
1 -541 V
1 -506 V
2 -363 V
1 402 V
2 796 V
1 537 V
1 348 V
2 323 V
1 -232 V
2 -805 V
1 -494 V
1 -79 V
2 334 V
1 -102 V
2 236 V
1 631 V
1 -214 V
2 -36 V
1 135 V
2 284 V
1 -797 V
1 -696 V
2 -27 V
1 633 V
1 703 V
2 -345 V
1 -220 V
2 147 V
1 364 V
1 -454 V
2 -472 V
1 218 V
2 691 V
1 300 V
1 -407 V
2 -224 V
1 -97 V
2 118 V
1 508 V
1 -686 V
2 -234 V
1 219 V
1 411 V
2 -67 V
1 -711 V
2 -37 V
1 375 V
1 429 V
2 -559 V
1 -389 V
2 -181 V
1 225 V
1 505 V
2 523 V
1 -145 V
2 -448 V
1 -28 V
1 618 V
2 147 V
1 -238 V
1 -680 V
2 -516 V
1 -49 V
stroke 4944 2176 M
2 232 V
1 -106 V
1 -403 V
2 61 V
1 20 V
2 876 V
1 -553 V
1 -543 V
2 9 V
1 519 V
2 1044 V
1 -345 V
1 -73 V
2 -62 V
1 181 V
2 492 V
1 -100 V
1 -103 V
2 29 V
1 29 V
1 192 V
2 160 V
1 49 V
2 -303 V
1 -479 V
1 -240 V
2 563 V
1 260 V
2 52 V
1 -229 V
1 -87 V
2 -112 V
1 -29 V
2 -647 V
1 -44 V
1 836 V
2 132 V
1 -38 V
1 241 V
2 106 V
1 -308 V
2 -492 V
1 -321 V
1 -67 V
2 44 V
1 81 V
2 6 V
1 47 V
1 254 V
2 209 V
1 9 V
2 -274 V
1 528 V
1 -365 V
2 -350 V
1 61 V
2 330 V
1 -123 V
1 -161 V
2 132 V
1 237 V
1 -212 V
2 -168 V
1 262 V
2 343 V
1 69 V
1 -417 V
2 -758 V
1 -278 V
2 301 V
1 557 V
1 -83 V
2 -191 V
1 -225 V
2 741 V
1 454 V
1 42 V
2 -381 V
1 -302 V
1 -18 V
2 413 V
1 496 V
2 -1132 V
1 -1061 V
1 30 V
2 981 V
1 660 V
2 -114 V
1 -211 V
1 -666 V
2 -283 V
1 376 V
2 854 V
1 531 V
1 -84 V
2 286 V
1 -635 V
1 -429 V
2 -86 V
1 25 V
2 -827 V
1 -537 V
1 215 V
2 708 V
stroke 5089 2486 M
1 828 V
2 398 V
1 -143 V
1 -320 V
2 -327 V
1 79 V
2 -553 V
1 -81 V
1 -110 V
2 204 V
1 342 V
2 404 V
1 245 V
1 35 V
2 60 V
1 -7 V
1 -163 V
2 -149 V
1 -20 V
2 106 V
1 -177 V
1 356 V
2 146 V
1 71 V
2 -189 V
1 -396 V
1 -286 V
2 135 V
1 397 V
2 401 V
1 85 V
1 -302 V
2 -388 V
1 -26 V
1 -175 V
2 -242 V
1 158 V
2 285 V
1 182 V
1 29 V
2 -32 V
1 -219 V
2 44 V
1 -43 V
1 147 V
2 394 V
1 -265 V
2 -436 V
1 -91 V
1 -195 V
2 460 V
1 546 V
2 128 V
1 226 V
1 203 V
2 120 V
1 -234 V
1 -504 V
2 -693 V
1 -180 V
2 495 V
1 288 V
1 -158 V
2 105 V
1 -132 V
2 -261 V
1 -298 V
1 -67 V
2 -71 V
1 -3 V
2 -159 V
1 -287 V
1 535 V
2 457 V
1 572 V
1 -195 V
2 -42 V
1 -24 V
2 -648 V
1 -412 V
1 -167 V
2 -48 V
1 -486 V
2 279 V
1 909 V
1 443 V
2 -372 V
1 -198 V
2 -542 V
1 -367 V
1 604 V
2 2 V
1 -404 V
1 300 V
2 736 V
1 343 V
2 73 V
1 -587 V
1 -636 V
2 134 V
1 838 V
2 767 V
1 -48 V
1 -416 V
stroke 5233 3606 M
2 -1122 V
1 -308 V
2 530 V
1 779 V
1 176 V
2 -516 V
1 -656 V
2 -232 V
1 277 V
1 -9 V
2 -566 V
1 -44 V
1 475 V
2 633 V
1 446 V
2 81 V
1 -383 V
1 -644 V
2 -446 V
1 -32 V
2 624 V
1 453 V
1 241 V
2 383 V
1 325 V
2 -53 V
1 -343 V
1 -597 V
2 -206 V
1 -152 V
1 451 V
2 456 V
1 230 V
2 -759 V
1 -75 V
1 519 V
2 -139 V
1 -702 V
2 -290 V
1 89 V
1 317 V
2 393 V
1 288 V
2 125 V
1 -348 V
1 -679 V
2 167 V
1 97 V
2 104 V
1 177 V
1 89 V
2 -147 V
1 -130 V
1 -118 V
2 -98 V
1 -51 V
2 38 V
1 219 V
1 667 V
2 31 V
1 -136 V
2 -346 V
1 -806 V
1 -523 V
2 191 V
1 377 V
2 164 V
1 432 V
1 -41 V
2 419 V
1 -19 V
1 -1182 V
2 -709 V
1 117 V
2 860 V
1 149 V
1 105 V
2 406 V
1 750 V
2 -642 V
1 -835 V
1 -681 V
2 229 V
1 607 V
2 631 V
1 -463 V
1 -138 V
2 245 V
1 925 V
1 377 V
2 -152 V
1 -260 V
2 130 V
1 -9 V
1 201 V
2 -553 V
1 -561 V
2 -81 V
1 513 V
1 -116 V
2 -10 V
1 -154 V
2 -292 V
1 144 V
stroke 5378 2904 M
1 -602 V
2 -192 V
1 404 V
2 563 V
1 -149 V
1 -701 V
2 -47 V
1 501 V
1 89 V
2 -216 V
1 -70 V
2 226 V
1 405 V
1 2 V
2 -340 V
1 -126 V
2 -296 V
1 286 V
1 379 V
2 -46 V
1 -264 V
2 164 V
1 456 V
1 -523 V
2 -365 V
1 221 V
1 487 V
2 95 V
1 -208 V
2 -416 V
1 -72 V
1 245 V
2 -234 V
1 -28 V
2 264 V
1 -491 V
1 213 V
2 488 V
1 -118 V
2 -343 V
1 -89 V
1 50 V
2 -750 V
1 -139 V
2 196 V
1 529 V
1 205 V
2 484 V
1 715 V
1 -414 V
2 -949 V
1 -572 V
2 127 V
1 493 V
1 -300 V
2 -93 V
1 580 V
2 995 V
1 -164 V
1 -376 V
2 -244 V
1 158 V
2 -235 V
1 -478 V
1 -222 V
2 524 V
1 931 V
1 830 V
2 -277 V
1 -689 V
2 -687 V
1 -58 V
1 -435 V
2 -297 V
1 -463 V
2 120 V
1 962 V
1 812 V
2 159 V
1 -176 V
2 -719 V
1 -402 V
1 97 V
2 882 V
1 -133 V
1 65 V
2 -213 V
1 264 V
2 -86 V
1 63 V
1 -724 V
2 -143 V
1 170 V
2 473 V
1 462 V
1 -462 V
2 -379 V
1 -20 V
2 364 V
1 16 V
1 -866 V
2 -427 V
1 513 V
2 874 V
stroke 5523 2977 M
1 -412 V
1 228 V
2 312 V
1 154 V
1 42 V
2 -4 V
1 -192 V
2 -139 V
1 -285 V
1 -74 V
2 40 V
1 -45 V
2 -340 V
1 -31 V
1 140 V
2 355 V
1 663 V
2 285 V
1 -239 V
1 -615 V
2 -479 V
1 401 V
1 262 V
2 -450 V
1 -51 V
2 458 V
1 623 V
1 242 V
2 -307 V
1 -858 V
2 -365 V
1 -133 V
1 -155 V
2 343 V
1 553 V
2 488 V
1 91 V
1 -273 V
2 -276 V
1 -250 V
2 -119 V
1 62 V
1 -457 V
2 -129 V
1 284 V
1 670 V
2 827 V
1 -352 V
2 -564 V
1 -102 V
1 -222 V
2 2 V
1 -174 V
2 -139 V
1 430 V
1 214 V
2 91 V
1 -39 V
2 -200 V
1 -18 V
1 90 V
2 -516 V
1 -48 V
1 388 V
2 455 V
1 194 V
2 -600 V
1 -183 V
1 -279 V
2 -568 V
1 169 V
2 653 V
1 305 V
1 504 V
2 -307 V
1 -119 V
2 475 V
1 165 V
1 -152 V
2 -40 V
1 69 V
1 -19 V
2 -555 V
1 -324 V
2 412 V
1 -112 V
1 -201 V
2 145 V
1 203 V
2 92 V
1 32 V
1 135 V
2 -222 V
1 -625 V
2 8 V
1 125 V
1 391 V
2 140 V
1 -116 V
2 -116 V
1 -261 V
1 115 V
2 262 V
1 -837 V
stroke 5667 2076 M
1 84 V
2 833 V
1 -190 V
2 -163 V
1 108 V
1 -270 V
2 -358 V
1 76 V
2 538 V
1 146 V
1 56 V
2 -821 V
1 -529 V
2 127 V
1 774 V
1 116 V
2 443 V
1 131 V
1 218 V
2 -21 V
1 -122 V
2 -543 V
1 -890 V
1 -491 V
2 351 V
1 1103 V
2 356 V
1 193 V
1 318 V
2 407 V
1 -508 V
2 -993 V
1 -391 V
1 -106 V
2 -448 V
1 402 V
2 1063 V
1 243 V
1 -100 V
2 -112 V
1 -325 V
1 -458 V
2 42 V
1 300 V
2 538 V
1 -201 V
1 -103 V
2 157 V
1 584 V
2 -188 V
1 -750 V
1 -353 V
2 -175 V
1 631 V
2 187 V
1 -476 V
1 -218 V
2 199 V
1 618 V
1 -136 V
2 -1217 V
1 -470 V
2 841 V
1 837 V
1 246 V
2 -350 V
1 -388 V
2 -90 V
1 221 V
1 567 V
2 -228 V
1 -668 V
2 84 V
1 472 V
1 73 V
2 -434 V
1 -136 V
1 -802 V
2 -78 V
1 700 V
2 740 V
1 -180 V
1 283 V
2 341 V
1 -744 V
2 -746 V
1 -115 V
1 603 V
2 989 V
1 101 V
2 -5 V
1 -372 V
1 -14 V
2 -264 V
1 -220 V
2 170 V
1 364 V
1 -446 V
2 -108 V
1 424 V
1 -426 V
2 -116 V
1 144 V
2 -54 V
stroke 5812 2508 M
1 429 V
1 693 V
2 -139 V
1 -217 V
2 -376 V
1 -232 V
1 148 V
2 249 V
1 -118 V
2 319 V
1 -180 V
1 -61 V
2 169 V
1 -166 V
1 -593 V
2 52 V
1 62 V
2 439 V
1 94 V
1 -304 V
2 -74 V
1 212 V
2 137 V
1 -168 V
1 139 V
2 -626 V
1 -192 V
2 451 V
1 493 V
1 209 V
2 -884 V
1 -288 V
2 -18 V
1 236 V
1 775 V
2 134 V
1 -564 V
1 30 V
2 513 V
1 -648 V
2 -244 V
1 296 V
1 -192 V
2 282 V
1 555 V
2 54 V
1 -59 V
1 -386 V
2 -316 V
1 -119 V
2 -64 V
1 265 V
1 -344 V
2 238 V
1 532 V
1 207 V
2 -193 V
1 -187 V
2 317 V
1 542 V
1 -229 V
2 -486 V
1 29 V
2 -150 V
1 -8 V
1 -97 V
2 -834 V
1 -365 V
2 516 V
1 734 V
1 398 V
2 -609 V
1 -26 V
1 426 V
2 -35 V
1 -195 V
2 -49 V
1 212 V
1 278 V
2 186 V
1 -981 V
2 -360 V
1 305 V
1 -567 V
2 44 V
1 689 V
2 -386 V
1 -16 V
1 51 V
2 -419 V
1 30 V
2 680 V
1 598 V
1 64 V
2 -497 V
1 -86 V
1 209 V
2 -298 V
1 -224 V
2 110 V
1 -335 V
1 -53 V
2 724 V
1 1117 V
stroke 5956 3922 M
2 -224 V
1 -148 V
1 -576 V
2 -244 V
1 3 V
2 67 V
1 -268 V
1 -277 V
2 109 V
1 97 V
1 447 V
2 243 V
1 -147 V
2 -196 V
1 31 V
1 -614 V
2 -24 V
1 -48 V
2 -601 V
1 290 V
1 855 V
2 -317 V
1 -2 V
2 70 V
1 287 V
1 -275 V
2 508 V
1 -67 V
2 -187 V
1 274 V
1 -128 V
2 204 V
1 576 V
1 -243 V
2 -438 V
1 -157 V
2 92 V
1 -66 V
1 -261 V
2 -351 V
1 85 V
2 642 V
1 860 V
1 26 V
2 -385 V
1 -349 V
2 -669 V
1 -103 V
1 316 V
2 148 V
1 -133 V
1 301 V
2 72 V
1 4 V
2 280 V
1 -311 V
1 -511 V
2 -254 V
1 393 V
2 378 V
1 -113 V
1 88 V
2 -265 V
1 46 V
2 334 V
1 7 V
1 -315 V
2 -294 V
1 -378 V
1 -57 V
2 639 V
1 1058 V
2 325 V
1 54 V
1 -563 V
2 -372 V
1 -618 V
2 -767 V
1 66 V
1 1006 V
2 392 V
1 224 V
2 105 V
1 226 V
1 -121 V
2 -940 V
1 -513 V
2 -56 V
1 101 V
1 798 V
2 161 V
1 -86 V
1 -230 V
2 -566 V
1 -391 V
2 29 V
1 237 V
1 304 V
2 -225 V
1 18 V
2 418 V
1 -2 V
1 76 V
2 223 V
stroke 6101 3069 M
1 -300 V
2 -558 V
1 188 V
1 173 V
2 214 V
1 128 V
1 478 V
2 314 V
1 198 V
2 -279 V
1 -488 V
1 -251 V
2 38 V
1 -46 V
2 8 V
1 224 V
1 96 V
2 171 V
1 324 V
2 -865 V
1 -399 V
1 178 V
2 -539 V
1 -71 V
2 504 V
1 202 V
1 -537 V
2 97 V
1 541 V
1 361 V
2 -499 V
1 -210 V
2 394 V
1 1064 V
1 -395 V
2 -443 V
1 -25 V
2 30 V
1 102 V
1 -245 V
2 -261 V
1 -312 V
2 -167 V
1 41 V
1 455 V
2 621 V
1 503 V
1 164 V
2 -799 V
1 -598 V
2 -483 V
1 26 V
1 41 V
2 -78 V
1 294 V
2 64 V
1 -973 V
1 301 V
2 1163 V
1 -163 V
2 -119 V
1 48 V
1 354 V
2 22 V
1 -715 V
1 -606 V
2 356 V
1 1098 V
2 397 V
1 -755 V
1 -261 V
2 51 V
1 -306 V
2 17 V
1 399 V
1 341 V
2 -593 V
1 -272 V
2 210 V
1 601 V
1 -827 V
2 -223 V
1 453 V
2 619 V
1 265 V
1 -213 V
2 -339 V
1 -157 V
1 81 V
2 591 V
1 56 V
2 -194 V
1 134 V
1 435 V
2 -201 V
1 -713 V
2 -572 V
1 11 V
1 383 V
2 580 V
1 671 V
2 -368 V
1 -564 V
1 -107 V
stroke 6245 2853 M
2 -101 V
1 -421 V
1 158 V
2 216 V
1 24 V
2 608 V
1 182 V
1 -311 V
2 -133 V
1 105 V
2 337 V
1 -895 V
1 -770 V
2 -185 V
1 667 V
2 820 V
1 321 V
1 -86 V
2 -2 V
1 185 V
2 117 V
1 -583 V
1 -1117 V
2 -607 V
1 591 V
1 1260 V
2 -23 V
1 -604 V
2 -361 V
1 415 V
1 678 V
2 439 V
1 -1093 V
2 -644 V
1 365 V
1 987 V
2 -412 V
1 41 V
2 434 V
1 730 V
1 53 V
2 96 V
1 -830 V
1 -870 V
2 -345 V
1 -28 V
2 465 V
1 734 V
1 297 V
2 -411 V
1 -248 V
2 159 V
1 -332 V
1 -109 V
2 -334 V
1 -84 V
2 256 V
1 299 V
1 -220 V
2 -266 V
1 162 V
1 515 V
2 -70 V
1 -77 V
2 299 V
1 553 V
1 -189 V
2 -403 V
1 -393 V
2 -105 V
1 308 V
1 335 V
2 232 V
1 -569 V
2 -473 V
1 87 V
1 314 V
2 300 V
1 -99 V
2 -17 V
1 -13 V
1 -304 V
2 -142 V
1 396 V
1 -18 V
2 271 V
1 -1 V
2 -201 V
1 -78 V
1 -127 V
2 -42 V
1 -77 V
2 -70 V
1 171 V
1 387 V
2 119 V
1 -143 V
2 -32 V
1 -68 V
1 -435 V
2 -176 V
1 -8 V
1 362 V
2 307 V
stroke 6390 3255 M
1 -522 V
2 -99 V
1 -289 V
1 -349 V
2 105 V
1 583 V
2 586 V
1 262 V
1 -33 V
2 -441 V
1 -412 V
2 -145 V
1 -318 V
1 -581 V
2 122 V
1 593 V
2 48 V
1 689 V
1 962 V
2 -407 V
1 -215 V
1 -295 V
2 -115 V
1 135 V
2 172 V
1 -579 V
1 -146 V
2 595 V
1 545 V
2 -579 V
1 -311 V
1 -99 V
2 -41 V
1 303 V
2 59 V
1 -277 V
1 13 V
2 215 V
1 321 V
1 -341 V
2 -578 V
1 -161 V
2 248 V
1 210 V
1 20 V
2 -54 V
1 -164 V
2 53 V
1 324 V
1 301 V
2 186 V
1 -288 V
2 -344 V
1 36 V
1 376 V
2 124 V
1 -137 V
1 -636 V
2 -482 V
1 467 V
2 1034 V
1 -113 V
1 -519 V
2 -288 V
1 89 V
2 371 V
1 -781 V
1 -773 V
2 55 V
1 1111 V
2 85 V
1 -528 V
1 -56 V
2 405 V
1 -220 V
2 -217 V
1 373 V
1 -426 V
2 -533 V
1 359 V
1 980 V
2 328 V
1 -565 V
2 -381 V
1 197 V
1 634 V
2 913 V
1 -484 V
2 -525 V
1 -89 V
1 180 V
2 134 V
1 -194 V
2 -928 V
1 -607 V
1 -592 V
2 433 V
1 1162 V
1 975 V
2 -900 V
1 -427 V
2 8 V
1 360 V
1 -811 V
stroke 6534 1699 M
2 132 V
1 1151 V
2 -263 V
1 -56 V
1 552 V
2 -680 V
1 -163 V
2 451 V
1 809 V
1 -304 V
2 -643 V
1 36 V
2 497 V
1 178 V
1 -305 V
2 84 V
1 307 V
1 -220 V
2 -620 V
1 -221 V
2 121 V
1 -641 V
1 65 V
2 959 V
1 346 V
2 -149 V
1 79 V
1 145 V
2 80 V
1 -110 V
2 -467 V
1 -374 V
1 215 V
2 403 V
1 175 V
1 -434 V
2 -172 V
1 278 V
2 466 V
1 545 V
1 -468 V
2 -392 V
1 81 V
2 -16 V
1 56 V
1 -338 V
2 -132 V
1 300 V
2 557 V
1 94 V
1 -457 V
2 -354 V
1 -62 V
1 -624 V
2 390 V
1 256 V
2 390 V
1 71 V
1 -571 V
2 -231 V
1 369 V
2 552 V
1 -524 V
1 -438 V
2 -125 V
1 317 V
2 901 V
1 121 V
1 -68 V
2 -289 V
1 3 V
2 -255 V
1 -661 V
1 -366 V
2 389 V
1 846 V
1 -45 V
2 -381 V
1 -388 V
2 240 V
1 786 V
1 116 V
2 -614 V
1 -437 V
2 -8 V
1 199 V
1 293 V
2 281 V
1 114 V
2 -477 V
1 -428 V
1 -156 V
2 409 V
1 5 V
1 346 V
2 -289 V
1 -299 V
2 -68 V
1 129 V
1 -16 V
2 245 V
1 0 V
2 -822 V
1 -17 V
stroke 6679 1991 M
1 487 V
2 765 V
1 101 V
stroke
1.000 UL
LTb
1340 4800 N
0 -4160 V
5560 0 V
0 4160 V
-5560 0 V
Z stroke
1.000 UP
1.000 UL
LTb
stroke
grestore
end
showpage
%%Trailer
%%DocumentFonts: times
