%!PS-Adobe-2.0 EPSF-2.0
%%Title: msd.eps
%%Creator: gnuplot 4.2 patchlevel 6 
%%CreationDate: Fri Oct 21 21:18:21 2016
%%DocumentFonts: (atend)
%%BoundingBox: 50 50 410 302
%%EndComments
%%BeginProlog
/gnudict 256 dict def
gnudict begin
%
% The following 6 true/false flags may be edited by hand if required
% The unit line width may also be changed
%
/Color true def
/Blacktext false def
/Solid false def
/Dashlength 1 def
/Landscape false def
/Level1 false def
/Rounded false def
/TransparentPatterns false def
/gnulinewidth 5.000 def
/userlinewidth gnulinewidth def
%
/vshift -60 def
/dl1 {
  10.0 Dashlength mul mul
  Rounded { currentlinewidth 0.75 mul sub dup 0 le { pop 0.01 } if } if
} def
/dl2 {
  10.0 Dashlength mul mul
  Rounded { currentlinewidth 0.75 mul add } if
} def
/hpt_ 31.5 def
/vpt_ 31.5 def
/hpt hpt_ def
/vpt vpt_ def
Level1 {} {
/SDict 10 dict def
systemdict /pdfmark known not {
  userdict /pdfmark systemdict /cleartomark get put
} if
SDict begin [
  /Title (msd.eps)
  /Subject (gnuplot plot)
  /Creator (gnuplot 4.2 patchlevel 6 )
  /Author (Marcos F. Calegari Andrade,Chemistry,Annabella Selloni)
%  /Producer (gnuplot)
%  /Keywords ()
  /CreationDate (Fri Oct 21 21:18:21 2016)
  /DOCINFO pdfmark
end
} ifelse
%
% Gnuplot Prolog Version 4.2 (August 2006)
%
/M {moveto} bind def
/L {lineto} bind def
/R {rmoveto} bind def
/V {rlineto} bind def
/N {newpath moveto} bind def
/Z {closepath} bind def
/C {setrgbcolor} bind def
/f {rlineto fill} bind def
/vpt2 vpt 2 mul def
/hpt2 hpt 2 mul def
/Lshow {currentpoint stroke M 0 vshift R 
	Blacktext {gsave 0 setgray show grestore} {show} ifelse} def
/Rshow {currentpoint stroke M dup stringwidth pop neg vshift R
	Blacktext {gsave 0 setgray show grestore} {show} ifelse} def
/Cshow {currentpoint stroke M dup stringwidth pop -2 div vshift R 
	Blacktext {gsave 0 setgray show grestore} {show} ifelse} def
/UP {dup vpt_ mul /vpt exch def hpt_ mul /hpt exch def
  /hpt2 hpt 2 mul def /vpt2 vpt 2 mul def} def
/DL {Color {setrgbcolor Solid {pop []} if 0 setdash}
 {pop pop pop 0 setgray Solid {pop []} if 0 setdash} ifelse} def
/BL {stroke userlinewidth 2 mul setlinewidth
	Rounded {1 setlinejoin 1 setlinecap} if} def
/AL {stroke userlinewidth 2 div setlinewidth
	Rounded {1 setlinejoin 1 setlinecap} if} def
/UL {dup gnulinewidth mul /userlinewidth exch def
	dup 1 lt {pop 1} if 10 mul /udl exch def} def
/PL {stroke userlinewidth setlinewidth
	Rounded {1 setlinejoin 1 setlinecap} if} def
% Default Line colors
/LCw {1 1 1} def
/LCb {0 0 0} def
/LCa {0 0 0} def
/LC0 {1 0 0} def
/LC1 {0 1 0} def
/LC2 {0 0 1} def
/LC3 {1 0 1} def
/LC4 {0 1 1} def
/LC5 {1 1 0} def
/LC6 {0 0 0} def
/LC7 {1 0.3 0} def
/LC8 {0.5 0.5 0.5} def
% Default Line Types
/LTw {PL [] 1 setgray} def
/LTb {BL [] LCb DL} def
/LTa {AL [1 udl mul 2 udl mul] 0 setdash LCa setrgbcolor} def
/LT0 {PL [] LC0 DL} def
/LT1 {PL [4 dl1 2 dl2] LC1 DL} def
/LT2 {PL [2 dl1 3 dl2] LC2 DL} def
/LT3 {PL [1 dl1 1.5 dl2] LC3 DL} def
/LT4 {PL [6 dl1 2 dl2 1 dl1 2 dl2] LC4 DL} def
/LT5 {PL [3 dl1 3 dl2 1 dl1 3 dl2] LC5 DL} def
/LT6 {PL [2 dl1 2 dl2 2 dl1 6 dl2] LC6 DL} def
/LT7 {PL [1 dl1 2 dl2 6 dl1 2 dl2 1 dl1 2 dl2] LC7 DL} def
/LT8 {PL [2 dl1 2 dl2 2 dl1 2 dl2 2 dl1 2 dl2 2 dl1 4 dl2] LC8 DL} def
/Pnt {stroke [] 0 setdash gsave 1 setlinecap M 0 0 V stroke grestore} def
/Dia {stroke [] 0 setdash 2 copy vpt add M
  hpt neg vpt neg V hpt vpt neg V
  hpt vpt V hpt neg vpt V closepath stroke
  Pnt} def
/Pls {stroke [] 0 setdash vpt sub M 0 vpt2 V
  currentpoint stroke M
  hpt neg vpt neg R hpt2 0 V stroke
 } def
/Box {stroke [] 0 setdash 2 copy exch hpt sub exch vpt add M
  0 vpt2 neg V hpt2 0 V 0 vpt2 V
  hpt2 neg 0 V closepath stroke
  Pnt} def
/Crs {stroke [] 0 setdash exch hpt sub exch vpt add M
  hpt2 vpt2 neg V currentpoint stroke M
  hpt2 neg 0 R hpt2 vpt2 V stroke} def
/TriU {stroke [] 0 setdash 2 copy vpt 1.12 mul add M
  hpt neg vpt -1.62 mul V
  hpt 2 mul 0 V
  hpt neg vpt 1.62 mul V closepath stroke
  Pnt} def
/Star {2 copy Pls Crs} def
/BoxF {stroke [] 0 setdash exch hpt sub exch vpt add M
  0 vpt2 neg V hpt2 0 V 0 vpt2 V
  hpt2 neg 0 V closepath fill} def
/TriUF {stroke [] 0 setdash vpt 1.12 mul add M
  hpt neg vpt -1.62 mul V
  hpt 2 mul 0 V
  hpt neg vpt 1.62 mul V closepath fill} def
/TriD {stroke [] 0 setdash 2 copy vpt 1.12 mul sub M
  hpt neg vpt 1.62 mul V
  hpt 2 mul 0 V
  hpt neg vpt -1.62 mul V closepath stroke
  Pnt} def
/TriDF {stroke [] 0 setdash vpt 1.12 mul sub M
  hpt neg vpt 1.62 mul V
  hpt 2 mul 0 V
  hpt neg vpt -1.62 mul V closepath fill} def
/DiaF {stroke [] 0 setdash vpt add M
  hpt neg vpt neg V hpt vpt neg V
  hpt vpt V hpt neg vpt V closepath fill} def
/Pent {stroke [] 0 setdash 2 copy gsave
  translate 0 hpt M 4 {72 rotate 0 hpt L} repeat
  closepath stroke grestore Pnt} def
/PentF {stroke [] 0 setdash gsave
  translate 0 hpt M 4 {72 rotate 0 hpt L} repeat
  closepath fill grestore} def
/Circle {stroke [] 0 setdash 2 copy
  hpt 0 360 arc stroke Pnt} def
/CircleF {stroke [] 0 setdash hpt 0 360 arc fill} def
/C0 {BL [] 0 setdash 2 copy moveto vpt 90 450 arc} bind def
/C1 {BL [] 0 setdash 2 copy moveto
	2 copy vpt 0 90 arc closepath fill
	vpt 0 360 arc closepath} bind def
/C2 {BL [] 0 setdash 2 copy moveto
	2 copy vpt 90 180 arc closepath fill
	vpt 0 360 arc closepath} bind def
/C3 {BL [] 0 setdash 2 copy moveto
	2 copy vpt 0 180 arc closepath fill
	vpt 0 360 arc closepath} bind def
/C4 {BL [] 0 setdash 2 copy moveto
	2 copy vpt 180 270 arc closepath fill
	vpt 0 360 arc closepath} bind def
/C5 {BL [] 0 setdash 2 copy moveto
	2 copy vpt 0 90 arc
	2 copy moveto
	2 copy vpt 180 270 arc closepath fill
	vpt 0 360 arc} bind def
/C6 {BL [] 0 setdash 2 copy moveto
	2 copy vpt 90 270 arc closepath fill
	vpt 0 360 arc closepath} bind def
/C7 {BL [] 0 setdash 2 copy moveto
	2 copy vpt 0 270 arc closepath fill
	vpt 0 360 arc closepath} bind def
/C8 {BL [] 0 setdash 2 copy moveto
	2 copy vpt 270 360 arc closepath fill
	vpt 0 360 arc closepath} bind def
/C9 {BL [] 0 setdash 2 copy moveto
	2 copy vpt 270 450 arc closepath fill
	vpt 0 360 arc closepath} bind def
/C10 {BL [] 0 setdash 2 copy 2 copy moveto vpt 270 360 arc closepath fill
	2 copy moveto
	2 copy vpt 90 180 arc closepath fill
	vpt 0 360 arc closepath} bind def
/C11 {BL [] 0 setdash 2 copy moveto
	2 copy vpt 0 180 arc closepath fill
	2 copy moveto
	2 copy vpt 270 360 arc closepath fill
	vpt 0 360 arc closepath} bind def
/C12 {BL [] 0 setdash 2 copy moveto
	2 copy vpt 180 360 arc closepath fill
	vpt 0 360 arc closepath} bind def
/C13 {BL [] 0 setdash 2 copy moveto
	2 copy vpt 0 90 arc closepath fill
	2 copy moveto
	2 copy vpt 180 360 arc closepath fill
	vpt 0 360 arc closepath} bind def
/C14 {BL [] 0 setdash 2 copy moveto
	2 copy vpt 90 360 arc closepath fill
	vpt 0 360 arc} bind def
/C15 {BL [] 0 setdash 2 copy vpt 0 360 arc closepath fill
	vpt 0 360 arc closepath} bind def
/Rec {newpath 4 2 roll moveto 1 index 0 rlineto 0 exch rlineto
	neg 0 rlineto closepath} bind def
/Square {dup Rec} bind def
/Bsquare {vpt sub exch vpt sub exch vpt2 Square} bind def
/S0 {BL [] 0 setdash 2 copy moveto 0 vpt rlineto BL Bsquare} bind def
/S1 {BL [] 0 setdash 2 copy vpt Square fill Bsquare} bind def
/S2 {BL [] 0 setdash 2 copy exch vpt sub exch vpt Square fill Bsquare} bind def
/S3 {BL [] 0 setdash 2 copy exch vpt sub exch vpt2 vpt Rec fill Bsquare} bind def
/S4 {BL [] 0 setdash 2 copy exch vpt sub exch vpt sub vpt Square fill Bsquare} bind def
/S5 {BL [] 0 setdash 2 copy 2 copy vpt Square fill
	exch vpt sub exch vpt sub vpt Square fill Bsquare} bind def
/S6 {BL [] 0 setdash 2 copy exch vpt sub exch vpt sub vpt vpt2 Rec fill Bsquare} bind def
/S7 {BL [] 0 setdash 2 copy exch vpt sub exch vpt sub vpt vpt2 Rec fill
	2 copy vpt Square fill Bsquare} bind def
/S8 {BL [] 0 setdash 2 copy vpt sub vpt Square fill Bsquare} bind def
/S9 {BL [] 0 setdash 2 copy vpt sub vpt vpt2 Rec fill Bsquare} bind def
/S10 {BL [] 0 setdash 2 copy vpt sub vpt Square fill 2 copy exch vpt sub exch vpt Square fill
	Bsquare} bind def
/S11 {BL [] 0 setdash 2 copy vpt sub vpt Square fill 2 copy exch vpt sub exch vpt2 vpt Rec fill
	Bsquare} bind def
/S12 {BL [] 0 setdash 2 copy exch vpt sub exch vpt sub vpt2 vpt Rec fill Bsquare} bind def
/S13 {BL [] 0 setdash 2 copy exch vpt sub exch vpt sub vpt2 vpt Rec fill
	2 copy vpt Square fill Bsquare} bind def
/S14 {BL [] 0 setdash 2 copy exch vpt sub exch vpt sub vpt2 vpt Rec fill
	2 copy exch vpt sub exch vpt Square fill Bsquare} bind def
/S15 {BL [] 0 setdash 2 copy Bsquare fill Bsquare} bind def
/D0 {gsave translate 45 rotate 0 0 S0 stroke grestore} bind def
/D1 {gsave translate 45 rotate 0 0 S1 stroke grestore} bind def
/D2 {gsave translate 45 rotate 0 0 S2 stroke grestore} bind def
/D3 {gsave translate 45 rotate 0 0 S3 stroke grestore} bind def
/D4 {gsave translate 45 rotate 0 0 S4 stroke grestore} bind def
/D5 {gsave translate 45 rotate 0 0 S5 stroke grestore} bind def
/D6 {gsave translate 45 rotate 0 0 S6 stroke grestore} bind def
/D7 {gsave translate 45 rotate 0 0 S7 stroke grestore} bind def
/D8 {gsave translate 45 rotate 0 0 S8 stroke grestore} bind def
/D9 {gsave translate 45 rotate 0 0 S9 stroke grestore} bind def
/D10 {gsave translate 45 rotate 0 0 S10 stroke grestore} bind def
/D11 {gsave translate 45 rotate 0 0 S11 stroke grestore} bind def
/D12 {gsave translate 45 rotate 0 0 S12 stroke grestore} bind def
/D13 {gsave translate 45 rotate 0 0 S13 stroke grestore} bind def
/D14 {gsave translate 45 rotate 0 0 S14 stroke grestore} bind def
/D15 {gsave translate 45 rotate 0 0 S15 stroke grestore} bind def
/DiaE {stroke [] 0 setdash vpt add M
  hpt neg vpt neg V hpt vpt neg V
  hpt vpt V hpt neg vpt V closepath stroke} def
/BoxE {stroke [] 0 setdash exch hpt sub exch vpt add M
  0 vpt2 neg V hpt2 0 V 0 vpt2 V
  hpt2 neg 0 V closepath stroke} def
/TriUE {stroke [] 0 setdash vpt 1.12 mul add M
  hpt neg vpt -1.62 mul V
  hpt 2 mul 0 V
  hpt neg vpt 1.62 mul V closepath stroke} def
/TriDE {stroke [] 0 setdash vpt 1.12 mul sub M
  hpt neg vpt 1.62 mul V
  hpt 2 mul 0 V
  hpt neg vpt -1.62 mul V closepath stroke} def
/PentE {stroke [] 0 setdash gsave
  translate 0 hpt M 4 {72 rotate 0 hpt L} repeat
  closepath stroke grestore} def
/CircE {stroke [] 0 setdash 
  hpt 0 360 arc stroke} def
/Opaque {gsave closepath 1 setgray fill grestore 0 setgray closepath} def
/DiaW {stroke [] 0 setdash vpt add M
  hpt neg vpt neg V hpt vpt neg V
  hpt vpt V hpt neg vpt V Opaque stroke} def
/BoxW {stroke [] 0 setdash exch hpt sub exch vpt add M
  0 vpt2 neg V hpt2 0 V 0 vpt2 V
  hpt2 neg 0 V Opaque stroke} def
/TriUW {stroke [] 0 setdash vpt 1.12 mul add M
  hpt neg vpt -1.62 mul V
  hpt 2 mul 0 V
  hpt neg vpt 1.62 mul V Opaque stroke} def
/TriDW {stroke [] 0 setdash vpt 1.12 mul sub M
  hpt neg vpt 1.62 mul V
  hpt 2 mul 0 V
  hpt neg vpt -1.62 mul V Opaque stroke} def
/PentW {stroke [] 0 setdash gsave
  translate 0 hpt M 4 {72 rotate 0 hpt L} repeat
  Opaque stroke grestore} def
/CircW {stroke [] 0 setdash 
  hpt 0 360 arc Opaque stroke} def
/BoxFill {gsave Rec 1 setgray fill grestore} def
/Density {
  /Fillden exch def
  currentrgbcolor
  /ColB exch def /ColG exch def /ColR exch def
  /ColR ColR Fillden mul Fillden sub 1 add def
  /ColG ColG Fillden mul Fillden sub 1 add def
  /ColB ColB Fillden mul Fillden sub 1 add def
  ColR ColG ColB setrgbcolor} def
/BoxColFill {gsave Rec PolyFill} def
/PolyFill {gsave Density fill grestore grestore} def
/h {rlineto rlineto rlineto gsave closepath fill grestore} bind def
%
% PostScript Level 1 Pattern Fill routine for rectangles
% Usage: x y w h s a XX PatternFill
%	x,y = lower left corner of box to be filled
%	w,h = width and height of box
%	  a = angle in degrees between lines and x-axis
%	 XX = 0/1 for no/yes cross-hatch
%
/PatternFill {gsave /PFa [ 9 2 roll ] def
  PFa 0 get PFa 2 get 2 div add PFa 1 get PFa 3 get 2 div add translate
  PFa 2 get -2 div PFa 3 get -2 div PFa 2 get PFa 3 get Rec
  gsave 1 setgray fill grestore clip
  currentlinewidth 0.5 mul setlinewidth
  /PFs PFa 2 get dup mul PFa 3 get dup mul add sqrt def
  0 0 M PFa 5 get rotate PFs -2 div dup translate
  0 1 PFs PFa 4 get div 1 add floor cvi
	{PFa 4 get mul 0 M 0 PFs V} for
  0 PFa 6 get ne {
	0 1 PFs PFa 4 get div 1 add floor cvi
	{PFa 4 get mul 0 2 1 roll M PFs 0 V} for
 } if
  stroke grestore} def
%
/languagelevel where
 {pop languagelevel} {1} ifelse
 2 lt
	{/InterpretLevel1 true def}
	{/InterpretLevel1 Level1 def}
 ifelse
%
% PostScript level 2 pattern fill definitions
%
/Level2PatternFill {
/Tile8x8 {/PaintType 2 /PatternType 1 /TilingType 1 /BBox [0 0 8 8] /XStep 8 /YStep 8}
	bind def
/KeepColor {currentrgbcolor [/Pattern /DeviceRGB] setcolorspace} bind def
<< Tile8x8
 /PaintProc {0.5 setlinewidth pop 0 0 M 8 8 L 0 8 M 8 0 L stroke} 
>> matrix makepattern
/Pat1 exch def
<< Tile8x8
 /PaintProc {0.5 setlinewidth pop 0 0 M 8 8 L 0 8 M 8 0 L stroke
	0 4 M 4 8 L 8 4 L 4 0 L 0 4 L stroke}
>> matrix makepattern
/Pat2 exch def
<< Tile8x8
 /PaintProc {0.5 setlinewidth pop 0 0 M 0 8 L
	8 8 L 8 0 L 0 0 L fill}
>> matrix makepattern
/Pat3 exch def
<< Tile8x8
 /PaintProc {0.5 setlinewidth pop -4 8 M 8 -4 L
	0 12 M 12 0 L stroke}
>> matrix makepattern
/Pat4 exch def
<< Tile8x8
 /PaintProc {0.5 setlinewidth pop -4 0 M 8 12 L
	0 -4 M 12 8 L stroke}
>> matrix makepattern
/Pat5 exch def
<< Tile8x8
 /PaintProc {0.5 setlinewidth pop -2 8 M 4 -4 L
	0 12 M 8 -4 L 4 12 M 10 0 L stroke}
>> matrix makepattern
/Pat6 exch def
<< Tile8x8
 /PaintProc {0.5 setlinewidth pop -2 0 M 4 12 L
	0 -4 M 8 12 L 4 -4 M 10 8 L stroke}
>> matrix makepattern
/Pat7 exch def
<< Tile8x8
 /PaintProc {0.5 setlinewidth pop 8 -2 M -4 4 L
	12 0 M -4 8 L 12 4 M 0 10 L stroke}
>> matrix makepattern
/Pat8 exch def
<< Tile8x8
 /PaintProc {0.5 setlinewidth pop 0 -2 M 12 4 L
	-4 0 M 12 8 L -4 4 M 8 10 L stroke}
>> matrix makepattern
/Pat9 exch def
/Pattern1 {PatternBgnd KeepColor Pat1 setpattern} bind def
/Pattern2 {PatternBgnd KeepColor Pat2 setpattern} bind def
/Pattern3 {PatternBgnd KeepColor Pat3 setpattern} bind def
/Pattern4 {PatternBgnd KeepColor Landscape {Pat5} {Pat4} ifelse setpattern} bind def
/Pattern5 {PatternBgnd KeepColor Landscape {Pat4} {Pat5} ifelse setpattern} bind def
/Pattern6 {PatternBgnd KeepColor Landscape {Pat9} {Pat6} ifelse setpattern} bind def
/Pattern7 {PatternBgnd KeepColor Landscape {Pat8} {Pat7} ifelse setpattern} bind def
} def
%
%
%End of PostScript Level 2 code
%
/PatternBgnd {
  TransparentPatterns {} {gsave 1 setgray fill grestore} ifelse
} def
%
% Substitute for Level 2 pattern fill codes with
% grayscale if Level 2 support is not selected.
%
/Level1PatternFill {
/Pattern1 {0.250 Density} bind def
/Pattern2 {0.500 Density} bind def
/Pattern3 {0.750 Density} bind def
/Pattern4 {0.125 Density} bind def
/Pattern5 {0.375 Density} bind def
/Pattern6 {0.625 Density} bind def
/Pattern7 {0.875 Density} bind def
} def
%
% Now test for support of Level 2 code
%
Level1 {Level1PatternFill} {Level2PatternFill} ifelse
%
/Symbol-Oblique /Symbol findfont [1 0 .167 1 0 0] makefont
dup length dict begin {1 index /FID eq {pop pop} {def} ifelse} forall
currentdict end definefont pop
/MFshow {
   { dup 5 get 3 ge
     { 5 get 3 eq {gsave} {grestore} ifelse }
     {dup dup 0 get findfont exch 1 get scalefont setfont
     [ currentpoint ] exch dup 2 get 0 exch R dup 5 get 2 ne {dup dup 6
     get exch 4 get {show} {stringwidth pop 0 R} ifelse }if dup 5 get 0 eq
     {dup 3 get {2 get neg 0 exch R pop} {pop aload pop M} ifelse} {dup 5
     get 1 eq {dup 2 get exch dup 3 get exch 6 get stringwidth pop -2 div
     dup 0 R} {dup 6 get stringwidth pop -2 div 0 R 6 get
     show 2 index {aload pop M neg 3 -1 roll neg R pop pop} {pop pop pop
     pop aload pop M} ifelse }ifelse }ifelse }
     ifelse }
   forall} bind def
/MFwidth {0 exch { dup 5 get 3 ge { 5 get 3 eq { 0 } { pop } ifelse }
 {dup 3 get{dup dup 0 get findfont exch 1 get scalefont setfont
     6 get stringwidth pop add} {pop} ifelse} ifelse} forall} bind def
/MLshow { currentpoint stroke M
  0 exch R
  Blacktext {gsave 0 setgray MFshow grestore} {MFshow} ifelse } bind def
/MRshow { currentpoint stroke M
  exch dup MFwidth neg 3 -1 roll R
  Blacktext {gsave 0 setgray MFshow grestore} {MFshow} ifelse } bind def
/MCshow { currentpoint stroke M
  exch dup MFwidth -2 div 3 -1 roll R
  Blacktext {gsave 0 setgray MFshow grestore} {MFshow} ifelse } bind def
/XYsave    { [( ) 1 2 true false 3 ()] } bind def
/XYrestore { [( ) 1 2 true false 4 ()] } bind def
end
%%EndProlog
gnudict begin
gsave
50 50 translate
0.050 0.050 scale
0 setgray
newpath
(arial) findfont 180 scalefont setfont
1.000 UL
LTb
1098 576 M
63 0 V
5769 0 R
-63 0 V
stroke
990 576 M
[ [(arial) 180.0 0.0 true true 0 ( 0)]
] -60.0 MRshow
1.000 UL
LTb
1098 1426 M
63 0 V
5769 0 R
-63 0 V
stroke
990 1426 M
[ [(arial) 180.0 0.0 true true 0 ( 0.2)]
] -60.0 MRshow
1.000 UL
LTb
1098 2275 M
63 0 V
5769 0 R
-63 0 V
stroke
990 2275 M
[ [(arial) 180.0 0.0 true true 0 ( 0.4)]
] -60.0 MRshow
1.000 UL
LTb
1098 3125 M
63 0 V
5769 0 R
-63 0 V
stroke
990 3125 M
[ [(arial) 180.0 0.0 true true 0 ( 0.6)]
] -60.0 MRshow
1.000 UL
LTb
1098 3974 M
63 0 V
5769 0 R
-63 0 V
stroke
990 3974 M
[ [(arial) 180.0 0.0 true true 0 ( 0.8)]
] -60.0 MRshow
1.000 UL
LTb
1098 4824 M
63 0 V
5769 0 R
-63 0 V
stroke
990 4824 M
[ [(arial) 180.0 0.0 true true 0 ( 1)]
] -60.0 MRshow
1.000 UL
LTb
1098 576 M
0 63 V
0 4185 R
0 -63 V
stroke
1098 396 M
[ [(arial) 180.0 0.0 true true 0 ( 0)]
] -60.0 MCshow
1.000 UL
LTb
1681 576 M
0 63 V
0 4185 R
0 -63 V
stroke
1681 396 M
[ [(arial) 180.0 0.0 true true 0 ( 100)]
] -60.0 MCshow
1.000 UL
LTb
2264 576 M
0 63 V
0 4185 R
0 -63 V
stroke
2264 396 M
[ [(arial) 180.0 0.0 true true 0 ( 200)]
] -60.0 MCshow
1.000 UL
LTb
2848 576 M
0 63 V
0 4185 R
0 -63 V
stroke
2848 396 M
[ [(arial) 180.0 0.0 true true 0 ( 300)]
] -60.0 MCshow
1.000 UL
LTb
3431 576 M
0 63 V
0 4185 R
0 -63 V
stroke
3431 396 M
[ [(arial) 180.0 0.0 true true 0 ( 400)]
] -60.0 MCshow
1.000 UL
LTb
4014 576 M
0 63 V
0 4185 R
0 -63 V
stroke
4014 396 M
[ [(arial) 180.0 0.0 true true 0 ( 500)]
] -60.0 MCshow
1.000 UL
LTb
4597 576 M
0 63 V
0 4185 R
0 -63 V
stroke
4597 396 M
[ [(arial) 180.0 0.0 true true 0 ( 600)]
] -60.0 MCshow
1.000 UL
LTb
5180 576 M
0 63 V
0 4185 R
0 -63 V
stroke
5180 396 M
[ [(arial) 180.0 0.0 true true 0 ( 700)]
] -60.0 MCshow
1.000 UL
LTb
5764 576 M
0 63 V
0 4185 R
0 -63 V
stroke
5764 396 M
[ [(arial) 180.0 0.0 true true 0 ( 800)]
] -60.0 MCshow
1.000 UL
LTb
6347 576 M
0 63 V
0 4185 R
0 -63 V
stroke
6347 396 M
[ [(arial) 180.0 0.0 true true 0 ( 900)]
] -60.0 MCshow
1.000 UL
LTb
6930 576 M
0 63 V
0 4185 R
0 -63 V
stroke
6930 396 M
[ [(arial) 180.0 0.0 true true 0 ( 1000)]
] -60.0 MCshow
1.000 UL
LTb
1.000 UL
LTb
1098 4824 N
0 -4248 V
5832 0 V
0 4248 V
-5832 0 V
Z stroke
LCb setrgbcolor
360 2700 M
currentpoint gsave translate 90 rotate 0 0 moveto
[ [(arial) 180.0 0.0 true true 0 (Lifetime)]
] -60.0 MCshow
grestore
LTb
LCb setrgbcolor
4014 126 M
[ [(arial) 180.0 0.0 true true 0 (Frame)]
] -60.0 MCshow
LTb
1.000 UP
1.000 UL
LTb
3.000 UL
LT0
LTb
6111 4671 M
[ [(arial) 180.0 0.0 true true 0 (0.3456)]
] -60.0 MRshow
LT0
6219 4671 M
495 0 V
1104 4824 M
6 -149 V
5 -112 V
6 -92 V
6 -79 V
6 -71 V
6 -64 V
6 -58 V
5 -55 V
6 -51 V
6 -48 V
6 -45 V
6 -43 V
6 -40 V
5 -40 V
6 -37 V
6 -36 V
6 -36 V
6 -33 V
6 -33 V
5 -32 V
6 -30 V
6 -31 V
6 -28 V
6 -29 V
6 -27 V
5 -28 V
6 -26 V
6 -26 V
6 -25 V
6 -25 V
6 -24 V
5 -24 V
6 -24 V
6 -23 V
6 -22 V
6 -23 V
6 -22 V
5 -21 V
6 -21 V
6 -21 V
6 -21 V
6 -20 V
6 -19 V
5 -20 V
6 -19 V
6 -18 V
6 -19 V
6 -18 V
6 -18 V
5 -18 V
6 -17 V
6 -18 V
6 -17 V
6 -17 V
6 -17 V
5 -16 V
6 -16 V
6 -16 V
6 -16 V
6 -16 V
6 -15 V
5 -15 V
6 -15 V
6 -15 V
6 -14 V
6 -15 V
6 -14 V
5 -14 V
6 -14 V
6 -14 V
6 -14 V
6 -13 V
6 -13 V
5 -14 V
6 -12 V
6 -13 V
6 -13 V
6 -13 V
6 -12 V
5 -12 V
6 -12 V
6 -12 V
6 -13 V
6 -11 V
6 -12 V
5 -12 V
6 -11 V
6 -11 V
6 -11 V
6 -12 V
6 -11 V
5 -11 V
6 -11 V
6 -10 V
6 -11 V
6 -11 V
6 -10 V
5 -11 V
6 -10 V
6 -10 V
6 -10 V
6 -10 V
stroke 1699 2297 M
6 -10 V
5 -10 V
6 -9 V
6 -10 V
6 -10 V
6 -9 V
6 -10 V
5 -9 V
6 -9 V
6 -10 V
6 -9 V
6 -9 V
6 -9 V
5 -9 V
6 -9 V
6 -9 V
6 -9 V
6 -9 V
6 -8 V
5 -8 V
6 -9 V
6 -8 V
6 -9 V
6 -8 V
5 -9 V
6 -8 V
6 -8 V
6 -8 V
6 -8 V
6 -8 V
5 -8 V
6 -8 V
6 -8 V
6 -8 V
6 -8 V
6 -7 V
5 -8 V
6 -8 V
6 -7 V
6 -8 V
6 -7 V
6 -8 V
5 -7 V
6 -7 V
6 -8 V
6 -7 V
6 -7 V
6 -7 V
5 -7 V
6 -7 V
6 -7 V
6 -7 V
6 -7 V
6 -6 V
5 -7 V
6 -7 V
6 -7 V
6 -7 V
6 -6 V
6 -7 V
5 -6 V
6 -7 V
6 -6 V
6 -7 V
6 -6 V
6 -6 V
5 -6 V
6 -7 V
6 -6 V
6 -6 V
6 -6 V
6 -6 V
5 -6 V
6 -6 V
6 -6 V
6 -6 V
6 -6 V
6 -6 V
5 -5 V
6 -6 V
6 -6 V
6 -6 V
6 -5 V
6 -6 V
5 -6 V
6 -5 V
6 -6 V
6 -5 V
6 -6 V
6 -5 V
5 -6 V
6 -5 V
6 -5 V
6 -6 V
6 -5 V
6 -6 V
5 -5 V
6 -5 V
6 -5 V
6 -5 V
6 -5 V
6 -6 V
5 -5 V
6 -4 V
stroke 2305 1561 M
6 -5 V
6 -6 V
6 -4 V
6 -5 V
5 -5 V
6 -5 V
6 -4 V
6 -5 V
6 -5 V
6 -5 V
5 -4 V
6 -5 V
6 -4 V
6 -5 V
6 -5 V
6 -4 V
5 -5 V
6 -4 V
6 -5 V
6 -4 V
6 -5 V
6 -4 V
5 -5 V
6 -4 V
6 -5 V
6 -4 V
6 -4 V
6 -4 V
5 -5 V
6 -4 V
6 -5 V
6 -4 V
6 -4 V
6 -4 V
5 -5 V
6 -4 V
6 -4 V
6 -4 V
6 -4 V
6 -4 V
5 -4 V
6 -4 V
6 -4 V
6 -5 V
6 -3 V
5 -4 V
6 -4 V
6 -4 V
6 -4 V
6 -4 V
6 -4 V
5 -4 V
6 -3 V
6 -4 V
6 -4 V
6 -3 V
6 -4 V
5 -4 V
6 -3 V
6 -4 V
6 -3 V
6 -4 V
6 -4 V
5 -3 V
6 -3 V
6 -4 V
6 -3 V
6 -4 V
6 -3 V
5 -3 V
6 -4 V
6 -3 V
6 -3 V
6 -3 V
6 -4 V
5 -3 V
6 -3 V
6 -4 V
6 -3 V
6 -3 V
6 -3 V
5 -3 V
6 -3 V
6 -3 V
6 -4 V
6 -3 V
6 -3 V
5 -3 V
6 -3 V
6 -3 V
6 -3 V
6 -3 V
6 -3 V
5 -3 V
6 -3 V
6 -3 V
6 -3 V
6 -3 V
6 -2 V
5 -3 V
6 -3 V
6 -3 V
6 -3 V
6 -3 V
stroke 2912 1165 M
6 -3 V
5 -2 V
6 -3 V
6 -3 V
6 -3 V
6 -2 V
6 -3 V
5 -3 V
6 -3 V
6 -2 V
6 -3 V
6 -3 V
6 -2 V
5 -3 V
6 -3 V
6 -2 V
6 -3 V
6 -2 V
6 -3 V
5 -2 V
6 -2 V
6 -3 V
6 -3 V
6 -2 V
6 -3 V
5 -2 V
6 -3 V
6 -2 V
6 -2 V
6 -3 V
6 -3 V
5 -2 V
6 -2 V
6 -3 V
6 -2 V
6 -2 V
6 -3 V
5 -2 V
6 -2 V
6 -3 V
6 -2 V
6 -2 V
6 -3 V
5 -2 V
6 -2 V
6 -2 V
6 -3 V
6 -2 V
6 -2 V
5 -3 V
6 -2 V
6 -2 V
6 -2 V
6 -3 V
6 -2 V
5 -2 V
6 -2 V
6 -2 V
6 -2 V
6 -2 V
6 -2 V
5 -3 V
6 -2 V
6 -2 V
6 -2 V
6 -2 V
5 -2 V
6 -2 V
6 -2 V
6 -2 V
6 -1 V
6 -3 V
5 -1 V
6 -2 V
6 -2 V
6 -2 V
6 -2 V
6 -2 V
5 -2 V
6 -1 V
6 -3 V
6 -1 V
6 -2 V
6 -2 V
5 -2 V
6 -1 V
6 -2 V
6 -2 V
6 -2 V
6 -1 V
5 -2 V
6 -2 V
6 -2 V
6 -2 V
6 -1 V
6 -2 V
5 -2 V
6 -1 V
6 -2 V
6 -2 V
6 -1 V
6 -2 V
5 -1 V
6 -2 V
stroke 3518 938 M
6 -2 V
6 -1 V
6 -2 V
6 -2 V
5 -2 V
6 -1 V
6 -2 V
6 -1 V
6 -2 V
6 -2 V
5 -1 V
6 -2 V
6 -1 V
6 -2 V
6 -1 V
6 -2 V
5 -2 V
6 -1 V
6 -2 V
6 -1 V
6 -2 V
6 -1 V
5 -2 V
6 -1 V
6 -2 V
6 -1 V
6 -2 V
6 -1 V
5 -2 V
6 -1 V
6 -1 V
6 -2 V
6 -1 V
6 -2 V
5 -1 V
6 -2 V
6 -1 V
6 -1 V
6 -2 V
6 -1 V
5 -2 V
6 -1 V
6 -1 V
6 -2 V
6 -1 V
6 -1 V
5 -2 V
6 -1 V
6 -1 V
6 -1 V
6 -2 V
6 -1 V
5 -1 V
6 -2 V
6 -1 V
6 -1 V
6 -1 V
6 -2 V
5 -1 V
6 -1 V
6 -1 V
6 -2 V
6 -1 V
6 -1 V
5 -1 V
6 -1 V
6 -2 V
6 -1 V
6 -1 V
6 -1 V
5 -2 V
6 -1 V
6 -1 V
6 -1 V
6 -1 V
6 -1 V
5 -2 V
6 -1 V
6 -1 V
6 -1 V
6 -1 V
6 -1 V
5 -2 V
6 -1 V
6 -1 V
6 -1 V
6 -1 V
5 -1 V
6 -2 V
6 0 V
6 -2 V
6 -1 V
6 -1 V
5 -1 V
6 -1 V
6 -1 V
6 -1 V
6 -1 V
6 -1 V
5 -1 V
6 -1 V
6 -1 V
6 -1 V
6 -1 V
stroke 4125 801 M
6 -1 V
5 -1 V
6 -1 V
6 -1 V
6 -1 V
6 -1 V
6 -1 V
5 -1 V
6 -1 V
6 -1 V
6 -1 V
6 -1 V
6 -1 V
5 -1 V
6 -1 V
6 -1 V
6 -1 V
6 -1 V
6 -1 V
5 -1 V
6 -1 V
6 -1 V
6 0 V
6 -1 V
6 -1 V
5 -1 V
6 -1 V
6 -1 V
6 -1 V
6 -1 V
6 -1 V
5 0 V
6 -1 V
6 -1 V
6 -1 V
6 -1 V
6 -1 V
5 -1 V
6 0 V
6 -1 V
6 -1 V
6 -1 V
6 -1 V
5 -1 V
6 0 V
6 -1 V
6 -1 V
6 -1 V
6 0 V
5 -1 V
6 -1 V
6 -1 V
6 0 V
6 -1 V
6 -1 V
5 -1 V
6 0 V
6 -1 V
6 -1 V
6 -1 V
6 0 V
5 -1 V
6 -1 V
6 -1 V
6 0 V
6 -1 V
6 -1 V
5 -1 V
6 0 V
6 -1 V
6 -1 V
6 0 V
6 -1 V
5 -1 V
6 -1 V
6 0 V
6 -1 V
6 -1 V
6 -1 V
5 0 V
6 -1 V
6 -1 V
6 -1 V
6 0 V
6 -1 V
5 -1 V
6 0 V
6 -1 V
6 0 V
6 -1 V
6 -1 V
5 0 V
6 -1 V
6 -1 V
6 -1 V
6 0 V
6 -1 V
5 0 V
6 -1 V
6 -1 V
6 0 V
6 -1 V
6 -1 V
5 -1 V
stroke 4731 717 M
6 0 V
6 -1 V
6 0 V
6 -1 V
5 -1 V
6 0 V
6 -1 V
6 -1 V
6 0 V
6 -1 V
5 0 V
6 -1 V
6 -1 V
6 0 V
6 0 V
6 -1 V
5 -1 V
6 -1 V
6 0 V
6 0 V
6 -1 V
6 -1 V
5 0 V
6 -1 V
6 0 V
6 -1 V
6 -1 V
6 0 V
5 -1 V
6 0 V
6 -1 V
6 0 V
6 -1 V
6 -1 V
5 0 V
6 0 V
6 -1 V
6 -1 V
6 0 V
6 -1 V
5 0 V
6 -1 V
6 -1 V
6 0 V
6 0 V
6 -1 V
5 -1 V
6 0 V
6 -1 V
6 0 V
6 -1 V
6 0 V
5 -1 V
6 -1 V
6 0 V
6 -1 V
6 0 V
6 -1 V
5 -1 V
6 0 V
6 0 V
6 -1 V
6 -1 V
6 0 V
5 0 V
6 -1 V
6 -1 V
6 0 V
6 -1 V
6 0 V
5 0 V
6 -1 V
6 -1 V
6 0 V
6 -1 V
6 0 V
5 -1 V
6 0 V
6 -1 V
6 0 V
6 -1 V
6 0 V
5 -1 V
6 0 V
6 -1 V
6 -1 V
6 0 V
6 0 V
5 -1 V
6 0 V
6 -1 V
6 -1 V
6 0 V
6 0 V
5 -1 V
6 0 V
6 -1 V
6 0 V
6 -1 V
6 0 V
5 -1 V
6 0 V
6 -1 V
6 0 V
stroke 5338 661 M
6 -1 V
6 0 V
5 -1 V
6 0 V
6 -1 V
6 0 V
6 0 V
6 -1 V
5 -1 V
6 0 V
6 -1 V
6 0 V
6 0 V
6 -1 V
5 0 V
6 -1 V
6 0 V
6 -1 V
6 0 V
6 0 V
5 -1 V
6 0 V
6 -1 V
6 0 V
6 -1 V
5 0 V
6 0 V
6 0 V
6 -1 V
6 0 V
6 -1 V
5 0 V
6 0 V
6 -1 V
6 0 V
6 -1 V
6 0 V
5 -1 V
6 0 V
6 0 V
6 -1 V
6 0 V
6 -1 V
5 0 V
6 -1 V
6 0 V
6 0 V
6 -1 V
6 0 V
5 -1 V
6 0 V
6 -1 V
6 0 V
6 0 V
6 -1 V
5 0 V
6 -1 V
6 0 V
6 0 V
6 -1 V
6 0 V
5 0 V
6 -1 V
6 0 V
6 -1 V
6 0 V
6 -1 V
5 0 V
6 0 V
6 -1 V
6 0 V
6 0 V
6 -1 V
5 0 V
6 0 V
6 -1 V
6 0 V
6 -1 V
6 0 V
5 0 V
6 -1 V
6 0 V
6 0 V
6 -1 V
6 0 V
5 -1 V
6 0 V
6 0 V
6 -1 V
6 0 V
6 0 V
5 -1 V
6 0 V
6 0 V
6 -1 V
6 0 V
6 -1 V
5 0 V
6 0 V
6 0 V
6 -1 V
6 0 V
6 -1 V
5 0 V
stroke 5944 619 M
6 0 V
6 -1 V
6 0 V
6 0 V
6 0 V
5 -1 V
6 0 V
6 -1 V
6 0 V
6 0 V
6 0 V
5 -1 V
6 0 V
6 0 V
6 -1 V
6 0 V
6 0 V
5 -1 V
6 0 V
6 0 V
6 0 V
6 -1 V
6 0 V
5 0 V
6 -1 V
6 0 V
6 -1 V
6 0 V
6 0 V
5 0 V
6 0 V
6 -1 V
6 0 V
6 0 V
6 -1 V
5 0 V
6 0 V
6 -1 V
6 0 V
6 0 V
6 0 V
5 -1 V
6 0 V
6 0 V
6 0 V
6 -1 V
5 0 V
6 0 V
6 -1 V
6 0 V
6 0 V
6 0 V
5 -1 V
6 0 V
6 0 V
6 0 V
6 -1 V
6 0 V
5 0 V
6 -1 V
6 0 V
6 0 V
6 0 V
6 0 V
5 -1 V
6 0 V
6 0 V
6 -1 V
6 0 V
6 0 V
5 0 V
6 0 V
6 -1 V
6 0 V
6 0 V
6 -1 V
5 0 V
6 0 V
6 -1 V
6 0 V
6 0 V
6 0 V
5 0 V
6 -1 V
6 0 V
6 0 V
6 0 V
6 -1 V
5 0 V
6 0 V
6 -1 V
6 0 V
6 0 V
6 0 V
5 0 V
6 -1 V
6 0 V
6 0 V
6 -1 V
6 0 V
5 0 V
6 0 V
6 -1 V
6 0 V
stroke 6551 590 M
6 0 V
6 0 V
5 0 V
6 -1 V
6 0 V
6 0 V
6 -1 V
6 0 V
5 0 V
6 0 V
6 -1 V
6 0 V
6 0 V
6 0 V
5 0 V
6 -1 V
6 0 V
6 0 V
6 0 V
6 -1 V
5 0 V
6 0 V
6 -1 V
6 0 V
6 0 V
6 0 V
5 0 V
6 0 V
6 -1 V
6 0 V
6 0 V
6 0 V
5 -1 V
6 0 V
6 0 V
6 0 V
6 0 V
6 0 V
5 -1 V
6 0 V
6 0 V
6 0 V
6 -1 V
6 0 V
5 0 V
6 0 V
6 -1 V
6 0 V
6 0 V
6 0 V
5 0 V
6 0 V
6 0 V
6 -1 V
6 0 V
6 0 V
5 0 V
6 -1 V
6 0 V
6 0 V
6 0 V
6 -1 V
5 0 V
6 0 V
6 0 V
stroke
LT1
LTb
6111 4491 M
[ [(arial) 180.0 0.0 true true 0 (1.0367)]
] -60.0 MRshow
LT1
6219 4491 M
495 0 V
1104 4824 M
6 -157 V
5 -125 V
6 -105 V
6 -93 V
6 -84 V
6 -77 V
6 -71 V
5 -67 V
6 -63 V
6 -61 V
6 -57 V
6 -54 V
6 -53 V
5 -50 V
6 -49 V
6 -47 V
6 -46 V
6 -45 V
6 -43 V
5 -42 V
6 -41 V
6 -40 V
6 -39 V
6 -39 V
6 -37 V
5 -36 V
6 -37 V
6 -35 V
6 -34 V
6 -34 V
6 -33 V
5 -32 V
6 -32 V
6 -31 V
6 -31 V
6 -30 V
6 -30 V
5 -29 V
6 -29 V
6 -28 V
6 -28 V
6 -27 V
6 -28 V
5 -26 V
6 -26 V
6 -26 V
6 -26 V
6 -25 V
6 -24 V
5 -25 V
6 -23 V
6 -24 V
6 -23 V
6 -23 V
6 -23 V
5 -22 V
6 -22 V
6 -21 V
6 -22 V
6 -21 V
6 -21 V
5 -20 V
6 -21 V
6 -20 V
6 -19 V
6 -20 V
6 -20 V
5 -19 V
6 -18 V
6 -19 V
6 -18 V
6 -18 V
6 -18 V
5 -17 V
6 -17 V
6 -17 V
6 -17 V
6 -17 V
6 -16 V
5 -16 V
6 -16 V
6 -15 V
6 -16 V
6 -15 V
6 -16 V
5 -14 V
6 -15 V
6 -15 V
6 -14 V
6 -15 V
6 -14 V
5 -14 V
6 -13 V
6 -14 V
6 -13 V
6 -14 V
6 -12 V
5 -14 V
6 -12 V
6 -13 V
6 -12 V
6 -12 V
stroke 1699 1597 M
6 -12 V
5 -12 V
6 -12 V
6 -12 V
6 -11 V
6 -12 V
6 -11 V
5 -11 V
6 -11 V
6 -11 V
6 -11 V
6 -10 V
6 -10 V
5 -11 V
6 -10 V
6 -10 V
6 -10 V
6 -9 V
6 -10 V
5 -10 V
6 -9 V
6 -10 V
6 -9 V
6 -9 V
5 -9 V
6 -9 V
6 -9 V
6 -9 V
6 -8 V
6 -9 V
5 -8 V
6 -8 V
6 -9 V
6 -8 V
6 -8 V
6 -7 V
5 -9 V
6 -7 V
6 -8 V
6 -7 V
6 -8 V
6 -7 V
5 -8 V
6 -7 V
6 -7 V
6 -7 V
6 -7 V
6 -7 V
5 -7 V
6 -7 V
6 -7 V
6 -6 V
6 -7 V
6 -6 V
5 -7 V
6 -6 V
6 -6 V
6 -6 V
6 -6 V
6 -6 V
5 -6 V
6 -6 V
6 -5 V
6 -6 V
6 -5 V
6 -6 V
5 -5 V
6 -5 V
6 -6 V
6 -5 V
6 -5 V
6 -5 V
5 -5 V
6 -5 V
6 -5 V
6 -5 V
6 -4 V
6 -5 V
5 -5 V
6 -4 V
6 -5 V
6 -4 V
6 -5 V
6 -4 V
5 -4 V
6 -4 V
6 -5 V
6 -4 V
6 -4 V
6 -4 V
5 -4 V
6 -4 V
6 -3 V
6 -4 V
6 -4 V
6 -3 V
5 -4 V
6 -4 V
6 -3 V
6 -3 V
6 -4 V
6 -4 V
5 -3 V
6 -3 V
stroke 2305 881 M
6 -3 V
6 -4 V
6 -3 V
6 -3 V
5 -4 V
6 -3 V
6 -3 V
6 -3 V
6 -3 V
6 -3 V
5 -3 V
6 -3 V
6 -3 V
6 -2 V
6 -3 V
6 -3 V
5 -3 V
6 -3 V
6 -2 V
6 -3 V
6 -2 V
6 -3 V
5 -3 V
6 -2 V
6 -3 V
6 -2 V
6 -2 V
6 -3 V
5 -2 V
6 -3 V
6 -2 V
6 -2 V
6 -3 V
6 -2 V
5 -2 V
6 -2 V
6 -3 V
6 -2 V
6 -2 V
6 -2 V
5 -2 V
6 -2 V
6 -2 V
6 -2 V
6 -2 V
5 -2 V
6 -2 V
6 -2 V
6 -2 V
6 -2 V
6 -2 V
5 -2 V
6 -2 V
6 -2 V
6 -1 V
6 -2 V
6 -2 V
5 -2 V
6 -2 V
6 -1 V
6 -2 V
6 -2 V
6 -1 V
5 -2 V
6 -1 V
6 -2 V
6 -2 V
6 -1 V
6 -2 V
5 -1 V
6 -2 V
6 -1 V
6 -2 V
6 -1 V
6 -2 V
5 -1 V
6 -2 V
6 -1 V
6 -1 V
6 -2 V
6 -1 V
5 -1 V
6 -2 V
6 -1 V
6 -1 V
6 -2 V
6 -1 V
5 -1 V
6 -2 V
6 -1 V
6 -1 V
6 -1 V
6 -1 V
5 -2 V
6 -1 V
6 -1 V
6 -2 V
6 0 V
6 -2 V
5 -1 V
6 -1 V
6 -1 V
6 -1 V
6 -1 V
stroke 2912 676 M
6 -1 V
5 -1 V
6 -2 V
6 0 V
6 -2 V
6 -1 V
6 0 V
5 -2 V
6 -1 V
6 0 V
6 -2 V
6 0 V
6 -1 V
5 -1 V
6 -1 V
6 -1 V
6 -1 V
6 -1 V
6 -1 V
5 -1 V
6 -1 V
6 0 V
6 -1 V
6 -1 V
6 -1 V
5 -1 V
6 -1 V
6 -1 V
6 0 V
6 -1 V
6 -1 V
5 -1 V
6 -1 V
6 0 V
6 -1 V
6 -1 V
6 -1 V
5 -1 V
6 0 V
6 -1 V
6 -1 V
6 -1 V
6 0 V
5 -1 V
6 -1 V
6 0 V
6 -1 V
6 -1 V
6 0 V
5 -1 V
6 -1 V
6 0 V
6 -1 V
6 -1 V
6 0 V
5 -1 V
6 0 V
6 -1 V
6 -1 V
6 0 V
6 -1 V
5 0 V
6 -1 V
6 -1 V
6 0 V
6 -1 V
5 0 V
6 -1 V
6 0 V
6 -1 V
6 0 V
6 -1 V
5 0 V
6 -1 V
6 0 V
6 -1 V
6 0 V
6 -1 V
5 0 V
6 -1 V
6 0 V
6 0 V
6 -1 V
6 0 V
5 -1 V
6 0 V
6 -1 V
6 0 V
6 0 V
6 -1 V
5 0 V
6 -1 V
6 0 V
6 0 V
6 -1 V
6 0 V
5 0 V
6 -1 V
6 0 V
6 0 V
6 -1 V
6 0 V
5 0 V
6 -1 V
stroke 3518 607 M
6 0 V
6 0 V
6 0 V
6 -1 V
5 0 V
6 0 V
6 -1 V
6 0 V
6 0 V
6 -1 V
5 0 V
6 0 V
6 0 V
6 -1 V
6 0 V
6 0 V
5 0 V
6 -1 V
6 0 V
6 0 V
6 -1 V
6 0 V
5 0 V
6 0 V
6 0 V
6 -1 V
6 0 V
6 0 V
5 -1 V
6 0 V
6 0 V
6 0 V
6 0 V
6 -1 V
5 0 V
6 0 V
6 0 V
6 -1 V
6 0 V
6 0 V
5 0 V
6 -1 V
6 0 V
6 0 V
6 0 V
6 0 V
5 0 V
6 -1 V
6 0 V
6 0 V
6 0 V
6 -1 V
5 0 V
6 0 V
6 0 V
6 0 V
6 -1 V
6 0 V
5 0 V
6 0 V
6 0 V
6 0 V
6 0 V
6 0 V
5 -1 V
6 0 V
6 0 V
6 0 V
6 0 V
6 0 V
5 -1 V
6 0 V
6 0 V
6 0 V
6 0 V
6 0 V
5 0 V
6 -1 V
6 0 V
6 0 V
6 0 V
6 0 V
5 0 V
6 0 V
6 0 V
6 0 V
6 0 V
5 0 V
6 -1 V
6 0 V
6 0 V
6 0 V
6 0 V
5 0 V
6 0 V
6 0 V
6 -1 V
6 0 V
6 0 V
5 0 V
6 0 V
6 0 V
6 0 V
6 0 V
stroke 4125 588 M
6 0 V
5 -1 V
6 0 V
6 0 V
6 0 V
6 0 V
6 0 V
5 0 V
6 0 V
6 0 V
6 0 V
6 0 V
6 0 V
5 0 V
6 -1 V
6 0 V
6 0 V
6 0 V
6 0 V
5 0 V
6 0 V
6 0 V
6 0 V
6 0 V
6 0 V
5 -1 V
6 0 V
6 0 V
6 0 V
6 0 V
6 0 V
5 0 V
6 0 V
6 0 V
6 0 V
6 0 V
6 -1 V
5 0 V
6 0 V
6 0 V
6 0 V
6 0 V
6 0 V
5 0 V
6 0 V
6 0 V
6 0 V
6 0 V
6 0 V
5 0 V
6 0 V
6 0 V
6 0 V
6 0 V
6 0 V
5 0 V
6 0 V
6 0 V
6 -1 V
6 0 V
6 0 V
5 0 V
6 0 V
6 0 V
6 0 V
6 0 V
6 0 V
5 0 V
6 0 V
6 0 V
6 0 V
6 0 V
6 0 V
5 0 V
6 0 V
6 0 V
6 -1 V
6 0 V
6 0 V
5 0 V
6 0 V
6 0 V
6 0 V
6 0 V
6 0 V
5 0 V
6 0 V
6 0 V
6 0 V
6 0 V
6 0 V
5 0 V
6 0 V
6 0 V
6 0 V
6 0 V
6 0 V
5 0 V
6 0 V
6 0 V
6 0 V
6 0 V
6 0 V
5 0 V
stroke 4731 582 M
6 0 V
6 -1 V
6 0 V
6 0 V
5 0 V
6 0 V
6 0 V
6 0 V
6 0 V
6 0 V
5 0 V
6 0 V
6 0 V
6 0 V
6 0 V
6 0 V
5 0 V
6 0 V
6 0 V
6 0 V
6 -1 V
6 0 V
5 0 V
6 0 V
6 0 V
6 0 V
6 0 V
6 0 V
5 0 V
6 0 V
6 0 V
6 0 V
6 0 V
6 0 V
5 0 V
6 0 V
6 0 V
6 0 V
6 0 V
6 0 V
5 0 V
6 0 V
6 0 V
6 -1 V
6 0 V
6 0 V
5 0 V
6 0 V
6 0 V
6 0 V
6 0 V
6 0 V
5 0 V
6 0 V
6 0 V
6 0 V
6 0 V
6 0 V
5 0 V
6 0 V
6 0 V
6 0 V
6 0 V
6 0 V
5 0 V
6 0 V
6 0 V
6 0 V
6 0 V
6 0 V
5 0 V
6 0 V
6 0 V
6 0 V
6 0 V
6 0 V
5 0 V
6 0 V
6 0 V
6 0 V
6 0 V
6 0 V
5 0 V
6 -1 V
6 0 V
6 0 V
6 0 V
6 0 V
5 0 V
6 0 V
6 0 V
6 0 V
6 0 V
6 0 V
5 0 V
6 0 V
6 0 V
6 0 V
6 0 V
6 0 V
5 0 V
6 0 V
6 0 V
6 0 V
stroke 5338 578 M
6 0 V
6 0 V
5 0 V
6 0 V
6 0 V
6 0 V
6 0 V
6 0 V
5 0 V
6 0 V
6 0 V
6 0 V
6 0 V
6 0 V
5 0 V
6 0 V
6 0 V
6 0 V
6 0 V
6 0 V
5 0 V
6 0 V
6 0 V
6 0 V
6 -1 V
5 0 V
6 0 V
6 0 V
6 0 V
6 0 V
6 0 V
5 0 V
6 0 V
6 0 V
6 0 V
6 0 V
6 0 V
5 0 V
6 0 V
6 0 V
6 0 V
6 0 V
6 0 V
5 0 V
6 0 V
6 0 V
6 0 V
6 0 V
6 0 V
5 0 V
6 0 V
6 0 V
6 0 V
6 0 V
6 0 V
5 0 V
6 0 V
6 0 V
6 0 V
6 0 V
6 0 V
5 0 V
6 0 V
6 0 V
6 0 V
6 0 V
6 0 V
5 0 V
6 0 V
6 0 V
6 0 V
6 0 V
6 0 V
5 0 V
6 0 V
6 0 V
6 0 V
6 0 V
6 0 V
5 0 V
6 0 V
6 0 V
6 0 V
6 0 V
6 0 V
5 0 V
6 0 V
6 0 V
6 0 V
6 0 V
6 0 V
5 0 V
6 0 V
6 0 V
6 0 V
6 0 V
6 -1 V
5 0 V
6 0 V
6 0 V
6 0 V
6 0 V
6 0 V
5 0 V
stroke 5944 576 M
6 0 V
6 0 V
6 0 V
6 0 V
6 0 V
5 0 V
6 0 V
6 0 V
6 0 V
6 0 V
6 0 V
5 0 V
6 0 V
6 0 V
6 0 V
6 0 V
6 0 V
5 0 V
6 0 V
6 0 V
6 0 V
6 0 V
6 0 V
5 0 V
6 0 V
6 0 V
6 0 V
6 0 V
6 0 V
5 0 V
6 0 V
6 0 V
6 0 V
6 0 V
6 0 V
5 0 V
6 0 V
6 0 V
6 0 V
6 0 V
6 0 V
5 0 V
6 0 V
6 0 V
6 0 V
6 0 V
5 0 V
6 0 V
6 0 V
6 0 V
6 0 V
6 0 V
5 0 V
6 0 V
6 0 V
6 0 V
6 0 V
6 0 V
5 0 V
6 0 V
6 0 V
6 0 V
6 0 V
6 0 V
5 0 V
6 0 V
6 0 V
6 0 V
6 0 V
6 0 V
5 0 V
6 0 V
6 0 V
6 0 V
6 0 V
6 0 V
5 0 V
6 0 V
6 0 V
6 0 V
6 0 V
6 0 V
5 0 V
6 0 V
6 0 V
6 0 V
6 0 V
6 0 V
5 0 V
6 0 V
6 0 V
6 0 V
6 0 V
6 0 V
5 0 V
6 0 V
6 0 V
6 0 V
6 0 V
6 0 V
5 0 V
6 0 V
6 0 V
6 0 V
stroke 6551 576 M
6 0 V
6 0 V
5 0 V
6 0 V
6 0 V
6 0 V
6 0 V
6 0 V
5 0 V
6 0 V
6 0 V
6 0 V
6 0 V
6 0 V
5 0 V
6 0 V
6 0 V
6 0 V
6 0 V
6 0 V
5 0 V
6 0 V
6 0 V
6 0 V
6 0 V
6 0 V
5 0 V
6 0 V
6 0 V
6 0 V
6 0 V
6 0 V
5 0 V
6 0 V
6 0 V
6 0 V
6 0 V
6 0 V
5 0 V
6 0 V
6 0 V
6 0 V
6 0 V
6 0 V
5 0 V
6 0 V
6 0 V
6 0 V
6 0 V
6 0 V
5 0 V
6 0 V
6 0 V
6 0 V
6 0 V
6 0 V
5 0 V
6 0 V
6 0 V
6 0 V
6 0 V
6 0 V
5 0 V
6 0 V
6 0 V
stroke
LT2
LTb
6111 4311 M
[ [(arial) 180.0 0.0 true true 0 (1.7278)]
] -60.0 MRshow
LT2
6219 4311 M
495 0 V
1104 4824 M
6 -173 V
5 -141 V
6 -121 V
6 -108 V
6 -98 V
6 -91 V
6 -84 V
5 -79 V
6 -76 V
6 -72 V
6 -69 V
6 -66 V
6 -64 V
5 -61 V
6 -60 V
6 -58 V
6 -55 V
6 -54 V
6 -52 V
5 -52 V
6 -49 V
6 -49 V
6 -48 V
6 -47 V
6 -45 V
5 -45 V
6 -43 V
6 -43 V
6 -42 V
6 -41 V
6 -40 V
5 -39 V
6 -39 V
6 -38 V
6 -36 V
6 -37 V
6 -35 V
5 -35 V
6 -34 V
6 -33 V
6 -34 V
6 -32 V
6 -32 V
5 -31 V
6 -30 V
6 -30 V
6 -30 V
6 -29 V
6 -28 V
5 -28 V
6 -27 V
6 -27 V
6 -26 V
6 -25 V
6 -26 V
5 -25 V
6 -24 V
6 -24 V
6 -24 V
6 -23 V
6 -22 V
5 -23 V
6 -21 V
6 -22 V
6 -21 V
6 -20 V
6 -21 V
5 -20 V
6 -19 V
6 -19 V
6 -19 V
6 -18 V
6 -18 V
5 -18 V
6 -17 V
6 -17 V
6 -17 V
6 -16 V
6 -17 V
5 -16 V
6 -15 V
6 -15 V
6 -15 V
6 -15 V
6 -15 V
5 -14 V
6 -14 V
6 -13 V
6 -14 V
6 -13 V
6 -13 V
5 -12 V
6 -13 V
6 -12 V
6 -12 V
6 -12 V
6 -12 V
5 -11 V
6 -12 V
6 -11 V
6 -11 V
6 -10 V
stroke 1699 1152 M
6 -11 V
5 -10 V
6 -10 V
6 -11 V
6 -9 V
6 -10 V
6 -10 V
5 -9 V
6 -9 V
6 -9 V
6 -9 V
6 -9 V
6 -8 V
5 -9 V
6 -8 V
6 -8 V
6 -8 V
6 -8 V
6 -7 V
5 -8 V
6 -7 V
6 -8 V
6 -7 V
6 -7 V
5 -6 V
6 -7 V
6 -7 V
6 -6 V
6 -6 V
6 -7 V
5 -6 V
6 -6 V
6 -5 V
6 -6 V
6 -6 V
6 -5 V
5 -6 V
6 -5 V
6 -5 V
6 -6 V
6 -5 V
6 -4 V
5 -6 V
6 -4 V
6 -5 V
6 -5 V
6 -4 V
6 -5 V
5 -4 V
6 -4 V
6 -5 V
6 -4 V
6 -4 V
6 -4 V
5 -4 V
6 -4 V
6 -3 V
6 -4 V
6 -4 V
6 -3 V
5 -3 V
6 -4 V
6 -3 V
6 -3 V
6 -4 V
6 -3 V
5 -3 V
6 -3 V
6 -3 V
6 -3 V
6 -2 V
6 -3 V
5 -3 V
6 -3 V
6 -2 V
6 -3 V
6 -2 V
6 -3 V
5 -2 V
6 -2 V
6 -3 V
6 -2 V
6 -3 V
6 -2 V
5 -2 V
6 -2 V
6 -2 V
6 -2 V
6 -2 V
6 -3 V
5 -2 V
6 -1 V
6 -2 V
6 -2 V
6 -2 V
6 -2 V
5 -2 V
6 -1 V
6 -2 V
6 -2 V
6 -1 V
6 -2 V
5 -1 V
6 -2 V
stroke 2305 659 M
6 -1 V
6 -2 V
6 -1 V
6 -2 V
5 -1 V
6 -2 V
6 -1 V
6 -1 V
6 -1 V
6 -2 V
5 -1 V
6 -1 V
6 -2 V
6 0 V
6 -2 V
6 -1 V
5 -1 V
6 -1 V
6 -1 V
6 -1 V
6 -1 V
6 -1 V
5 -1 V
6 -1 V
6 -1 V
6 -1 V
6 -1 V
6 0 V
5 -1 V
6 -1 V
6 -1 V
6 -1 V
6 -1 V
6 -1 V
5 0 V
6 -1 V
6 -1 V
6 -1 V
6 0 V
6 -1 V
5 -1 V
6 0 V
6 -1 V
6 -1 V
6 -1 V
5 0 V
6 -1 V
6 -1 V
6 0 V
6 -1 V
6 0 V
5 -1 V
6 -1 V
6 0 V
6 -1 V
6 0 V
6 -1 V
5 0 V
6 -1 V
6 0 V
6 -1 V
6 0 V
6 -1 V
5 0 V
6 -1 V
6 0 V
6 -1 V
6 0 V
6 0 V
5 -1 V
6 0 V
6 -1 V
6 0 V
6 0 V
6 -1 V
5 0 V
6 0 V
6 -1 V
6 0 V
6 -1 V
6 0 V
5 0 V
6 0 V
6 -1 V
6 0 V
6 0 V
6 -1 V
5 0 V
6 0 V
6 -1 V
6 0 V
6 0 V
6 0 V
5 -1 V
6 0 V
6 0 V
6 0 V
6 -1 V
6 0 V
5 0 V
6 -1 V
6 0 V
6 0 V
6 0 V
stroke 2912 590 M
6 0 V
5 0 V
6 -1 V
6 0 V
6 0 V
6 0 V
6 0 V
5 -1 V
6 0 V
6 0 V
6 0 V
6 0 V
6 -1 V
5 0 V
6 0 V
6 0 V
6 0 V
6 0 V
6 0 V
5 -1 V
6 0 V
6 0 V
6 0 V
6 0 V
6 0 V
5 -1 V
6 0 V
6 0 V
6 0 V
6 0 V
6 0 V
5 0 V
6 -1 V
6 0 V
6 0 V
6 0 V
6 0 V
5 0 V
6 0 V
6 0 V
6 0 V
6 0 V
6 0 V
5 -1 V
6 0 V
6 0 V
6 0 V
6 0 V
6 0 V
5 0 V
6 0 V
6 0 V
6 -1 V
6 0 V
6 0 V
5 0 V
6 0 V
6 0 V
6 0 V
6 0 V
6 0 V
5 0 V
6 0 V
6 0 V
6 0 V
6 0 V
5 -1 V
6 0 V
6 0 V
6 0 V
6 0 V
6 0 V
5 0 V
6 0 V
6 0 V
6 0 V
6 0 V
6 0 V
5 0 V
6 -1 V
6 0 V
6 0 V
6 0 V
6 0 V
5 0 V
6 0 V
6 0 V
6 0 V
6 0 V
6 0 V
5 0 V
6 0 V
6 0 V
6 0 V
6 0 V
6 0 V
5 -1 V
6 0 V
6 0 V
6 0 V
6 0 V
6 0 V
5 0 V
6 0 V
stroke 3518 579 M
6 0 V
6 0 V
6 0 V
6 0 V
5 0 V
6 0 V
6 0 V
6 0 V
6 0 V
6 0 V
5 0 V
6 0 V
6 0 V
6 0 V
6 0 V
6 0 V
5 0 V
6 0 V
6 0 V
6 0 V
6 0 V
6 0 V
5 0 V
6 0 V
6 0 V
6 0 V
6 0 V
6 0 V
5 0 V
6 0 V
6 0 V
6 0 V
6 0 V
6 0 V
5 -1 V
6 0 V
6 0 V
6 0 V
6 0 V
6 0 V
5 0 V
6 0 V
6 0 V
6 0 V
6 0 V
6 0 V
5 0 V
6 0 V
6 0 V
6 0 V
6 0 V
6 0 V
5 0 V
6 0 V
6 0 V
6 0 V
6 0 V
6 0 V
5 0 V
6 0 V
6 0 V
6 0 V
6 0 V
6 0 V
5 0 V
6 0 V
6 0 V
6 0 V
6 0 V
6 0 V
5 0 V
6 0 V
6 0 V
6 0 V
6 0 V
6 -1 V
5 0 V
6 0 V
6 0 V
6 0 V
6 0 V
6 0 V
5 0 V
6 0 V
6 0 V
6 0 V
6 0 V
5 0 V
6 0 V
6 0 V
6 0 V
6 0 V
6 0 V
5 0 V
6 0 V
6 0 V
6 0 V
6 0 V
6 0 V
5 0 V
6 0 V
6 0 V
6 0 V
6 0 V
stroke 4125 577 M
6 0 V
5 0 V
6 0 V
6 0 V
6 0 V
6 0 V
6 0 V
5 0 V
6 0 V
6 0 V
6 0 V
6 0 V
6 0 V
5 0 V
6 0 V
6 0 V
6 0 V
6 0 V
6 0 V
5 0 V
6 0 V
6 0 V
6 0 V
6 0 V
6 0 V
5 0 V
6 0 V
6 0 V
6 0 V
6 0 V
6 0 V
5 0 V
6 0 V
6 0 V
6 0 V
6 0 V
6 0 V
5 0 V
6 0 V
6 0 V
6 0 V
6 0 V
6 0 V
5 0 V
6 0 V
6 -1 V
6 0 V
6 0 V
6 0 V
5 0 V
6 0 V
6 0 V
6 0 V
6 0 V
6 0 V
5 0 V
6 0 V
6 0 V
6 0 V
6 0 V
6 0 V
5 0 V
6 0 V
6 0 V
6 0 V
6 0 V
6 0 V
5 0 V
6 0 V
6 0 V
6 0 V
6 0 V
6 0 V
5 0 V
6 0 V
6 0 V
6 0 V
6 0 V
6 0 V
5 0 V
6 0 V
6 0 V
6 0 V
6 0 V
6 0 V
5 0 V
6 0 V
6 0 V
6 0 V
6 0 V
6 0 V
5 0 V
6 0 V
6 0 V
6 0 V
6 0 V
6 0 V
5 0 V
6 0 V
6 0 V
6 0 V
6 0 V
6 0 V
5 0 V
stroke 4731 576 M
6 0 V
6 0 V
6 0 V
6 0 V
5 0 V
6 0 V
6 0 V
6 0 V
6 0 V
6 0 V
5 0 V
6 0 V
6 0 V
6 0 V
6 0 V
6 0 V
5 0 V
6 0 V
6 0 V
6 0 V
6 0 V
6 0 V
5 0 V
6 0 V
6 0 V
6 0 V
6 0 V
6 0 V
5 0 V
6 0 V
6 0 V
6 0 V
6 0 V
6 0 V
5 0 V
6 0 V
6 0 V
6 0 V
6 0 V
6 0 V
5 0 V
6 0 V
6 0 V
6 0 V
6 0 V
6 0 V
5 0 V
6 0 V
6 0 V
6 0 V
6 0 V
6 0 V
5 0 V
6 0 V
6 0 V
6 0 V
6 0 V
6 0 V
5 0 V
6 0 V
6 0 V
6 0 V
6 0 V
6 0 V
5 0 V
6 0 V
6 0 V
6 0 V
6 0 V
6 0 V
5 0 V
6 0 V
6 0 V
6 0 V
6 0 V
6 0 V
5 0 V
6 0 V
6 0 V
6 0 V
6 0 V
6 0 V
5 0 V
6 0 V
6 0 V
6 0 V
6 0 V
6 0 V
5 0 V
6 0 V
6 0 V
6 0 V
6 0 V
6 0 V
5 0 V
6 0 V
6 0 V
6 0 V
6 0 V
6 0 V
5 0 V
6 0 V
6 0 V
6 0 V
stroke 5338 576 M
6 0 V
6 0 V
5 0 V
6 0 V
6 0 V
6 0 V
6 0 V
6 0 V
5 0 V
6 0 V
6 0 V
6 0 V
6 0 V
6 0 V
5 0 V
6 0 V
6 0 V
6 0 V
6 0 V
6 0 V
5 0 V
6 0 V
6 0 V
6 0 V
6 0 V
5 0 V
6 0 V
6 0 V
6 0 V
6 0 V
6 0 V
5 0 V
6 0 V
6 0 V
6 0 V
6 0 V
6 0 V
5 0 V
6 0 V
6 0 V
6 0 V
6 0 V
6 0 V
5 0 V
6 0 V
6 0 V
6 0 V
6 0 V
6 0 V
5 0 V
6 0 V
6 0 V
6 0 V
6 0 V
6 0 V
5 0 V
6 0 V
6 0 V
6 0 V
6 0 V
6 0 V
5 0 V
6 0 V
6 0 V
6 0 V
6 0 V
6 0 V
5 0 V
6 0 V
6 0 V
6 0 V
6 0 V
6 0 V
5 0 V
6 0 V
6 0 V
6 0 V
6 0 V
6 0 V
5 0 V
6 0 V
6 0 V
6 0 V
6 0 V
6 0 V
5 0 V
6 0 V
6 0 V
6 0 V
6 0 V
6 0 V
5 0 V
6 0 V
6 0 V
6 0 V
6 0 V
6 0 V
5 0 V
6 0 V
6 0 V
6 0 V
6 0 V
6 0 V
5 0 V
stroke 5944 576 M
6 0 V
6 0 V
6 0 V
6 0 V
6 0 V
5 0 V
6 0 V
6 0 V
6 0 V
6 0 V
6 0 V
5 0 V
6 0 V
6 0 V
6 0 V
6 0 V
6 0 V
5 0 V
6 0 V
6 0 V
6 0 V
6 0 V
6 0 V
5 0 V
6 0 V
6 0 V
6 0 V
6 0 V
6 0 V
5 0 V
6 0 V
6 0 V
6 0 V
6 0 V
6 0 V
5 0 V
6 0 V
6 0 V
6 0 V
6 0 V
6 0 V
5 0 V
6 0 V
6 0 V
6 0 V
6 0 V
5 0 V
6 0 V
6 0 V
6 0 V
6 0 V
6 0 V
5 0 V
6 0 V
6 0 V
6 0 V
6 0 V
6 0 V
5 0 V
6 0 V
6 0 V
6 0 V
6 0 V
6 0 V
5 0 V
6 0 V
6 0 V
6 0 V
6 0 V
6 0 V
5 0 V
6 0 V
6 0 V
6 0 V
6 0 V
6 0 V
5 0 V
6 0 V
6 0 V
6 0 V
6 0 V
6 0 V
5 0 V
6 0 V
6 0 V
6 0 V
6 0 V
6 0 V
5 0 V
6 0 V
6 0 V
6 0 V
6 0 V
6 0 V
5 0 V
6 0 V
6 0 V
6 0 V
6 0 V
6 0 V
5 0 V
6 0 V
6 0 V
6 0 V
stroke 6551 576 M
6 0 V
6 0 V
5 0 V
6 0 V
6 0 V
6 0 V
6 0 V
6 0 V
5 0 V
6 0 V
6 0 V
6 0 V
6 0 V
6 0 V
5 0 V
6 0 V
6 0 V
6 0 V
6 0 V
6 0 V
5 0 V
6 0 V
6 0 V
6 0 V
6 0 V
6 0 V
5 0 V
6 0 V
6 0 V
6 0 V
6 0 V
6 0 V
5 0 V
6 0 V
6 0 V
6 0 V
6 0 V
6 0 V
5 0 V
6 0 V
6 0 V
6 0 V
6 0 V
6 0 V
5 0 V
6 0 V
6 0 V
6 0 V
6 0 V
6 0 V
5 0 V
6 0 V
6 0 V
6 0 V
6 0 V
6 0 V
5 0 V
6 0 V
6 0 V
6 0 V
6 0 V
6 0 V
5 0 V
6 0 V
6 0 V
stroke
LT3
LTb
6111 4131 M
[ [(arial) 180.0 0.0 true true 0 (2.4189)]
] -60.0 MRshow
LT3
6219 4131 M
495 0 V
1104 4824 M
6 -173 V
5 -140 V
6 -120 V
6 -107 V
6 -97 V
6 -89 V
6 -84 V
5 -78 V
6 -74 V
6 -70 V
6 -67 V
6 -65 V
6 -62 V
5 -60 V
6 -58 V
6 -57 V
6 -54 V
6 -53 V
6 -52 V
5 -50 V
6 -49 V
6 -47 V
6 -47 V
6 -45 V
6 -44 V
5 -44 V
6 -42 V
6 -41 V
6 -41 V
6 -40 V
6 -39 V
5 -38 V
6 -37 V
6 -37 V
6 -36 V
6 -36 V
6 -35 V
5 -34 V
6 -33 V
6 -33 V
6 -32 V
6 -32 V
6 -31 V
5 -31 V
6 -30 V
6 -29 V
6 -30 V
6 -28 V
6 -28 V
5 -27 V
6 -27 V
6 -27 V
6 -26 V
6 -26 V
6 -25 V
5 -25 V
6 -24 V
6 -24 V
6 -24 V
6 -23 V
6 -22 V
5 -23 V
6 -22 V
6 -21 V
6 -21 V
6 -21 V
6 -20 V
5 -20 V
6 -19 V
6 -20 V
6 -18 V
6 -19 V
6 -18 V
5 -18 V
6 -18 V
6 -17 V
6 -17 V
6 -16 V
6 -17 V
5 -16 V
6 -16 V
6 -16 V
6 -15 V
6 -15 V
6 -15 V
5 -15 V
6 -14 V
6 -14 V
6 -14 V
6 -14 V
6 -13 V
5 -13 V
6 -13 V
6 -12 V
6 -13 V
6 -12 V
6 -12 V
5 -12 V
6 -11 V
6 -12 V
6 -11 V
6 -11 V
stroke 1699 1191 M
6 -11 V
5 -11 V
6 -10 V
6 -10 V
6 -11 V
6 -9 V
6 -10 V
5 -10 V
6 -9 V
6 -10 V
6 -9 V
6 -9 V
6 -8 V
5 -9 V
6 -9 V
6 -8 V
6 -8 V
6 -8 V
6 -8 V
5 -8 V
6 -8 V
6 -7 V
6 -8 V
6 -7 V
5 -7 V
6 -7 V
6 -7 V
6 -7 V
6 -6 V
6 -7 V
5 -6 V
6 -6 V
6 -7 V
6 -6 V
6 -6 V
6 -5 V
5 -6 V
6 -6 V
6 -5 V
6 -5 V
6 -5 V
6 -6 V
5 -5 V
6 -5 V
6 -5 V
6 -4 V
6 -5 V
6 -5 V
5 -4 V
6 -5 V
6 -4 V
6 -5 V
6 -4 V
6 -4 V
5 -4 V
6 -4 V
6 -4 V
6 -4 V
6 -4 V
6 -3 V
5 -4 V
6 -4 V
6 -3 V
6 -4 V
6 -3 V
6 -4 V
5 -3 V
6 -3 V
6 -3 V
6 -4 V
6 -3 V
6 -3 V
5 -3 V
6 -3 V
6 -3 V
6 -3 V
6 -3 V
6 -3 V
5 -3 V
6 -3 V
6 -2 V
6 -3 V
6 -3 V
6 -2 V
5 -3 V
6 -2 V
6 -3 V
6 -2 V
6 -3 V
6 -2 V
5 -2 V
6 -2 V
6 -3 V
6 -2 V
6 -2 V
6 -2 V
5 -2 V
6 -2 V
6 -2 V
6 -2 V
6 -2 V
6 -2 V
5 -2 V
6 -2 V
stroke 2305 669 M
6 -2 V
6 -1 V
6 -2 V
6 -2 V
5 -1 V
6 -2 V
6 -2 V
6 -2 V
6 -1 V
6 -2 V
5 -1 V
6 -2 V
6 -1 V
6 -1 V
6 -2 V
6 -1 V
5 -1 V
6 -2 V
6 -1 V
6 -1 V
6 -1 V
6 -1 V
5 -2 V
6 -1 V
6 -1 V
6 -1 V
6 -1 V
6 -1 V
5 -1 V
6 -1 V
6 -1 V
6 -1 V
6 -1 V
6 -1 V
5 -1 V
6 -1 V
6 -1 V
6 -1 V
6 -1 V
6 -1 V
5 0 V
6 -1 V
6 -1 V
6 -1 V
6 -1 V
5 -1 V
6 0 V
6 -1 V
6 -1 V
6 -1 V
6 0 V
5 -1 V
6 -1 V
6 -1 V
6 0 V
6 -1 V
6 0 V
5 -1 V
6 -1 V
6 0 V
6 -1 V
6 0 V
6 -1 V
5 0 V
6 -1 V
6 0 V
6 -1 V
6 0 V
6 -1 V
5 0 V
6 -1 V
6 0 V
6 -1 V
6 0 V
6 -1 V
5 0 V
6 0 V
6 -1 V
6 0 V
6 -1 V
6 0 V
5 0 V
6 -1 V
6 0 V
6 0 V
6 -1 V
6 0 V
5 0 V
6 -1 V
6 0 V
6 -1 V
6 0 V
6 0 V
5 0 V
6 0 V
6 -1 V
6 0 V
6 0 V
6 -1 V
5 0 V
6 0 V
6 -1 V
6 0 V
6 0 V
stroke 2912 587 M
6 0 V
5 0 V
6 0 V
6 -1 V
6 0 V
6 0 V
6 0 V
5 0 V
6 -1 V
6 0 V
6 0 V
6 0 V
6 -1 V
5 0 V
6 0 V
6 0 V
6 0 V
6 0 V
6 0 V
5 0 V
6 0 V
6 -1 V
6 0 V
6 0 V
6 0 V
5 0 V
6 0 V
6 0 V
6 -1 V
6 0 V
6 0 V
5 0 V
6 0 V
6 0 V
6 0 V
6 0 V
6 0 V
5 0 V
6 0 V
6 0 V
6 0 V
6 0 V
6 -1 V
5 0 V
6 0 V
6 0 V
6 0 V
6 0 V
6 0 V
5 0 V
6 0 V
6 0 V
6 0 V
6 -1 V
6 0 V
5 0 V
6 0 V
6 0 V
6 0 V
6 0 V
6 0 V
5 0 V
6 0 V
6 0 V
6 0 V
6 0 V
5 0 V
6 -1 V
6 0 V
6 0 V
6 0 V
6 0 V
5 0 V
6 0 V
6 0 V
6 0 V
6 0 V
6 0 V
5 0 V
6 0 V
6 0 V
6 0 V
6 0 V
6 0 V
5 0 V
6 0 V
6 0 V
6 0 V
6 0 V
6 0 V
5 0 V
6 0 V
6 0 V
6 0 V
6 0 V
6 -1 V
5 0 V
6 0 V
6 0 V
6 0 V
6 0 V
6 0 V
5 0 V
6 0 V
stroke 3518 578 M
6 0 V
6 0 V
6 0 V
6 0 V
5 0 V
6 0 V
6 0 V
6 0 V
6 0 V
6 0 V
5 0 V
6 0 V
6 0 V
6 0 V
6 0 V
6 0 V
5 0 V
6 0 V
6 -1 V
6 0 V
6 0 V
6 0 V
5 0 V
6 0 V
6 0 V
6 0 V
6 0 V
6 0 V
5 0 V
6 0 V
6 0 V
6 0 V
6 0 V
6 0 V
5 0 V
6 0 V
6 0 V
6 0 V
6 0 V
6 0 V
5 0 V
6 0 V
6 0 V
6 0 V
6 0 V
6 0 V
5 0 V
6 0 V
6 0 V
6 0 V
6 0 V
6 0 V
5 0 V
6 0 V
6 0 V
6 0 V
6 0 V
6 0 V
5 0 V
6 0 V
6 0 V
6 0 V
6 0 V
6 0 V
5 0 V
6 0 V
6 0 V
6 0 V
6 0 V
6 0 V
5 0 V
6 0 V
6 0 V
6 0 V
6 -1 V
6 0 V
5 0 V
6 0 V
6 0 V
6 0 V
6 0 V
6 0 V
5 0 V
6 0 V
6 0 V
6 0 V
6 0 V
5 0 V
6 0 V
6 0 V
6 0 V
6 0 V
6 0 V
5 0 V
6 0 V
6 0 V
6 0 V
6 0 V
6 0 V
5 0 V
6 0 V
6 0 V
6 0 V
6 0 V
stroke 4125 576 M
6 0 V
5 0 V
6 0 V
6 0 V
6 0 V
6 0 V
6 0 V
5 0 V
6 0 V
6 0 V
6 0 V
6 0 V
6 0 V
5 0 V
6 0 V
6 0 V
6 0 V
6 0 V
6 0 V
5 0 V
6 0 V
6 0 V
6 0 V
6 0 V
6 0 V
5 0 V
6 0 V
6 0 V
6 0 V
6 0 V
6 0 V
5 0 V
6 0 V
6 0 V
6 0 V
6 0 V
6 0 V
5 0 V
6 0 V
6 0 V
6 0 V
6 0 V
6 0 V
5 0 V
6 0 V
6 0 V
6 0 V
6 0 V
6 0 V
5 0 V
6 0 V
6 0 V
6 0 V
6 0 V
6 0 V
5 0 V
6 0 V
6 0 V
6 0 V
6 0 V
6 0 V
5 0 V
6 0 V
6 0 V
6 0 V
6 0 V
6 0 V
5 0 V
6 0 V
6 0 V
6 0 V
6 0 V
6 0 V
5 0 V
6 0 V
6 0 V
6 0 V
6 0 V
6 0 V
5 0 V
6 0 V
6 0 V
6 0 V
6 0 V
6 0 V
5 0 V
6 0 V
6 0 V
6 0 V
6 0 V
6 0 V
5 0 V
6 0 V
6 0 V
6 0 V
6 0 V
6 0 V
5 0 V
6 0 V
6 0 V
6 0 V
6 0 V
6 0 V
5 0 V
stroke 4731 576 M
6 0 V
6 0 V
6 0 V
6 0 V
5 0 V
6 0 V
6 0 V
6 0 V
6 0 V
6 0 V
5 0 V
6 0 V
6 0 V
6 0 V
6 0 V
6 0 V
5 0 V
6 0 V
6 0 V
6 0 V
6 0 V
6 0 V
5 0 V
6 0 V
6 0 V
6 0 V
6 0 V
6 0 V
5 0 V
6 0 V
6 0 V
6 0 V
6 0 V
6 0 V
5 0 V
6 0 V
6 0 V
6 0 V
6 0 V
6 0 V
5 0 V
6 0 V
6 0 V
6 0 V
6 0 V
6 0 V
5 0 V
6 0 V
6 0 V
6 0 V
6 0 V
6 0 V
5 0 V
6 0 V
6 0 V
6 0 V
6 0 V
6 0 V
5 0 V
6 0 V
6 0 V
6 0 V
6 0 V
6 0 V
5 0 V
6 0 V
6 0 V
6 0 V
6 0 V
6 0 V
5 0 V
6 0 V
6 0 V
6 0 V
6 0 V
6 0 V
5 0 V
6 0 V
6 0 V
6 0 V
6 0 V
6 0 V
5 0 V
6 0 V
6 0 V
6 0 V
6 0 V
6 0 V
5 0 V
6 0 V
6 0 V
6 0 V
6 0 V
6 0 V
5 0 V
6 0 V
6 0 V
6 0 V
6 0 V
6 0 V
5 0 V
6 0 V
6 0 V
6 0 V
stroke 5338 576 M
6 0 V
6 0 V
5 0 V
6 0 V
6 0 V
6 0 V
6 0 V
6 0 V
5 0 V
6 0 V
6 0 V
6 0 V
6 0 V
6 0 V
5 0 V
6 0 V
6 0 V
6 0 V
6 0 V
6 0 V
5 0 V
6 0 V
6 0 V
6 0 V
6 0 V
5 0 V
6 0 V
6 0 V
6 0 V
6 0 V
6 0 V
5 0 V
6 0 V
6 0 V
6 0 V
6 0 V
6 0 V
5 0 V
6 0 V
6 0 V
6 0 V
6 0 V
6 0 V
5 0 V
6 0 V
6 0 V
6 0 V
6 0 V
6 0 V
5 0 V
6 0 V
6 0 V
6 0 V
6 0 V
6 0 V
5 0 V
6 0 V
6 0 V
6 0 V
6 0 V
6 0 V
5 0 V
6 0 V
6 0 V
6 0 V
6 0 V
6 0 V
5 0 V
6 0 V
6 0 V
6 0 V
6 0 V
6 0 V
5 0 V
6 0 V
6 0 V
6 0 V
6 0 V
6 0 V
5 0 V
6 0 V
6 0 V
6 0 V
6 0 V
6 0 V
5 0 V
6 0 V
6 0 V
6 0 V
6 0 V
6 0 V
5 0 V
6 0 V
6 0 V
6 0 V
6 0 V
6 0 V
5 0 V
6 0 V
6 0 V
6 0 V
6 0 V
6 0 V
5 0 V
stroke 5944 576 M
6 0 V
6 0 V
6 0 V
6 0 V
6 0 V
5 0 V
6 0 V
6 0 V
6 0 V
6 0 V
6 0 V
5 0 V
6 0 V
6 0 V
6 0 V
6 0 V
6 0 V
5 0 V
6 0 V
6 0 V
6 0 V
6 0 V
6 0 V
5 0 V
6 0 V
6 0 V
6 0 V
6 0 V
6 0 V
5 0 V
6 0 V
6 0 V
6 0 V
6 0 V
6 0 V
5 0 V
6 0 V
6 0 V
6 0 V
6 0 V
6 0 V
5 0 V
6 0 V
6 0 V
6 0 V
6 0 V
5 0 V
6 0 V
6 0 V
6 0 V
6 0 V
6 0 V
5 0 V
6 0 V
6 0 V
6 0 V
6 0 V
6 0 V
5 0 V
6 0 V
6 0 V
6 0 V
6 0 V
6 0 V
5 0 V
6 0 V
6 0 V
6 0 V
6 0 V
6 0 V
5 0 V
6 0 V
6 0 V
6 0 V
6 0 V
6 0 V
5 0 V
6 0 V
6 0 V
6 0 V
6 0 V
6 0 V
5 0 V
6 0 V
6 0 V
6 0 V
6 0 V
6 0 V
5 0 V
6 0 V
6 0 V
6 0 V
6 0 V
6 0 V
5 0 V
6 0 V
6 0 V
6 0 V
6 0 V
6 0 V
5 0 V
6 0 V
6 0 V
6 0 V
stroke 6551 576 M
6 0 V
6 0 V
5 0 V
6 0 V
6 0 V
6 0 V
6 0 V
6 0 V
5 0 V
6 0 V
6 0 V
6 0 V
6 0 V
6 0 V
5 0 V
6 0 V
6 0 V
6 0 V
6 0 V
6 0 V
5 0 V
6 0 V
6 0 V
6 0 V
6 0 V
6 0 V
5 0 V
6 0 V
6 0 V
6 0 V
6 0 V
6 0 V
5 0 V
6 0 V
6 0 V
6 0 V
6 0 V
6 0 V
5 0 V
6 0 V
6 0 V
6 0 V
6 0 V
6 0 V
5 0 V
6 0 V
6 0 V
6 0 V
6 0 V
6 0 V
5 0 V
6 0 V
6 0 V
6 0 V
6 0 V
6 0 V
5 0 V
6 0 V
6 0 V
6 0 V
6 0 V
6 0 V
5 0 V
6 0 V
6 0 V
stroke
LT4
LTb
6111 3951 M
[ [(arial) 180.0 0.0 true true 0 (3.1100)]
] -60.0 MRshow
LT4
6219 3951 M
495 0 V
1104 4824 M
6 -150 V
5 -120 V
6 -100 V
6 -90 V
6 -81 V
6 -74 V
6 -68 V
5 -64 V
6 -61 V
6 -57 V
6 -55 V
6 -52 V
6 -50 V
5 -49 V
6 -46 V
6 -46 V
6 -43 V
6 -43 V
6 -41 V
5 -40 V
6 -40 V
6 -38 V
6 -37 V
6 -36 V
6 -36 V
5 -35 V
6 -34 V
6 -33 V
6 -33 V
6 -32 V
6 -31 V
5 -31 V
6 -31 V
6 -30 V
6 -29 V
6 -29 V
6 -28 V
5 -28 V
6 -28 V
6 -27 V
6 -26 V
6 -26 V
6 -25 V
5 -26 V
6 -24 V
6 -25 V
6 -24 V
6 -23 V
6 -24 V
5 -23 V
6 -22 V
6 -22 V
6 -22 V
6 -22 V
6 -21 V
5 -22 V
6 -20 V
6 -21 V
6 -20 V
6 -20 V
6 -20 V
5 -20 V
6 -19 V
6 -19 V
6 -19 V
6 -18 V
6 -18 V
5 -18 V
6 -18 V
6 -18 V
6 -17 V
6 -17 V
6 -17 V
5 -17 V
6 -16 V
6 -16 V
6 -16 V
6 -16 V
6 -15 V
5 -16 V
6 -15 V
6 -15 V
6 -15 V
6 -15 V
6 -14 V
5 -14 V
6 -15 V
6 -14 V
6 -14 V
6 -13 V
6 -14 V
5 -13 V
6 -14 V
6 -12 V
6 -13 V
6 -13 V
6 -12 V
5 -13 V
6 -12 V
6 -12 V
6 -12 V
6 -11 V
stroke 1699 1745 M
6 -12 V
5 -12 V
6 -11 V
6 -11 V
6 -11 V
6 -11 V
6 -11 V
5 -11 V
6 -10 V
6 -11 V
6 -10 V
6 -10 V
6 -10 V
5 -11 V
6 -9 V
6 -10 V
6 -10 V
6 -9 V
6 -10 V
5 -9 V
6 -10 V
6 -9 V
6 -9 V
6 -9 V
5 -9 V
6 -8 V
6 -9 V
6 -9 V
6 -8 V
6 -9 V
5 -8 V
6 -9 V
6 -8 V
6 -8 V
6 -8 V
6 -8 V
5 -8 V
6 -8 V
6 -7 V
6 -8 V
6 -8 V
6 -7 V
5 -8 V
6 -7 V
6 -7 V
6 -7 V
6 -7 V
6 -7 V
5 -7 V
6 -7 V
6 -7 V
6 -7 V
6 -6 V
6 -7 V
5 -6 V
6 -7 V
6 -6 V
6 -6 V
6 -6 V
6 -7 V
5 -6 V
6 -6 V
6 -6 V
6 -6 V
6 -5 V
6 -6 V
5 -6 V
6 -6 V
6 -5 V
6 -6 V
6 -5 V
6 -5 V
5 -6 V
6 -5 V
6 -5 V
6 -5 V
6 -6 V
6 -4 V
5 -5 V
6 -5 V
6 -5 V
6 -5 V
6 -5 V
6 -5 V
5 -4 V
6 -5 V
6 -5 V
6 -4 V
6 -4 V
6 -5 V
5 -4 V
6 -5 V
6 -4 V
6 -5 V
6 -4 V
6 -4 V
5 -4 V
6 -4 V
6 -4 V
6 -5 V
6 -3 V
6 -4 V
5 -5 V
6 -3 V
stroke 2305 1016 M
6 -4 V
6 -4 V
6 -4 V
6 -4 V
5 -3 V
6 -4 V
6 -4 V
6 -3 V
6 -4 V
6 -4 V
5 -3 V
6 -4 V
6 -3 V
6 -3 V
6 -4 V
6 -3 V
5 -4 V
6 -3 V
6 -3 V
6 -3 V
6 -4 V
6 -3 V
5 -3 V
6 -3 V
6 -3 V
6 -3 V
6 -3 V
6 -3 V
5 -3 V
6 -3 V
6 -3 V
6 -3 V
6 -2 V
6 -3 V
5 -3 V
6 -3 V
6 -2 V
6 -3 V
6 -3 V
6 -2 V
5 -3 V
6 -3 V
6 -3 V
6 -2 V
6 -2 V
5 -3 V
6 -2 V
6 -3 V
6 -2 V
6 -3 V
6 -2 V
5 -3 V
6 -2 V
6 -2 V
6 -2 V
6 -3 V
6 -2 V
5 -2 V
6 -2 V
6 -2 V
6 -3 V
6 -2 V
6 -2 V
5 -2 V
6 -3 V
6 -2 V
6 -2 V
6 -1 V
6 -3 V
5 -2 V
6 -2 V
6 -2 V
6 -2 V
6 -2 V
6 -1 V
5 -3 V
6 -1 V
6 -2 V
6 -2 V
6 -2 V
6 -2 V
5 -2 V
6 -1 V
6 -2 V
6 -2 V
6 -2 V
6 -2 V
5 -1 V
6 -2 V
6 -1 V
6 -2 V
6 -2 V
6 -1 V
5 -2 V
6 -2 V
6 -1 V
6 -2 V
6 -1 V
6 -2 V
5 -1 V
6 -2 V
6 -1 V
6 -2 V
6 -1 V
stroke 2912 759 M
6 -2 V
5 -1 V
6 -2 V
6 -1 V
6 -2 V
6 -1 V
6 -2 V
5 -1 V
6 -2 V
6 -1 V
6 -1 V
6 -2 V
6 -1 V
5 -2 V
6 -1 V
6 -1 V
6 -2 V
6 -1 V
6 -2 V
5 -1 V
6 -1 V
6 -1 V
6 -1 V
6 -1 V
6 -2 V
5 -1 V
6 -1 V
6 -2 V
6 0 V
6 -2 V
6 -1 V
5 -1 V
6 -1 V
6 -1 V
6 -2 V
6 0 V
6 -2 V
5 -1 V
6 -1 V
6 -1 V
6 -1 V
6 -1 V
6 -1 V
5 -1 V
6 -1 V
6 -1 V
6 -1 V
6 -1 V
6 -1 V
5 -1 V
6 -1 V
6 -1 V
6 0 V
6 -2 V
6 -1 V
5 0 V
6 -1 V
6 -1 V
6 -1 V
6 -1 V
6 -1 V
5 -1 V
6 -1 V
6 -1 V
6 -1 V
6 0 V
5 -1 V
6 -1 V
6 0 V
6 -1 V
6 -1 V
6 -1 V
5 -1 V
6 -1 V
6 -1 V
6 0 V
6 -1 V
6 -1 V
5 -1 V
6 0 V
6 -1 V
6 -1 V
6 -1 V
6 0 V
5 -1 V
6 -1 V
6 -1 V
6 0 V
6 -1 V
6 -1 V
5 0 V
6 -1 V
6 -1 V
6 0 V
6 -1 V
6 0 V
5 -1 V
6 -1 V
6 -1 V
6 0 V
6 -1 V
6 -1 V
5 0 V
6 -1 V
stroke 3518 655 M
6 0 V
6 -1 V
6 -1 V
6 0 V
5 -1 V
6 0 V
6 -1 V
6 -1 V
6 0 V
6 -1 V
5 0 V
6 -1 V
6 0 V
6 -1 V
6 0 V
6 -1 V
5 0 V
6 -1 V
6 -1 V
6 0 V
6 0 V
6 -1 V
5 0 V
6 -1 V
6 -1 V
6 0 V
6 0 V
6 -1 V
5 0 V
6 -1 V
6 0 V
6 -1 V
6 0 V
6 0 V
5 -1 V
6 0 V
6 -1 V
6 0 V
6 -1 V
6 0 V
5 0 V
6 -1 V
6 0 V
6 -1 V
6 0 V
6 -1 V
5 0 V
6 0 V
6 -1 V
6 0 V
6 0 V
6 -1 V
5 0 V
6 0 V
6 -1 V
6 0 V
6 -1 V
6 0 V
5 0 V
6 -1 V
6 0 V
6 0 V
6 -1 V
6 0 V
5 0 V
6 -1 V
6 0 V
6 -1 V
6 0 V
6 0 V
5 0 V
6 -1 V
6 0 V
6 0 V
6 -1 V
6 0 V
5 0 V
6 -1 V
6 0 V
6 0 V
6 0 V
6 -1 V
5 0 V
6 0 V
6 -1 V
6 0 V
6 0 V
5 -1 V
6 0 V
6 0 V
6 0 V
6 0 V
6 -1 V
5 0 V
6 0 V
6 -1 V
6 0 V
6 0 V
6 0 V
5 0 V
6 0 V
6 -1 V
6 0 V
6 0 V
stroke 4125 615 M
6 -1 V
5 0 V
6 0 V
6 0 V
6 -1 V
6 0 V
6 0 V
5 0 V
6 0 V
6 -1 V
6 0 V
6 0 V
6 0 V
5 -1 V
6 0 V
6 0 V
6 -1 V
6 0 V
6 0 V
5 0 V
6 0 V
6 0 V
6 -1 V
6 0 V
6 0 V
5 0 V
6 0 V
6 -1 V
6 0 V
6 0 V
6 0 V
5 -1 V
6 0 V
6 0 V
6 0 V
6 0 V
6 0 V
5 0 V
6 -1 V
6 0 V
6 0 V
6 0 V
6 -1 V
5 0 V
6 0 V
6 0 V
6 0 V
6 -1 V
6 0 V
5 0 V
6 0 V
6 0 V
6 0 V
6 0 V
6 -1 V
5 0 V
6 0 V
6 0 V
6 0 V
6 -1 V
6 0 V
5 0 V
6 0 V
6 -1 V
6 0 V
6 0 V
6 0 V
5 0 V
6 0 V
6 0 V
6 0 V
6 -1 V
6 0 V
5 0 V
6 0 V
6 0 V
6 -1 V
6 0 V
6 0 V
5 0 V
6 0 V
6 0 V
6 0 V
6 0 V
6 -1 V
5 0 V
6 0 V
6 0 V
6 0 V
6 0 V
6 -1 V
5 0 V
6 0 V
6 0 V
6 0 V
6 -1 V
6 0 V
5 0 V
6 0 V
6 0 V
6 0 V
6 0 V
6 0 V
5 0 V
stroke 4731 596 M
6 0 V
6 0 V
6 -1 V
6 0 V
5 0 V
6 0 V
6 0 V
6 0 V
6 -1 V
6 0 V
5 0 V
6 0 V
6 0 V
6 0 V
6 0 V
6 0 V
5 -1 V
6 0 V
6 0 V
6 0 V
6 0 V
6 0 V
5 0 V
6 0 V
6 0 V
6 0 V
6 0 V
6 0 V
5 -1 V
6 0 V
6 0 V
6 0 V
6 0 V
6 0 V
5 0 V
6 0 V
6 0 V
6 -1 V
6 0 V
6 0 V
5 0 V
6 0 V
6 0 V
6 0 V
6 0 V
6 0 V
5 -1 V
6 0 V
6 0 V
6 0 V
6 0 V
6 0 V
5 0 V
6 0 V
6 0 V
6 0 V
6 0 V
6 0 V
5 0 V
6 0 V
6 -1 V
6 0 V
6 0 V
6 0 V
5 0 V
6 0 V
6 0 V
6 0 V
6 0 V
6 0 V
5 -1 V
6 0 V
6 0 V
6 0 V
6 0 V
6 0 V
5 0 V
6 0 V
6 0 V
6 -1 V
6 0 V
6 0 V
5 0 V
6 0 V
6 0 V
6 0 V
6 0 V
6 0 V
5 0 V
6 0 V
6 0 V
6 0 V
6 0 V
6 0 V
5 0 V
6 -1 V
6 0 V
6 0 V
6 0 V
6 0 V
5 0 V
6 0 V
6 0 V
6 0 V
stroke 5338 586 M
6 0 V
6 -1 V
5 0 V
6 0 V
6 0 V
6 0 V
6 0 V
6 0 V
5 0 V
6 0 V
6 0 V
6 0 V
6 0 V
6 -1 V
5 0 V
6 0 V
6 0 V
6 0 V
6 0 V
6 0 V
5 0 V
6 0 V
6 0 V
6 0 V
6 0 V
5 0 V
6 0 V
6 0 V
6 0 V
6 0 V
6 0 V
5 0 V
6 0 V
6 -1 V
6 0 V
6 0 V
6 0 V
5 0 V
6 0 V
6 0 V
6 0 V
6 0 V
6 0 V
5 0 V
6 0 V
6 0 V
6 0 V
6 0 V
6 -1 V
5 0 V
6 0 V
6 0 V
6 0 V
6 0 V
6 0 V
5 0 V
6 0 V
6 0 V
6 0 V
6 0 V
6 0 V
5 0 V
6 0 V
6 0 V
6 0 V
6 0 V
6 0 V
5 0 V
6 0 V
6 0 V
6 0 V
6 0 V
6 0 V
5 0 V
6 0 V
6 -1 V
6 0 V
6 0 V
6 0 V
5 0 V
6 0 V
6 0 V
6 0 V
6 0 V
6 0 V
5 0 V
6 0 V
6 0 V
6 0 V
6 0 V
6 0 V
5 0 V
6 0 V
6 0 V
6 -1 V
6 0 V
6 0 V
5 0 V
6 0 V
6 0 V
6 0 V
6 0 V
6 0 V
5 0 V
stroke 5944 580 M
6 0 V
6 0 V
6 0 V
6 0 V
6 0 V
5 0 V
6 0 V
6 0 V
6 0 V
6 0 V
6 0 V
5 -1 V
6 0 V
6 0 V
6 0 V
6 0 V
6 0 V
5 0 V
6 0 V
6 0 V
6 0 V
6 0 V
6 0 V
5 0 V
6 0 V
6 0 V
6 0 V
6 0 V
6 0 V
5 0 V
6 0 V
6 0 V
6 0 V
6 0 V
6 0 V
5 0 V
6 0 V
6 0 V
6 0 V
6 0 V
6 0 V
5 0 V
6 -1 V
6 0 V
6 0 V
6 0 V
5 0 V
6 0 V
6 0 V
6 0 V
6 0 V
6 0 V
5 0 V
6 0 V
6 0 V
6 0 V
6 0 V
6 0 V
5 0 V
6 0 V
6 0 V
6 0 V
6 0 V
6 0 V
5 0 V
6 0 V
6 0 V
6 0 V
6 0 V
6 0 V
5 -1 V
6 0 V
6 0 V
6 0 V
6 0 V
6 0 V
5 0 V
6 0 V
6 0 V
6 0 V
6 0 V
6 0 V
5 0 V
6 0 V
6 0 V
6 0 V
6 0 V
6 0 V
5 0 V
6 0 V
6 0 V
6 0 V
6 0 V
6 0 V
5 0 V
6 0 V
6 0 V
6 0 V
6 0 V
6 0 V
5 0 V
6 0 V
6 0 V
6 0 V
stroke 6551 577 M
6 0 V
6 0 V
5 0 V
6 0 V
6 0 V
6 0 V
6 0 V
6 0 V
5 0 V
6 0 V
6 -1 V
6 0 V
6 0 V
6 0 V
5 0 V
6 0 V
6 0 V
6 0 V
6 0 V
6 0 V
5 0 V
6 0 V
6 0 V
6 0 V
6 0 V
6 0 V
5 0 V
6 0 V
6 0 V
6 0 V
6 0 V
6 0 V
5 0 V
6 0 V
6 0 V
6 0 V
6 0 V
6 0 V
5 0 V
6 0 V
6 0 V
6 0 V
6 0 V
6 0 V
5 0 V
6 0 V
6 0 V
6 0 V
6 0 V
6 0 V
5 0 V
6 0 V
6 0 V
6 0 V
6 0 V
6 0 V
5 0 V
6 0 V
6 0 V
6 0 V
6 0 V
6 0 V
5 0 V
6 0 V
6 0 V
stroke
LT5
LTb
6111 3771 M
[ [(arial) 180.0 0.0 true true 0 (3.8011)]
] -60.0 MRshow
LT5
6219 3771 M
495 0 V
1104 4824 M
6 -141 V
5 -108 V
6 -89 V
6 -77 V
6 -67 V
6 -61 V
6 -56 V
5 -51 V
6 -48 V
6 -45 V
6 -43 V
6 -41 V
6 -39 V
5 -37 V
6 -36 V
6 -34 V
6 -33 V
6 -32 V
6 -31 V
5 -30 V
6 -29 V
6 -28 V
6 -28 V
6 -26 V
6 -27 V
5 -25 V
6 -25 V
6 -24 V
6 -24 V
6 -23 V
6 -23 V
5 -23 V
6 -22 V
6 -22 V
6 -21 V
6 -21 V
6 -21 V
5 -20 V
6 -20 V
6 -19 V
6 -20 V
6 -19 V
6 -19 V
5 -19 V
6 -18 V
6 -18 V
6 -18 V
6 -17 V
6 -17 V
5 -17 V
6 -17 V
6 -16 V
6 -17 V
6 -16 V
6 -16 V
5 -16 V
6 -15 V
6 -15 V
6 -15 V
6 -15 V
6 -14 V
5 -15 V
6 -14 V
6 -14 V
6 -14 V
6 -14 V
6 -14 V
5 -13 V
6 -14 V
6 -13 V
6 -13 V
6 -13 V
6 -13 V
5 -13 V
6 -12 V
6 -13 V
6 -12 V
6 -12 V
6 -13 V
5 -12 V
6 -12 V
6 -12 V
6 -12 V
6 -11 V
6 -12 V
5 -11 V
6 -12 V
6 -11 V
6 -11 V
6 -11 V
6 -11 V
5 -11 V
6 -10 V
6 -11 V
6 -11 V
6 -11 V
6 -10 V
5 -10 V
6 -11 V
6 -10 V
6 -10 V
6 -10 V
stroke 1699 2408 M
6 -10 V
5 -10 V
6 -10 V
6 -10 V
6 -10 V
6 -10 V
6 -10 V
5 -9 V
6 -10 V
6 -9 V
6 -10 V
6 -9 V
6 -9 V
5 -9 V
6 -10 V
6 -9 V
6 -9 V
6 -8 V
6 -9 V
5 -9 V
6 -8 V
6 -9 V
6 -8 V
6 -9 V
5 -8 V
6 -9 V
6 -8 V
6 -8 V
6 -8 V
6 -9 V
5 -8 V
6 -8 V
6 -8 V
6 -7 V
6 -8 V
6 -8 V
5 -8 V
6 -7 V
6 -8 V
6 -7 V
6 -8 V
6 -7 V
5 -7 V
6 -7 V
6 -7 V
6 -7 V
6 -7 V
6 -7 V
5 -7 V
6 -6 V
6 -7 V
6 -7 V
6 -7 V
6 -7 V
5 -6 V
6 -7 V
6 -6 V
6 -6 V
6 -7 V
6 -7 V
5 -6 V
6 -6 V
6 -6 V
6 -7 V
6 -6 V
6 -6 V
5 -6 V
6 -6 V
6 -6 V
6 -6 V
6 -6 V
6 -6 V
5 -6 V
6 -6 V
6 -6 V
6 -5 V
6 -6 V
6 -6 V
5 -5 V
6 -6 V
6 -6 V
6 -5 V
6 -6 V
6 -5 V
5 -5 V
6 -6 V
6 -5 V
6 -5 V
6 -5 V
6 -6 V
5 -5 V
6 -5 V
6 -5 V
6 -5 V
6 -5 V
6 -6 V
5 -5 V
6 -5 V
6 -5 V
6 -5 V
6 -5 V
6 -5 V
5 -5 V
6 -4 V
stroke 2305 1678 M
6 -6 V
6 -4 V
6 -5 V
6 -5 V
5 -5 V
6 -4 V
6 -5 V
6 -5 V
6 -4 V
6 -5 V
5 -5 V
6 -4 V
6 -5 V
6 -4 V
6 -5 V
6 -4 V
5 -5 V
6 -4 V
6 -4 V
6 -5 V
6 -4 V
6 -5 V
5 -4 V
6 -4 V
6 -5 V
6 -4 V
6 -4 V
6 -4 V
5 -4 V
6 -5 V
6 -4 V
6 -4 V
6 -4 V
6 -4 V
5 -4 V
6 -4 V
6 -4 V
6 -4 V
6 -4 V
6 -4 V
5 -4 V
6 -4 V
6 -3 V
6 -4 V
6 -4 V
5 -4 V
6 -4 V
6 -4 V
6 -4 V
6 -4 V
6 -3 V
5 -4 V
6 -4 V
6 -3 V
6 -4 V
6 -4 V
6 -4 V
5 -4 V
6 -3 V
6 -4 V
6 -4 V
6 -4 V
6 -3 V
5 -4 V
6 -3 V
6 -4 V
6 -3 V
6 -4 V
6 -4 V
5 -4 V
6 -3 V
6 -4 V
6 -3 V
6 -4 V
6 -3 V
5 -3 V
6 -4 V
6 -4 V
6 -3 V
6 -3 V
6 -4 V
5 -3 V
6 -4 V
6 -3 V
6 -3 V
6 -3 V
6 -4 V
5 -3 V
6 -3 V
6 -3 V
6 -3 V
6 -4 V
6 -3 V
5 -3 V
6 -4 V
6 -3 V
6 -3 V
6 -3 V
6 -3 V
5 -3 V
6 -3 V
6 -3 V
6 -3 V
6 -3 V
stroke 2912 1278 M
6 -3 V
5 -3 V
6 -3 V
6 -3 V
6 -3 V
6 -3 V
6 -3 V
5 -3 V
6 -3 V
6 -3 V
6 -3 V
6 -2 V
6 -3 V
5 -3 V
6 -3 V
6 -3 V
6 -3 V
6 -2 V
6 -3 V
5 -3 V
6 -3 V
6 -3 V
6 -2 V
6 -3 V
6 -3 V
5 -3 V
6 -2 V
6 -3 V
6 -3 V
6 -3 V
6 -2 V
5 -3 V
6 -3 V
6 -2 V
6 -3 V
6 -2 V
6 -3 V
5 -3 V
6 -2 V
6 -3 V
6 -3 V
6 -2 V
6 -3 V
5 -2 V
6 -3 V
6 -2 V
6 -2 V
6 -3 V
6 -2 V
5 -3 V
6 -2 V
6 -3 V
6 -2 V
6 -2 V
6 -3 V
5 -2 V
6 -3 V
6 -2 V
6 -2 V
6 -2 V
6 -3 V
5 -2 V
6 -2 V
6 -3 V
6 -2 V
6 -2 V
5 -3 V
6 -2 V
6 -2 V
6 -2 V
6 -2 V
6 -3 V
5 -2 V
6 -2 V
6 -2 V
6 -2 V
6 -2 V
6 -2 V
5 -2 V
6 -3 V
6 -2 V
6 -2 V
6 -2 V
6 -2 V
5 -2 V
6 -2 V
6 -2 V
6 -2 V
6 -2 V
6 -2 V
5 -2 V
6 -3 V
6 -1 V
6 -2 V
6 -3 V
6 -2 V
5 -1 V
6 -3 V
6 -2 V
6 -1 V
6 -2 V
6 -2 V
5 -2 V
6 -2 V
stroke 3518 1025 M
6 -2 V
6 -2 V
6 -2 V
6 -2 V
5 -2 V
6 -2 V
6 -2 V
6 -2 V
6 -1 V
6 -3 V
5 -1 V
6 -2 V
6 -2 V
6 -2 V
6 -1 V
6 -3 V
5 -1 V
6 -2 V
6 -2 V
6 -2 V
6 -1 V
6 -2 V
5 -2 V
6 -2 V
6 -2 V
6 -1 V
6 -2 V
6 -2 V
5 -2 V
6 -1 V
6 -2 V
6 -2 V
6 -1 V
6 -2 V
5 -2 V
6 -1 V
6 -2 V
6 -2 V
6 -2 V
6 -1 V
5 -1 V
6 -2 V
6 -2 V
6 -2 V
6 -1 V
6 -2 V
5 -1 V
6 -2 V
6 -2 V
6 -1 V
6 -2 V
6 -1 V
5 -2 V
6 -1 V
6 -2 V
6 -1 V
6 -2 V
6 -1 V
5 -2 V
6 -1 V
6 -1 V
6 -2 V
6 -1 V
6 -2 V
5 -1 V
6 -2 V
6 -1 V
6 -2 V
6 -1 V
6 -2 V
5 -1 V
6 -1 V
6 -2 V
6 -1 V
6 -1 V
6 -2 V
5 -1 V
6 -2 V
6 -1 V
6 -2 V
6 -1 V
6 -1 V
5 -1 V
6 -2 V
6 -1 V
6 -2 V
6 -1 V
5 -1 V
6 -2 V
6 -1 V
6 -1 V
6 -1 V
6 -2 V
5 -1 V
6 -1 V
6 -2 V
6 -1 V
6 -1 V
6 -2 V
5 -1 V
6 -1 V
6 -2 V
6 -1 V
6 -1 V
stroke 4125 862 M
6 -1 V
5 -2 V
6 -1 V
6 -1 V
6 -1 V
6 -1 V
6 -2 V
5 -1 V
6 -1 V
6 -1 V
6 -2 V
6 -1 V
6 -1 V
5 -2 V
6 -1 V
6 -1 V
6 -1 V
6 -2 V
6 0 V
5 -2 V
6 -1 V
6 -1 V
6 -2 V
6 0 V
6 -2 V
5 -1 V
6 -1 V
6 -1 V
6 -1 V
6 -2 V
6 0 V
5 -2 V
6 -1 V
6 -1 V
6 -1 V
6 -1 V
6 -1 V
5 -2 V
6 0 V
6 -2 V
6 -1 V
6 -1 V
6 -1 V
5 -1 V
6 -1 V
6 -1 V
6 -1 V
6 -1 V
6 -1 V
5 -1 V
6 -1 V
6 -1 V
6 -1 V
6 -1 V
6 -1 V
5 -1 V
6 -1 V
6 -1 V
6 -1 V
6 -1 V
6 -1 V
5 -1 V
6 -1 V
6 -1 V
6 -1 V
6 -1 V
6 -1 V
5 -1 V
6 -1 V
6 -1 V
6 -1 V
6 -1 V
6 -1 V
5 -1 V
6 -1 V
6 -1 V
6 -1 V
6 0 V
6 -2 V
5 -1 V
6 0 V
6 -1 V
6 -2 V
6 0 V
6 -1 V
5 -1 V
6 -1 V
6 -1 V
6 -1 V
6 -1 V
6 -1 V
5 -1 V
6 -1 V
6 0 V
6 -1 V
6 -1 V
6 -1 V
5 -1 V
6 -1 V
6 -1 V
6 -1 V
6 -1 V
6 0 V
5 -1 V
stroke 4731 753 M
6 -1 V
6 -1 V
6 0 V
6 -1 V
5 -1 V
6 -1 V
6 -1 V
6 -1 V
6 -1 V
6 0 V
5 -1 V
6 -1 V
6 -1 V
6 -1 V
6 -1 V
6 0 V
5 -1 V
6 -1 V
6 -1 V
6 0 V
6 -1 V
6 -1 V
5 -1 V
6 -1 V
6 -1 V
6 -1 V
6 0 V
6 -1 V
5 -1 V
6 0 V
6 -1 V
6 -1 V
6 -1 V
6 -1 V
5 -1 V
6 -1 V
6 0 V
6 -1 V
6 -1 V
6 -1 V
5 0 V
6 -1 V
6 -1 V
6 -1 V
6 0 V
6 -1 V
5 -1 V
6 -1 V
6 0 V
6 -1 V
6 -1 V
6 -1 V
5 -1 V
6 0 V
6 -1 V
6 -1 V
6 0 V
6 -1 V
5 -1 V
6 -1 V
6 0 V
6 -1 V
6 -1 V
6 0 V
5 -1 V
6 -1 V
6 -1 V
6 0 V
6 -1 V
6 -1 V
5 -1 V
6 0 V
6 -1 V
6 0 V
6 -1 V
6 -1 V
5 0 V
6 -1 V
6 -1 V
6 0 V
6 -1 V
6 -1 V
5 -1 V
6 0 V
6 -1 V
6 0 V
6 -1 V
6 -1 V
5 0 V
6 -1 V
6 -1 V
6 -1 V
6 0 V
6 -1 V
5 0 V
6 -1 V
6 0 V
6 -1 V
6 -1 V
6 0 V
5 -1 V
6 0 V
6 -1 V
6 -1 V
stroke 5338 676 M
6 -1 V
6 0 V
5 -1 V
6 0 V
6 -1 V
6 -1 V
6 0 V
6 -1 V
5 0 V
6 -1 V
6 -1 V
6 0 V
6 -1 V
6 0 V
5 -1 V
6 -1 V
6 0 V
6 -1 V
6 0 V
6 -1 V
5 0 V
6 -1 V
6 -1 V
6 0 V
6 -1 V
5 0 V
6 -1 V
6 0 V
6 -1 V
6 -1 V
6 0 V
5 -1 V
6 0 V
6 -1 V
6 0 V
6 -1 V
6 0 V
5 -1 V
6 -1 V
6 0 V
6 -1 V
6 0 V
6 -1 V
5 0 V
6 -1 V
6 0 V
6 -1 V
6 0 V
6 -1 V
5 0 V
6 -1 V
6 0 V
6 -1 V
6 0 V
6 -1 V
5 0 V
6 -1 V
6 0 V
6 -1 V
6 0 V
6 -1 V
5 0 V
6 -1 V
6 0 V
6 0 V
6 -1 V
6 -1 V
5 0 V
6 -1 V
6 0 V
6 0 V
6 -1 V
6 0 V
5 -1 V
6 0 V
6 -1 V
6 0 V
6 -1 V
6 0 V
5 -1 V
6 0 V
6 -1 V
6 0 V
6 0 V
6 -1 V
5 0 V
6 -1 V
6 0 V
6 0 V
6 -1 V
6 0 V
5 -1 V
6 0 V
6 -1 V
6 0 V
6 0 V
6 -1 V
5 0 V
6 -1 V
6 0 V
6 -1 V
6 0 V
6 0 V
5 0 V
stroke 5944 624 M
6 -1 V
6 0 V
6 -1 V
6 0 V
6 -1 V
5 0 V
6 0 V
6 -1 V
6 0 V
6 -1 V
6 0 V
5 0 V
6 -1 V
6 0 V
6 0 V
6 -1 V
6 0 V
5 0 V
6 -1 V
6 0 V
6 0 V
6 -1 V
6 0 V
5 0 V
6 -1 V
6 0 V
6 -1 V
6 0 V
6 0 V
5 0 V
6 -1 V
6 0 V
6 0 V
6 -1 V
6 0 V
5 -1 V
6 0 V
6 0 V
6 0 V
6 -1 V
6 0 V
5 0 V
6 -1 V
6 0 V
6 0 V
6 -1 V
5 0 V
6 0 V
6 0 V
6 -1 V
6 0 V
6 -1 V
5 0 V
6 0 V
6 -1 V
6 0 V
6 0 V
6 0 V
5 -1 V
6 0 V
6 -1 V
6 0 V
6 0 V
6 -1 V
5 0 V
6 0 V
6 0 V
6 -1 V
6 0 V
6 0 V
5 -1 V
6 0 V
6 0 V
6 0 V
6 -1 V
6 0 V
5 0 V
6 -1 V
6 0 V
6 -1 V
6 0 V
6 0 V
5 0 V
6 0 V
6 -1 V
6 0 V
6 -1 V
6 0 V
5 0 V
6 -1 V
6 0 V
6 0 V
6 0 V
6 0 V
5 -1 V
6 0 V
6 0 V
6 -1 V
6 0 V
6 0 V
5 -1 V
6 0 V
6 0 V
6 0 V
stroke 6551 590 M
6 0 V
6 -1 V
5 0 V
6 0 V
6 -1 V
6 0 V
6 0 V
6 0 V
5 -1 V
6 0 V
6 0 V
6 0 V
6 0 V
6 -1 V
5 0 V
6 0 V
6 0 V
6 -1 V
6 0 V
6 0 V
5 0 V
6 -1 V
6 0 V
6 0 V
6 0 V
6 0 V
5 0 V
6 -1 V
6 0 V
6 0 V
6 0 V
6 -1 V
5 0 V
6 0 V
6 0 V
6 0 V
6 0 V
6 -1 V
5 0 V
6 0 V
6 0 V
6 -1 V
6 0 V
6 0 V
5 0 V
6 -1 V
6 0 V
6 0 V
6 0 V
6 0 V
5 0 V
6 0 V
6 -1 V
6 0 V
6 0 V
6 0 V
5 -1 V
6 0 V
6 0 V
6 0 V
6 0 V
6 -1 V
5 0 V
6 0 V
6 0 V
stroke
LT6
LTb
6111 3591 M
[ [(arial) 180.0 0.0 true true 0 (4.4922)]
] -60.0 MRshow
LT6
6219 3591 M
495 0 V
1104 4824 M
6 -173 V
5 -125 V
6 -102 V
6 -86 V
6 -75 V
6 -68 V
6 -62 V
5 -57 V
6 -52 V
6 -49 V
6 -46 V
6 -44 V
6 -41 V
5 -40 V
6 -37 V
6 -36 V
6 -35 V
6 -33 V
6 -32 V
5 -30 V
6 -30 V
6 -28 V
6 -28 V
6 -27 V
6 -26 V
5 -26 V
6 -25 V
6 -25 V
6 -24 V
6 -24 V
6 -22 V
5 -23 V
6 -21 V
6 -22 V
6 -21 V
6 -21 V
6 -19 V
5 -20 V
6 -20 V
6 -19 V
6 -19 V
6 -18 V
6 -19 V
5 -17 V
6 -18 V
6 -17 V
6 -17 V
6 -17 V
6 -16 V
5 -17 V
6 -16 V
6 -16 V
6 -16 V
6 -15 V
6 -16 V
5 -15 V
6 -15 V
6 -15 V
6 -14 V
6 -15 V
6 -14 V
5 -14 V
6 -15 V
6 -14 V
6 -14 V
6 -13 V
6 -14 V
5 -13 V
6 -14 V
6 -12 V
6 -13 V
6 -13 V
6 -13 V
5 -13 V
6 -12 V
6 -13 V
6 -12 V
6 -13 V
6 -12 V
5 -12 V
6 -12 V
6 -12 V
6 -11 V
6 -12 V
6 -11 V
5 -12 V
6 -11 V
6 -11 V
6 -11 V
6 -11 V
6 -10 V
5 -12 V
6 -10 V
6 -10 V
6 -11 V
6 -10 V
6 -10 V
5 -11 V
6 -9 V
6 -10 V
6 -10 V
6 -10 V
stroke 1699 2302 M
6 -9 V
5 -10 V
6 -9 V
6 -9 V
6 -10 V
6 -9 V
6 -9 V
5 -9 V
6 -9 V
6 -10 V
6 -9 V
6 -8 V
6 -9 V
5 -8 V
6 -9 V
6 -8 V
6 -9 V
6 -8 V
6 -8 V
5 -9 V
6 -8 V
6 -8 V
6 -8 V
6 -8 V
5 -8 V
6 -8 V
6 -8 V
6 -8 V
6 -8 V
6 -7 V
5 -8 V
6 -8 V
6 -7 V
6 -8 V
6 -8 V
6 -7 V
5 -8 V
6 -7 V
6 -7 V
6 -8 V
6 -6 V
6 -8 V
5 -7 V
6 -7 V
6 -7 V
6 -7 V
6 -7 V
6 -8 V
5 -7 V
6 -7 V
6 -6 V
6 -7 V
6 -7 V
6 -7 V
5 -7 V
6 -7 V
6 -7 V
6 -6 V
6 -7 V
6 -7 V
5 -6 V
6 -7 V
6 -7 V
6 -6 V
6 -6 V
6 -7 V
5 -6 V
6 -6 V
6 -6 V
6 -7 V
6 -6 V
6 -6 V
5 -6 V
6 -6 V
6 -5 V
6 -6 V
6 -5 V
6 -6 V
5 -6 V
6 -5 V
6 -5 V
6 -6 V
6 -5 V
6 -5 V
5 -5 V
6 -6 V
6 -5 V
6 -5 V
6 -6 V
6 -5 V
5 -5 V
6 -5 V
6 -5 V
6 -5 V
6 -5 V
6 -5 V
5 -5 V
6 -5 V
6 -5 V
6 -5 V
6 -5 V
6 -4 V
5 -5 V
6 -5 V
stroke 2305 1587 M
6 -5 V
6 -4 V
6 -5 V
6 -5 V
5 -4 V
6 -5 V
6 -5 V
6 -4 V
6 -5 V
6 -4 V
5 -5 V
6 -4 V
6 -4 V
6 -5 V
6 -4 V
6 -5 V
5 -4 V
6 -5 V
6 -4 V
6 -4 V
6 -4 V
6 -5 V
5 -4 V
6 -4 V
6 -4 V
6 -4 V
6 -4 V
6 -5 V
5 -3 V
6 -5 V
6 -3 V
6 -5 V
6 -4 V
6 -3 V
5 -4 V
6 -4 V
6 -4 V
6 -4 V
6 -3 V
6 -4 V
5 -4 V
6 -4 V
6 -3 V
6 -4 V
6 -4 V
5 -3 V
6 -4 V
6 -4 V
6 -3 V
6 -4 V
6 -4 V
5 -3 V
6 -4 V
6 -4 V
6 -4 V
6 -3 V
6 -3 V
5 -4 V
6 -4 V
6 -3 V
6 -4 V
6 -3 V
6 -4 V
5 -3 V
6 -3 V
6 -4 V
6 -3 V
6 -4 V
6 -3 V
5 -3 V
6 -4 V
6 -3 V
6 -3 V
6 -4 V
6 -3 V
5 -3 V
6 -3 V
6 -4 V
6 -3 V
6 -3 V
6 -3 V
5 -4 V
6 -3 V
6 -3 V
6 -3 V
6 -4 V
6 -3 V
5 -3 V
6 -3 V
6 -3 V
6 -3 V
6 -3 V
6 -3 V
5 -4 V
6 -3 V
6 -3 V
6 -3 V
6 -3 V
6 -3 V
5 -3 V
6 -3 V
6 -2 V
6 -3 V
6 -3 V
stroke 2912 1203 M
6 -3 V
5 -3 V
6 -3 V
6 -3 V
6 -3 V
6 -3 V
6 -3 V
5 -3 V
6 -3 V
6 -3 V
6 -3 V
6 -3 V
6 -3 V
5 -3 V
6 -2 V
6 -3 V
6 -3 V
6 -3 V
6 -3 V
5 -2 V
6 -3 V
6 -3 V
6 -3 V
6 -2 V
6 -3 V
5 -2 V
6 -3 V
6 -2 V
6 -3 V
6 -3 V
6 -3 V
5 -2 V
6 -3 V
6 -2 V
6 -3 V
6 -3 V
6 -2 V
5 -3 V
6 -2 V
6 -3 V
6 -3 V
6 -2 V
6 -3 V
5 -2 V
6 -3 V
6 -3 V
6 -2 V
6 -3 V
6 -2 V
5 -2 V
6 -3 V
6 -2 V
6 -3 V
6 -2 V
6 -3 V
5 -2 V
6 -2 V
6 -3 V
6 -2 V
6 -3 V
6 -2 V
5 -3 V
6 -2 V
6 -2 V
6 -3 V
6 -2 V
5 -3 V
6 -2 V
6 -2 V
6 -3 V
6 -2 V
6 -2 V
5 -3 V
6 -2 V
6 -2 V
6 -2 V
6 -2 V
6 -2 V
5 -2 V
6 -2 V
6 -3 V
6 -2 V
6 -2 V
6 -2 V
5 -2 V
6 -2 V
6 -2 V
6 -2 V
6 -2 V
6 -2 V
5 -2 V
6 -3 V
6 -2 V
6 -2 V
6 -2 V
6 -2 V
5 -2 V
6 -2 V
6 -2 V
6 -2 V
6 -2 V
6 -2 V
5 -2 V
6 -2 V
stroke 3518 947 M
6 -2 V
6 -2 V
6 -2 V
6 -1 V
5 -2 V
6 -2 V
6 -2 V
6 -2 V
6 -2 V
6 -2 V
5 -2 V
6 -1 V
6 -2 V
6 -2 V
6 -2 V
6 -1 V
5 -2 V
6 -2 V
6 -2 V
6 -1 V
6 -2 V
6 -2 V
5 -1 V
6 -2 V
6 -2 V
6 -1 V
6 -2 V
6 -2 V
5 -1 V
6 -2 V
6 -2 V
6 -1 V
6 -1 V
6 -2 V
5 -1 V
6 -2 V
6 -1 V
6 -2 V
6 -1 V
6 -2 V
5 -1 V
6 -2 V
6 -1 V
6 -2 V
6 -1 V
6 -2 V
5 -1 V
6 -1 V
6 -2 V
6 -1 V
6 -2 V
6 -1 V
5 -1 V
6 -2 V
6 -1 V
6 -2 V
6 -1 V
6 -2 V
5 -1 V
6 -1 V
6 -2 V
6 -1 V
6 -1 V
6 -2 V
5 -1 V
6 -2 V
6 -1 V
6 -1 V
6 -1 V
6 -2 V
5 -1 V
6 -2 V
6 -1 V
6 -1 V
6 -2 V
6 -1 V
5 -1 V
6 -1 V
6 -2 V
6 -1 V
6 -2 V
6 -1 V
5 -1 V
6 -1 V
6 -2 V
6 -1 V
6 -1 V
5 -2 V
6 -1 V
6 -1 V
6 -1 V
6 -1 V
6 -1 V
5 -2 V
6 -1 V
6 -1 V
6 -1 V
6 -1 V
6 -1 V
5 -1 V
6 -1 V
6 -2 V
6 -1 V
6 -1 V
stroke 4125 795 M
6 -1 V
5 -1 V
6 -1 V
6 -1 V
6 -1 V
6 -1 V
6 -1 V
5 -1 V
6 -2 V
6 0 V
6 -2 V
6 -1 V
6 -1 V
5 -1 V
6 -1 V
6 -1 V
6 -1 V
6 -1 V
6 -1 V
5 -1 V
6 -1 V
6 -2 V
6 0 V
6 -1 V
6 -2 V
5 0 V
6 -2 V
6 -1 V
6 -1 V
6 -1 V
6 -1 V
5 -1 V
6 -1 V
6 -1 V
6 -1 V
6 -1 V
6 -1 V
5 -1 V
6 -1 V
6 -1 V
6 -1 V
6 -1 V
6 -1 V
5 -1 V
6 -1 V
6 -1 V
6 -1 V
6 -1 V
6 0 V
5 -1 V
6 -1 V
6 -1 V
6 -1 V
6 -1 V
6 0 V
5 -1 V
6 -1 V
6 -1 V
6 -1 V
6 -1 V
6 -1 V
5 0 V
6 -1 V
6 -1 V
6 -1 V
6 -1 V
6 -1 V
5 0 V
6 -1 V
6 -1 V
6 -1 V
6 0 V
6 -1 V
5 -1 V
6 -1 V
6 -1 V
6 0 V
6 -1 V
6 -1 V
5 -1 V
6 -1 V
6 -1 V
6 0 V
6 -1 V
6 -1 V
5 -1 V
6 0 V
6 -1 V
6 -1 V
6 0 V
6 -1 V
5 -1 V
6 -1 V
6 0 V
6 -1 V
6 -1 V
6 -1 V
5 0 V
6 -1 V
6 -1 V
6 -1 V
6 0 V
6 -1 V
5 -1 V
stroke 4731 701 M
6 0 V
6 -1 V
6 -1 V
6 0 V
5 -1 V
6 -1 V
6 0 V
6 -1 V
6 -1 V
6 0 V
5 -1 V
6 -1 V
6 0 V
6 -1 V
6 0 V
6 -1 V
5 -1 V
6 -1 V
6 0 V
6 -1 V
6 -1 V
6 0 V
5 -1 V
6 -1 V
6 0 V
6 -1 V
6 -1 V
6 0 V
5 -1 V
6 -1 V
6 0 V
6 -1 V
6 -1 V
6 0 V
5 -1 V
6 0 V
6 -1 V
6 -1 V
6 0 V
6 -1 V
5 0 V
6 -1 V
6 -1 V
6 0 V
6 -1 V
6 0 V
5 -1 V
6 0 V
6 -1 V
6 -1 V
6 0 V
6 -1 V
5 0 V
6 -1 V
6 -1 V
6 0 V
6 0 V
6 -1 V
5 -1 V
6 0 V
6 0 V
6 -1 V
6 -1 V
6 0 V
5 -1 V
6 0 V
6 0 V
6 -1 V
6 0 V
6 -1 V
5 0 V
6 -1 V
6 0 V
6 -1 V
6 0 V
6 -1 V
5 0 V
6 -1 V
6 0 V
6 0 V
6 -1 V
6 0 V
5 -1 V
6 -1 V
6 0 V
6 0 V
6 -1 V
6 0 V
5 -1 V
6 0 V
6 -1 V
6 0 V
6 0 V
6 -1 V
5 -1 V
6 0 V
6 0 V
6 -1 V
6 0 V
6 -1 V
5 0 V
6 -1 V
6 0 V
6 0 V
stroke 5338 644 M
6 -1 V
6 0 V
5 -1 V
6 -1 V
6 0 V
6 0 V
6 -1 V
6 0 V
5 -1 V
6 0 V
6 -1 V
6 0 V
6 0 V
6 -1 V
5 -1 V
6 0 V
6 -1 V
6 0 V
6 0 V
6 -1 V
5 0 V
6 -1 V
6 0 V
6 -1 V
6 0 V
5 0 V
6 -1 V
6 0 V
6 -1 V
6 0 V
6 0 V
5 0 V
6 -1 V
6 0 V
6 -1 V
6 0 V
6 -1 V
5 0 V
6 0 V
6 -1 V
6 0 V
6 -1 V
6 0 V
5 -1 V
6 0 V
6 0 V
6 -1 V
6 0 V
6 -1 V
5 0 V
6 -1 V
6 0 V
6 0 V
6 -1 V
6 0 V
5 0 V
6 -1 V
6 0 V
6 -1 V
6 0 V
6 0 V
5 0 V
6 -1 V
6 0 V
6 -1 V
6 0 V
6 0 V
5 0 V
6 -1 V
6 0 V
6 0 V
6 -1 V
6 0 V
5 0 V
6 0 V
6 -1 V
6 0 V
6 0 V
6 0 V
5 0 V
6 -1 V
6 0 V
6 0 V
6 -1 V
6 0 V
5 0 V
6 -1 V
6 0 V
6 0 V
6 0 V
6 0 V
5 -1 V
6 0 V
6 0 V
6 -1 V
6 0 V
6 0 V
5 0 V
6 -1 V
6 0 V
6 0 V
6 0 V
6 0 V
5 -1 V
stroke 5944 606 M
6 0 V
6 0 V
6 -1 V
6 0 V
6 0 V
5 -1 V
6 0 V
6 0 V
6 0 V
6 0 V
6 -1 V
5 0 V
6 0 V
6 0 V
6 -1 V
6 0 V
6 0 V
5 -1 V
6 0 V
6 0 V
6 0 V
6 0 V
6 -1 V
5 0 V
6 0 V
6 -1 V
6 0 V
6 0 V
6 0 V
5 0 V
6 -1 V
6 0 V
6 0 V
6 0 V
6 -1 V
5 0 V
6 0 V
6 0 V
6 -1 V
6 0 V
6 0 V
5 0 V
6 0 V
6 0 V
6 -1 V
6 0 V
5 0 V
6 0 V
6 -1 V
6 0 V
6 0 V
6 0 V
5 0 V
6 -1 V
6 0 V
6 0 V
6 0 V
6 0 V
5 0 V
6 0 V
6 0 V
6 -1 V
6 0 V
6 0 V
5 0 V
6 0 V
6 -1 V
6 0 V
6 0 V
6 0 V
5 0 V
6 0 V
6 -1 V
6 0 V
6 0 V
6 0 V
5 0 V
6 0 V
6 0 V
6 0 V
6 -1 V
6 0 V
5 0 V
6 0 V
6 0 V
6 0 V
6 -1 V
6 0 V
5 0 V
6 0 V
6 0 V
6 -1 V
6 0 V
6 0 V
5 0 V
6 0 V
6 0 V
6 0 V
6 0 V
6 -1 V
5 0 V
6 0 V
6 0 V
6 0 V
stroke 6551 586 M
6 0 V
6 -1 V
5 0 V
6 0 V
6 0 V
6 0 V
6 -1 V
6 0 V
5 0 V
6 0 V
6 0 V
6 0 V
6 0 V
6 0 V
5 0 V
6 -1 V
6 0 V
6 0 V
6 0 V
6 0 V
5 -1 V
6 0 V
6 0 V
6 0 V
6 0 V
6 0 V
5 0 V
6 0 V
6 -1 V
6 0 V
6 0 V
6 0 V
5 0 V
6 0 V
6 -1 V
6 0 V
6 0 V
6 0 V
5 0 V
6 -1 V
6 0 V
6 0 V
6 0 V
6 0 V
5 0 V
6 0 V
6 0 V
6 0 V
6 -1 V
6 0 V
5 0 V
6 0 V
6 0 V
6 -1 V
6 0 V
6 0 V
5 0 V
6 0 V
6 0 V
6 -1 V
6 0 V
6 0 V
5 0 V
6 0 V
6 0 V
stroke
LT7
LTb
6111 3411 M
[ [(arial) 180.0 0.0 true true 0 (5.1833)]
] -60.0 MRshow
LT7
6219 3411 M
495 0 V
1104 4824 M
6 -585 V
5 -394 V
6 -292 V
6 -242 V
6 -201 V
6 -173 V
6 -147 V
5 -132 V
6 -119 V
6 -103 V
6 -88 V
6 -79 V
6 -74 V
5 -69 V
6 -62 V
6 -57 V
6 -58 V
6 -54 V
6 -52 V
5 -47 V
6 -44 V
6 -43 V
6 -41 V
6 -38 V
6 -36 V
5 -31 V
6 -29 V
6 -29 V
6 -26 V
6 -25 V
6 -26 V
5 -25 V
6 -25 V
6 -21 V
6 -21 V
6 -20 V
6 -19 V
5 -20 V
6 -20 V
6 -19 V
6 -20 V
6 -18 V
6 -19 V
5 -18 V
6 -19 V
6 -18 V
6 -19 V
6 -18 V
6 -19 V
5 -16 V
6 -16 V
6 -16 V
6 -16 V
6 -16 V
6 -14 V
5 -14 V
6 -13 V
6 -14 V
6 -12 V
6 -10 V
6 -11 V
5 -10 V
6 -11 V
6 -10 V
6 -10 V
6 -11 V
6 -10 V
5 -10 V
6 -8 V
6 -9 V
6 -8 V
6 -6 V
6 -7 V
5 -7 V
6 -7 V
6 -7 V
6 -6 V
6 -5 V
6 -6 V
5 -5 V
6 -5 V
6 -4 V
6 -5 V
6 -4 V
6 -5 V
5 -5 V
6 -4 V
6 -5 V
6 -5 V
6 -4 V
6 -5 V
5 -4 V
6 -5 V
6 -5 V
6 -4 V
6 -5 V
6 -4 V
5 -5 V
6 -5 V
6 -4 V
6 -4 V
6 -3 V
stroke 1699 650 M
6 -3 V
5 -4 V
6 -2 V
6 -3 V
6 -2 V
6 -2 V
6 -3 V
5 -2 V
6 -2 V
6 -1 V
6 -2 V
6 -1 V
6 -1 V
5 -1 V
6 -1 V
6 -2 V
6 0 V
6 -2 V
6 -1 V
5 -1 V
6 -1 V
6 -1 V
6 -2 V
6 0 V
5 -2 V
6 -1 V
6 -1 V
6 -1 V
6 -1 V
6 -2 V
5 -1 V
6 -1 V
6 -1 V
6 -1 V
6 -1 V
6 -1 V
5 -2 V
6 -1 V
6 -1 V
6 -1 V
6 -1 V
6 -1 V
5 -2 V
6 -1 V
6 -1 V
6 -1 V
6 -1 V
6 -1 V
5 -1 V
6 -2 V
6 -1 V
6 -1 V
6 -1 V
6 0 V
5 0 V
6 0 V
6 0 V
6 0 V
6 0 V
6 0 V
5 0 V
6 0 V
6 0 V
6 0 V
6 0 V
6 0 V
5 0 V
6 0 V
6 0 V
6 0 V
6 0 V
6 0 V
5 0 V
6 0 V
6 0 V
6 0 V
6 0 V
6 0 V
5 0 V
6 0 V
6 0 V
6 0 V
6 0 V
6 0 V
5 0 V
6 0 V
6 0 V
6 0 V
6 0 V
6 0 V
5 0 V
6 0 V
6 0 V
6 0 V
6 0 V
6 0 V
5 0 V
6 0 V
6 0 V
6 0 V
6 0 V
6 0 V
5 0 V
6 0 V
stroke 2305 576 M
6 0 V
6 0 V
6 0 V
6 0 V
5 0 V
6 0 V
6 0 V
6 0 V
6 0 V
6 0 V
5 0 V
6 0 V
6 0 V
6 0 V
6 0 V
6 0 V
5 0 V
6 0 V
6 0 V
6 0 V
6 0 V
6 0 V
5 0 V
6 0 V
6 0 V
6 0 V
6 0 V
6 0 V
5 0 V
6 0 V
6 0 V
6 0 V
6 0 V
6 0 V
5 0 V
6 0 V
6 0 V
6 0 V
6 0 V
6 0 V
5 0 V
6 0 V
6 0 V
6 0 V
6 0 V
5 0 V
6 0 V
6 0 V
6 0 V
6 0 V
6 0 V
5 0 V
6 0 V
6 0 V
6 0 V
6 0 V
6 0 V
5 0 V
6 0 V
6 0 V
6 0 V
6 0 V
6 0 V
5 0 V
6 0 V
6 0 V
6 0 V
6 0 V
6 0 V
5 0 V
6 0 V
6 0 V
6 0 V
6 0 V
6 0 V
5 0 V
6 0 V
6 0 V
6 0 V
6 0 V
6 0 V
5 0 V
6 0 V
6 0 V
6 0 V
6 0 V
6 0 V
5 0 V
6 0 V
6 0 V
6 0 V
6 0 V
6 0 V
5 0 V
6 0 V
6 0 V
6 0 V
6 0 V
6 0 V
5 0 V
6 0 V
6 0 V
6 0 V
6 0 V
stroke 2912 576 M
6 0 V
5 0 V
6 0 V
6 0 V
6 0 V
6 0 V
6 0 V
5 0 V
6 0 V
6 0 V
6 0 V
6 0 V
6 0 V
5 0 V
6 0 V
6 0 V
6 0 V
6 0 V
6 0 V
5 0 V
6 0 V
6 0 V
6 0 V
6 0 V
6 0 V
5 0 V
6 0 V
6 0 V
6 0 V
6 0 V
6 0 V
5 0 V
6 0 V
6 0 V
6 0 V
6 0 V
6 0 V
5 0 V
6 0 V
6 0 V
6 0 V
6 0 V
6 0 V
5 0 V
6 0 V
6 0 V
6 0 V
6 0 V
6 0 V
5 0 V
6 0 V
6 0 V
6 0 V
6 0 V
6 0 V
5 0 V
6 0 V
6 0 V
6 0 V
6 0 V
6 0 V
5 0 V
6 0 V
6 0 V
6 0 V
6 0 V
5 0 V
6 0 V
6 0 V
6 0 V
6 0 V
6 0 V
5 0 V
6 0 V
6 0 V
6 0 V
6 0 V
6 0 V
5 0 V
6 0 V
6 0 V
6 0 V
6 0 V
6 0 V
5 0 V
6 0 V
6 0 V
6 0 V
6 0 V
6 0 V
5 0 V
6 0 V
6 0 V
6 0 V
6 0 V
6 0 V
5 0 V
6 0 V
6 0 V
6 0 V
6 0 V
6 0 V
5 0 V
6 0 V
stroke 3518 576 M
6 0 V
6 0 V
6 0 V
6 0 V
5 0 V
6 0 V
6 0 V
6 0 V
6 0 V
6 0 V
5 0 V
6 0 V
6 0 V
6 0 V
6 0 V
6 0 V
5 0 V
6 0 V
6 0 V
6 0 V
6 0 V
6 0 V
5 0 V
6 0 V
6 0 V
6 0 V
6 0 V
6 0 V
5 0 V
6 0 V
6 0 V
6 0 V
6 0 V
6 0 V
5 0 V
6 0 V
6 0 V
6 0 V
6 0 V
6 0 V
5 0 V
6 0 V
6 0 V
6 0 V
6 0 V
6 0 V
5 0 V
6 0 V
6 0 V
6 0 V
6 0 V
6 0 V
5 0 V
6 0 V
6 0 V
6 0 V
6 0 V
6 0 V
5 0 V
6 0 V
6 0 V
6 0 V
6 0 V
6 0 V
5 0 V
6 0 V
6 0 V
6 0 V
6 0 V
6 0 V
5 0 V
6 0 V
6 0 V
6 0 V
6 0 V
6 0 V
5 0 V
6 0 V
6 0 V
6 0 V
6 0 V
6 0 V
5 0 V
6 0 V
6 0 V
6 0 V
6 0 V
5 0 V
6 0 V
6 0 V
6 0 V
6 0 V
6 0 V
5 0 V
6 0 V
6 0 V
6 0 V
6 0 V
6 0 V
5 0 V
6 0 V
6 0 V
6 0 V
6 0 V
stroke 4125 576 M
6 0 V
5 0 V
6 0 V
6 0 V
6 0 V
6 0 V
6 0 V
5 0 V
6 0 V
6 0 V
6 0 V
6 0 V
6 0 V
5 0 V
6 0 V
6 0 V
6 0 V
6 0 V
6 0 V
5 0 V
6 0 V
6 0 V
6 0 V
6 0 V
6 0 V
5 0 V
6 0 V
6 0 V
6 0 V
6 0 V
6 0 V
5 0 V
6 0 V
6 0 V
6 0 V
6 0 V
6 0 V
5 0 V
6 0 V
6 0 V
6 0 V
6 0 V
6 0 V
5 0 V
6 0 V
6 0 V
6 0 V
6 0 V
6 0 V
5 0 V
6 0 V
6 0 V
6 0 V
6 0 V
6 0 V
5 0 V
6 0 V
6 0 V
6 0 V
6 0 V
6 0 V
5 0 V
6 0 V
6 0 V
6 0 V
6 0 V
6 0 V
5 0 V
6 0 V
6 0 V
6 0 V
6 0 V
6 0 V
5 0 V
6 0 V
6 0 V
6 0 V
6 0 V
6 0 V
5 0 V
6 0 V
6 0 V
6 0 V
6 0 V
6 0 V
5 0 V
6 0 V
6 0 V
6 0 V
6 0 V
6 0 V
5 0 V
6 0 V
6 0 V
6 0 V
6 0 V
6 0 V
5 0 V
6 0 V
6 0 V
6 0 V
6 0 V
6 0 V
5 0 V
stroke 4731 576 M
6 0 V
6 0 V
6 0 V
6 0 V
5 0 V
6 0 V
6 0 V
6 0 V
6 0 V
6 0 V
5 0 V
6 0 V
6 0 V
6 0 V
6 0 V
6 0 V
5 0 V
6 0 V
6 0 V
6 0 V
6 0 V
6 0 V
5 0 V
6 0 V
6 0 V
6 0 V
6 0 V
6 0 V
5 0 V
6 0 V
6 0 V
6 0 V
6 0 V
6 0 V
5 0 V
6 0 V
6 0 V
6 0 V
6 0 V
6 0 V
5 0 V
6 0 V
6 0 V
6 0 V
6 0 V
6 0 V
5 0 V
6 0 V
6 0 V
6 0 V
6 0 V
6 0 V
5 0 V
6 0 V
6 0 V
6 0 V
6 0 V
6 0 V
5 0 V
6 0 V
6 0 V
6 0 V
6 0 V
6 0 V
5 0 V
6 0 V
6 0 V
6 0 V
6 0 V
6 0 V
5 0 V
6 0 V
6 0 V
6 0 V
6 0 V
6 0 V
5 0 V
6 0 V
6 0 V
6 0 V
6 0 V
6 0 V
5 0 V
6 0 V
6 0 V
6 0 V
6 0 V
6 0 V
5 0 V
6 0 V
6 0 V
6 0 V
6 0 V
6 0 V
5 0 V
6 0 V
6 0 V
6 0 V
6 0 V
6 0 V
5 0 V
6 0 V
6 0 V
6 0 V
stroke 5338 576 M
6 0 V
6 0 V
5 0 V
6 0 V
6 0 V
6 0 V
6 0 V
6 0 V
5 0 V
6 0 V
6 0 V
6 0 V
6 0 V
6 0 V
5 0 V
6 0 V
6 0 V
6 0 V
6 0 V
6 0 V
5 0 V
6 0 V
6 0 V
6 0 V
6 0 V
5 0 V
6 0 V
6 0 V
6 0 V
6 0 V
6 0 V
5 0 V
6 0 V
6 0 V
6 0 V
6 0 V
6 0 V
5 0 V
6 0 V
6 0 V
6 0 V
6 0 V
6 0 V
5 0 V
6 0 V
6 0 V
6 0 V
6 0 V
6 0 V
5 0 V
6 0 V
6 0 V
6 0 V
6 0 V
6 0 V
5 0 V
6 0 V
6 0 V
6 0 V
6 0 V
6 0 V
5 0 V
6 0 V
6 0 V
6 0 V
6 0 V
6 0 V
5 0 V
6 0 V
6 0 V
6 0 V
6 0 V
6 0 V
5 0 V
6 0 V
6 0 V
6 0 V
6 0 V
6 0 V
5 0 V
6 0 V
6 0 V
6 0 V
6 0 V
6 0 V
5 0 V
6 0 V
6 0 V
6 0 V
6 0 V
6 0 V
5 0 V
6 0 V
6 0 V
6 0 V
6 0 V
6 0 V
5 0 V
6 0 V
6 0 V
6 0 V
6 0 V
6 0 V
5 0 V
stroke 5944 576 M
6 0 V
6 0 V
6 0 V
6 0 V
6 0 V
5 0 V
6 0 V
6 0 V
6 0 V
6 0 V
6 0 V
5 0 V
6 0 V
6 0 V
6 0 V
6 0 V
6 0 V
5 0 V
6 0 V
6 0 V
6 0 V
6 0 V
6 0 V
5 0 V
6 0 V
6 0 V
6 0 V
6 0 V
6 0 V
5 0 V
6 0 V
6 0 V
6 0 V
6 0 V
6 0 V
5 0 V
6 0 V
6 0 V
6 0 V
6 0 V
6 0 V
5 0 V
6 0 V
6 0 V
6 0 V
6 0 V
5 0 V
6 0 V
6 0 V
6 0 V
6 0 V
6 0 V
5 0 V
6 0 V
6 0 V
6 0 V
6 0 V
6 0 V
5 0 V
6 0 V
6 0 V
6 0 V
6 0 V
6 0 V
5 0 V
6 0 V
6 0 V
6 0 V
6 0 V
6 0 V
5 0 V
6 0 V
6 0 V
6 0 V
6 0 V
6 0 V
5 0 V
6 0 V
6 0 V
6 0 V
6 0 V
6 0 V
5 0 V
6 0 V
6 0 V
6 0 V
6 0 V
6 0 V
5 0 V
6 0 V
6 0 V
6 0 V
6 0 V
6 0 V
5 0 V
6 0 V
6 0 V
6 0 V
6 0 V
6 0 V
5 0 V
6 0 V
6 0 V
6 0 V
stroke 6551 576 M
6 0 V
6 0 V
5 0 V
6 0 V
6 0 V
6 0 V
6 0 V
6 0 V
5 0 V
6 0 V
6 0 V
6 0 V
6 0 V
6 0 V
5 0 V
6 0 V
6 0 V
6 0 V
6 0 V
6 0 V
5 0 V
6 0 V
6 0 V
6 0 V
6 0 V
6 0 V
5 0 V
6 0 V
6 0 V
6 0 V
6 0 V
6 0 V
5 0 V
6 0 V
6 0 V
6 0 V
6 0 V
6 0 V
5 0 V
6 0 V
6 0 V
6 0 V
6 0 V
6 0 V
5 0 V
6 0 V
6 0 V
6 0 V
6 0 V
6 0 V
5 0 V
6 0 V
6 0 V
6 0 V
6 0 V
6 0 V
5 0 V
6 0 V
6 0 V
6 0 V
6 0 V
6 0 V
5 0 V
6 0 V
6 0 V
stroke
LT8
LTb
6111 3231 M
[ [(arial) 180.0 0.0 true true 0 (5.8745)]
] -60.0 MRshow
LT8
6219 3231 M
495 0 V
1104 4824 M
6 -710 V
5 -491 V
6 -368 V
6 -271 V
6 -213 V
6 -200 V
6 -142 V
5 -129 V
6 -129 V
6 -104 V
6 -90 V
6 -77 V
6 -65 V
5 -64 V
6 -52 V
6 -52 V
6 -45 V
6 -45 V
6 -46 V
5 -45 V
6 -38 V
6 -39 V
6 -39 V
6 -32 V
6 -33 V
5 -32 V
6 -19 V
6 -20 V
6 -19 V
6 -19 V
6 -20 V
5 -19 V
6 -19 V
6 -20 V
6 -19 V
6 -20 V
6 -19 V
5 -19 V
6 -19 V
6 -14 V
6 -12 V
6 -13 V
6 -13 V
5 -13 V
6 -13 V
6 -13 V
6 -6 V
6 -7 V
6 -6 V
5 -7 V
6 -6 V
6 -7 V
6 -6 V
6 -7 V
6 -6 V
5 -6 V
6 -7 V
6 -7 V
6 -6 V
6 -6 V
6 -7 V
5 -6 V
6 -6 V
6 -7 V
6 -7 V
6 -6 V
6 -6 V
5 -7 V
6 -7 V
6 -6 V
6 -6 V
6 -7 V
6 -6 V
5 -7 V
6 -6 V
6 -7 V
6 -6 V
6 -6 V
6 -7 V
5 -6 V
6 -7 V
6 -6 V
6 -7 V
6 -6 V
6 -7 V
5 -6 V
6 -7 V
6 -6 V
6 -7 V
6 -6 V
6 -6 V
5 -7 V
6 -6 V
6 -7 V
6 -6 V
6 -7 V
6 -6 V
5 -6 V
6 -7 V
6 -7 V
6 -6 V
6 0 V
stroke 1699 576 M
6 0 V
5 0 V
6 0 V
6 0 V
6 0 V
6 0 V
6 0 V
5 0 V
6 0 V
6 0 V
6 0 V
6 0 V
6 0 V
5 0 V
6 0 V
6 0 V
6 0 V
6 0 V
6 0 V
5 0 V
6 0 V
6 0 V
6 0 V
6 0 V
5 0 V
6 0 V
6 0 V
6 0 V
6 0 V
6 0 V
5 0 V
6 0 V
6 0 V
6 0 V
6 0 V
6 0 V
5 0 V
6 0 V
6 0 V
6 0 V
6 0 V
6 0 V
5 0 V
6 0 V
6 0 V
6 0 V
6 0 V
6 0 V
5 0 V
6 0 V
6 0 V
6 0 V
6 0 V
6 0 V
5 0 V
6 0 V
6 0 V
6 0 V
6 0 V
6 0 V
5 0 V
6 0 V
6 0 V
6 0 V
6 0 V
6 0 V
5 0 V
6 0 V
6 0 V
6 0 V
6 0 V
6 0 V
5 0 V
6 0 V
6 0 V
6 0 V
6 0 V
6 0 V
5 0 V
6 0 V
6 0 V
6 0 V
6 0 V
6 0 V
5 0 V
6 0 V
6 0 V
6 0 V
6 0 V
6 0 V
5 0 V
6 0 V
6 0 V
6 0 V
6 0 V
6 0 V
5 0 V
6 0 V
6 0 V
6 0 V
6 0 V
6 0 V
5 0 V
6 0 V
stroke 2305 576 M
6 0 V
6 0 V
6 0 V
6 0 V
5 0 V
6 0 V
6 0 V
6 0 V
6 0 V
6 0 V
5 0 V
6 0 V
6 0 V
6 0 V
6 0 V
6 0 V
5 0 V
6 0 V
6 0 V
6 0 V
6 0 V
6 0 V
5 0 V
6 0 V
6 0 V
6 0 V
6 0 V
6 0 V
5 0 V
6 0 V
6 0 V
6 0 V
6 0 V
6 0 V
5 0 V
6 0 V
6 0 V
6 0 V
6 0 V
6 0 V
5 0 V
6 0 V
6 0 V
6 0 V
6 0 V
5 0 V
6 0 V
6 0 V
6 0 V
6 0 V
6 0 V
5 0 V
6 0 V
6 0 V
6 0 V
6 0 V
6 0 V
5 0 V
6 0 V
6 0 V
6 0 V
6 0 V
6 0 V
5 0 V
6 0 V
6 0 V
6 0 V
6 0 V
6 0 V
5 0 V
6 0 V
6 0 V
6 0 V
6 0 V
6 0 V
5 0 V
6 0 V
6 0 V
6 0 V
6 0 V
6 0 V
5 0 V
6 0 V
6 0 V
6 0 V
6 0 V
6 0 V
5 0 V
6 0 V
6 0 V
6 0 V
6 0 V
6 0 V
5 0 V
6 0 V
6 0 V
6 0 V
6 0 V
6 0 V
5 0 V
6 0 V
6 0 V
6 0 V
6 0 V
stroke 2912 576 M
6 0 V
5 0 V
6 0 V
6 0 V
6 0 V
6 0 V
6 0 V
5 0 V
6 0 V
6 0 V
6 0 V
6 0 V
6 0 V
5 0 V
6 0 V
6 0 V
6 0 V
6 0 V
6 0 V
5 0 V
6 0 V
6 0 V
6 0 V
6 0 V
6 0 V
5 0 V
6 0 V
6 0 V
6 0 V
6 0 V
6 0 V
5 0 V
6 0 V
6 0 V
6 0 V
6 0 V
6 0 V
5 0 V
6 0 V
6 0 V
6 0 V
6 0 V
6 0 V
5 0 V
6 0 V
6 0 V
6 0 V
6 0 V
6 0 V
5 0 V
6 0 V
6 0 V
6 0 V
6 0 V
6 0 V
5 0 V
6 0 V
6 0 V
6 0 V
6 0 V
6 0 V
5 0 V
6 0 V
6 0 V
6 0 V
6 0 V
5 0 V
6 0 V
6 0 V
6 0 V
6 0 V
6 0 V
5 0 V
6 0 V
6 0 V
6 0 V
6 0 V
6 0 V
5 0 V
6 0 V
6 0 V
6 0 V
6 0 V
6 0 V
5 0 V
6 0 V
6 0 V
6 0 V
6 0 V
6 0 V
5 0 V
6 0 V
6 0 V
6 0 V
6 0 V
6 0 V
5 0 V
6 0 V
6 0 V
6 0 V
6 0 V
6 0 V
5 0 V
6 0 V
stroke 3518 576 M
6 0 V
6 0 V
6 0 V
6 0 V
5 0 V
6 0 V
6 0 V
6 0 V
6 0 V
6 0 V
5 0 V
6 0 V
6 0 V
6 0 V
6 0 V
6 0 V
5 0 V
6 0 V
6 0 V
6 0 V
6 0 V
6 0 V
5 0 V
6 0 V
6 0 V
6 0 V
6 0 V
6 0 V
5 0 V
6 0 V
6 0 V
6 0 V
6 0 V
6 0 V
5 0 V
6 0 V
6 0 V
6 0 V
6 0 V
6 0 V
5 0 V
6 0 V
6 0 V
6 0 V
6 0 V
6 0 V
5 0 V
6 0 V
6 0 V
6 0 V
6 0 V
6 0 V
5 0 V
6 0 V
6 0 V
6 0 V
6 0 V
6 0 V
5 0 V
6 0 V
6 0 V
6 0 V
6 0 V
6 0 V
5 0 V
6 0 V
6 0 V
6 0 V
6 0 V
6 0 V
5 0 V
6 0 V
6 0 V
6 0 V
6 0 V
6 0 V
5 0 V
6 0 V
6 0 V
6 0 V
6 0 V
6 0 V
5 0 V
6 0 V
6 0 V
6 0 V
6 0 V
5 0 V
6 0 V
6 0 V
6 0 V
6 0 V
6 0 V
5 0 V
6 0 V
6 0 V
6 0 V
6 0 V
6 0 V
5 0 V
6 0 V
6 0 V
6 0 V
6 0 V
stroke 4125 576 M
6 0 V
5 0 V
6 0 V
6 0 V
6 0 V
6 0 V
6 0 V
5 0 V
6 0 V
6 0 V
6 0 V
6 0 V
6 0 V
5 0 V
6 0 V
6 0 V
6 0 V
6 0 V
6 0 V
5 0 V
6 0 V
6 0 V
6 0 V
6 0 V
6 0 V
5 0 V
6 0 V
6 0 V
6 0 V
6 0 V
6 0 V
5 0 V
6 0 V
6 0 V
6 0 V
6 0 V
6 0 V
5 0 V
6 0 V
6 0 V
6 0 V
6 0 V
6 0 V
5 0 V
6 0 V
6 0 V
6 0 V
6 0 V
6 0 V
5 0 V
6 0 V
6 0 V
6 0 V
6 0 V
6 0 V
5 0 V
6 0 V
6 0 V
6 0 V
6 0 V
6 0 V
5 0 V
6 0 V
6 0 V
6 0 V
6 0 V
6 0 V
5 0 V
6 0 V
6 0 V
6 0 V
6 0 V
6 0 V
5 0 V
6 0 V
6 0 V
6 0 V
6 0 V
6 0 V
5 0 V
6 0 V
6 0 V
6 0 V
6 0 V
6 0 V
5 0 V
6 0 V
6 0 V
6 0 V
6 0 V
6 0 V
5 0 V
6 0 V
6 0 V
6 0 V
6 0 V
6 0 V
5 0 V
6 0 V
6 0 V
6 0 V
6 0 V
6 0 V
5 0 V
stroke 4731 576 M
6 0 V
6 0 V
6 0 V
6 0 V
5 0 V
6 0 V
6 0 V
6 0 V
6 0 V
6 0 V
5 0 V
6 0 V
6 0 V
6 0 V
6 0 V
6 0 V
5 0 V
6 0 V
6 0 V
6 0 V
6 0 V
6 0 V
5 0 V
6 0 V
6 0 V
6 0 V
6 0 V
6 0 V
5 0 V
6 0 V
6 0 V
6 0 V
6 0 V
6 0 V
5 0 V
6 0 V
6 0 V
6 0 V
6 0 V
6 0 V
5 0 V
6 0 V
6 0 V
6 0 V
6 0 V
6 0 V
5 0 V
6 0 V
6 0 V
6 0 V
6 0 V
6 0 V
5 0 V
6 0 V
6 0 V
6 0 V
6 0 V
6 0 V
5 0 V
6 0 V
6 0 V
6 0 V
6 0 V
6 0 V
5 0 V
6 0 V
6 0 V
6 0 V
6 0 V
6 0 V
5 0 V
6 0 V
6 0 V
6 0 V
6 0 V
6 0 V
5 0 V
6 0 V
6 0 V
6 0 V
6 0 V
6 0 V
5 0 V
6 0 V
6 0 V
6 0 V
6 0 V
6 0 V
5 0 V
6 0 V
6 0 V
6 0 V
6 0 V
6 0 V
5 0 V
6 0 V
6 0 V
6 0 V
6 0 V
6 0 V
5 0 V
6 0 V
6 0 V
6 0 V
stroke 5338 576 M
6 0 V
6 0 V
5 0 V
6 0 V
6 0 V
6 0 V
6 0 V
6 0 V
5 0 V
6 0 V
6 0 V
6 0 V
6 0 V
6 0 V
5 0 V
6 0 V
6 0 V
6 0 V
6 0 V
6 0 V
5 0 V
6 0 V
6 0 V
6 0 V
6 0 V
5 0 V
6 0 V
6 0 V
6 0 V
6 0 V
6 0 V
5 0 V
6 0 V
6 0 V
6 0 V
6 0 V
6 0 V
5 0 V
6 0 V
6 0 V
6 0 V
6 0 V
6 0 V
5 0 V
6 0 V
6 0 V
6 0 V
6 0 V
6 0 V
5 0 V
6 0 V
6 0 V
6 0 V
6 0 V
6 0 V
5 0 V
6 0 V
6 0 V
6 0 V
6 0 V
6 0 V
5 0 V
6 0 V
6 0 V
6 0 V
6 0 V
6 0 V
5 0 V
6 0 V
6 0 V
6 0 V
6 0 V
6 0 V
5 0 V
6 0 V
6 0 V
6 0 V
6 0 V
6 0 V
5 0 V
6 0 V
6 0 V
6 0 V
6 0 V
6 0 V
5 0 V
6 0 V
6 0 V
6 0 V
6 0 V
6 0 V
5 0 V
6 0 V
6 0 V
6 0 V
6 0 V
6 0 V
5 0 V
6 0 V
6 0 V
6 0 V
6 0 V
6 0 V
5 0 V
stroke 5944 576 M
6 0 V
6 0 V
6 0 V
6 0 V
6 0 V
5 0 V
6 0 V
6 0 V
6 0 V
6 0 V
6 0 V
5 0 V
6 0 V
6 0 V
6 0 V
6 0 V
6 0 V
5 0 V
6 0 V
6 0 V
6 0 V
6 0 V
6 0 V
5 0 V
6 0 V
6 0 V
6 0 V
6 0 V
6 0 V
5 0 V
6 0 V
6 0 V
6 0 V
6 0 V
6 0 V
5 0 V
6 0 V
6 0 V
6 0 V
6 0 V
6 0 V
5 0 V
6 0 V
6 0 V
6 0 V
6 0 V
5 0 V
6 0 V
6 0 V
6 0 V
6 0 V
6 0 V
5 0 V
6 0 V
6 0 V
6 0 V
6 0 V
6 0 V
5 0 V
6 0 V
6 0 V
6 0 V
6 0 V
6 0 V
5 0 V
6 0 V
6 0 V
6 0 V
6 0 V
6 0 V
5 0 V
6 0 V
6 0 V
6 0 V
6 0 V
6 0 V
5 0 V
6 0 V
6 0 V
6 0 V
6 0 V
6 0 V
5 0 V
6 0 V
6 0 V
6 0 V
6 0 V
6 0 V
5 0 V
6 0 V
6 0 V
6 0 V
6 0 V
6 0 V
5 0 V
6 0 V
6 0 V
6 0 V
6 0 V
6 0 V
5 0 V
6 0 V
6 0 V
6 0 V
stroke 6551 576 M
6 0 V
6 0 V
5 0 V
6 0 V
6 0 V
6 0 V
6 0 V
6 0 V
5 0 V
6 0 V
6 0 V
6 0 V
6 0 V
6 0 V
5 0 V
6 0 V
6 0 V
6 0 V
6 0 V
6 0 V
5 0 V
6 0 V
6 0 V
6 0 V
6 0 V
6 0 V
5 0 V
6 0 V
6 0 V
6 0 V
6 0 V
6 0 V
5 0 V
6 0 V
6 0 V
6 0 V
6 0 V
6 0 V
5 0 V
6 0 V
6 0 V
6 0 V
6 0 V
6 0 V
5 0 V
6 0 V
6 0 V
6 0 V
6 0 V
6 0 V
5 0 V
6 0 V
6 0 V
6 0 V
6 0 V
6 0 V
5 0 V
6 0 V
6 0 V
6 0 V
6 0 V
6 0 V
5 0 V
6 0 V
6 0 V
stroke
LT0
LTb
6111 3051 M
[ [(arial) 180.0 0.0 true true 0 (6.5656)]
] -60.0 MRshow
LT0
6219 3051 M
495 0 V
1104 4824 M
6 -165 V
5 -120 V
6 -95 V
6 -80 V
6 -71 V
6 -62 V
6 -56 V
5 -51 V
6 -47 V
6 -44 V
6 -42 V
6 -39 V
6 -37 V
5 -34 V
6 -34 V
6 -31 V
6 -31 V
6 -29 V
6 -29 V
5 -27 V
6 -28 V
6 -26 V
6 -25 V
6 -25 V
6 -24 V
5 -24 V
6 -23 V
6 -23 V
6 -22 V
6 -22 V
6 -21 V
5 -21 V
6 -20 V
6 -20 V
6 -19 V
6 -19 V
6 -19 V
5 -18 V
6 -19 V
6 -17 V
6 -18 V
6 -18 V
6 -17 V
5 -16 V
6 -17 V
6 -16 V
6 -16 V
6 -16 V
6 -16 V
5 -15 V
6 -15 V
6 -15 V
6 -15 V
6 -14 V
6 -15 V
5 -14 V
6 -13 V
6 -14 V
6 -14 V
6 -13 V
6 -13 V
5 -13 V
6 -13 V
6 -13 V
6 -13 V
6 -12 V
6 -13 V
5 -12 V
6 -12 V
6 -12 V
6 -12 V
6 -12 V
6 -12 V
5 -11 V
6 -12 V
6 -11 V
6 -12 V
6 -11 V
6 -11 V
5 -11 V
6 -11 V
6 -11 V
6 -10 V
6 -10 V
6 -11 V
5 -9 V
6 -10 V
6 -10 V
6 -10 V
6 -9 V
6 -10 V
5 -10 V
6 -9 V
6 -9 V
6 -9 V
6 -10 V
6 -9 V
5 -8 V
6 -10 V
6 -8 V
6 -9 V
6 -9 V
stroke 1699 2506 M
6 -9 V
5 -8 V
6 -9 V
6 -8 V
6 -9 V
6 -8 V
6 -8 V
5 -8 V
6 -9 V
6 -8 V
6 -8 V
6 -8 V
6 -8 V
5 -8 V
6 -7 V
6 -8 V
6 -8 V
6 -8 V
6 -7 V
5 -8 V
6 -8 V
6 -7 V
6 -7 V
6 -8 V
5 -7 V
6 -8 V
6 -7 V
6 -7 V
6 -8 V
6 -7 V
5 -7 V
6 -7 V
6 -8 V
6 -6 V
6 -8 V
6 -7 V
5 -7 V
6 -7 V
6 -7 V
6 -6 V
6 -7 V
6 -7 V
5 -6 V
6 -7 V
6 -7 V
6 -6 V
6 -6 V
6 -7 V
5 -6 V
6 -6 V
6 -6 V
6 -7 V
6 -6 V
6 -6 V
5 -6 V
6 -6 V
6 -6 V
6 -6 V
6 -6 V
6 -6 V
5 -5 V
6 -6 V
6 -6 V
6 -6 V
6 -6 V
6 -5 V
5 -6 V
6 -6 V
6 -6 V
6 -5 V
6 -6 V
6 -5 V
5 -6 V
6 -5 V
6 -5 V
6 -6 V
6 -5 V
6 -5 V
5 -5 V
6 -5 V
6 -5 V
6 -5 V
6 -5 V
6 -6 V
5 -5 V
6 -5 V
6 -5 V
6 -5 V
6 -5 V
6 -5 V
5 -4 V
6 -5 V
6 -5 V
6 -5 V
6 -5 V
6 -5 V
5 -4 V
6 -5 V
6 -5 V
6 -4 V
6 -5 V
6 -5 V
5 -4 V
6 -5 V
stroke 2305 1847 M
6 -4 V
6 -5 V
6 -5 V
6 -4 V
5 -5 V
6 -4 V
6 -5 V
6 -4 V
6 -5 V
6 -4 V
5 -4 V
6 -5 V
6 -4 V
6 -5 V
6 -4 V
6 -4 V
5 -5 V
6 -4 V
6 -5 V
6 -4 V
6 -4 V
6 -4 V
5 -5 V
6 -4 V
6 -4 V
6 -5 V
6 -4 V
6 -4 V
5 -4 V
6 -4 V
6 -5 V
6 -4 V
6 -4 V
6 -4 V
5 -4 V
6 -4 V
6 -4 V
6 -4 V
6 -4 V
6 -4 V
5 -4 V
6 -4 V
6 -4 V
6 -4 V
6 -4 V
5 -4 V
6 -4 V
6 -4 V
6 -4 V
6 -4 V
6 -4 V
5 -4 V
6 -3 V
6 -4 V
6 -4 V
6 -3 V
6 -4 V
5 -4 V
6 -4 V
6 -4 V
6 -4 V
6 -3 V
6 -4 V
5 -4 V
6 -3 V
6 -4 V
6 -4 V
6 -3 V
6 -4 V
5 -3 V
6 -4 V
6 -4 V
6 -3 V
6 -3 V
6 -4 V
5 -3 V
6 -4 V
6 -3 V
6 -3 V
6 -4 V
6 -3 V
5 -4 V
6 -3 V
6 -3 V
6 -4 V
6 -3 V
6 -4 V
5 -3 V
6 -3 V
6 -3 V
6 -4 V
6 -3 V
6 -3 V
5 -3 V
6 -4 V
6 -3 V
6 -3 V
6 -4 V
6 -3 V
5 -3 V
6 -3 V
6 -3 V
6 -3 V
6 -3 V
stroke 2912 1448 M
6 -4 V
5 -3 V
6 -3 V
6 -3 V
6 -3 V
6 -3 V
6 -3 V
5 -3 V
6 -3 V
6 -3 V
6 -3 V
6 -4 V
6 -3 V
5 -3 V
6 -3 V
6 -3 V
6 -2 V
6 -3 V
6 -3 V
5 -3 V
6 -3 V
6 -3 V
6 -3 V
6 -3 V
6 -2 V
5 -3 V
6 -3 V
6 -3 V
6 -3 V
6 -3 V
6 -2 V
5 -3 V
6 -3 V
6 -3 V
6 -3 V
6 -3 V
6 -2 V
5 -3 V
6 -3 V
6 -3 V
6 -2 V
6 -3 V
6 -3 V
5 -3 V
6 -2 V
6 -3 V
6 -3 V
6 -2 V
6 -3 V
5 -3 V
6 -3 V
6 -2 V
6 -3 V
6 -3 V
6 -2 V
5 -3 V
6 -3 V
6 -2 V
6 -3 V
6 -3 V
6 -2 V
5 -3 V
6 -3 V
6 -2 V
6 -3 V
6 -2 V
5 -3 V
6 -2 V
6 -3 V
6 -3 V
6 -2 V
6 -3 V
5 -2 V
6 -3 V
6 -3 V
6 -2 V
6 -3 V
6 -2 V
5 -3 V
6 -2 V
6 -3 V
6 -2 V
6 -3 V
6 -3 V
5 -2 V
6 -3 V
6 -2 V
6 -2 V
6 -3 V
6 -2 V
5 -3 V
6 -2 V
6 -3 V
6 -2 V
6 -2 V
6 -3 V
5 -2 V
6 -3 V
6 -2 V
6 -2 V
6 -3 V
6 -2 V
5 -2 V
6 -3 V
stroke 3518 1166 M
6 -2 V
6 -3 V
6 -2 V
6 -2 V
5 -2 V
6 -3 V
6 -2 V
6 -2 V
6 -3 V
6 -2 V
5 -2 V
6 -2 V
6 -3 V
6 -2 V
6 -2 V
6 -2 V
5 -3 V
6 -2 V
6 -2 V
6 -2 V
6 -2 V
6 -2 V
5 -2 V
6 -2 V
6 -3 V
6 -2 V
6 -1 V
6 -3 V
5 -2 V
6 -1 V
6 -2 V
6 -3 V
6 -1 V
6 -2 V
5 -3 V
6 -1 V
6 -2 V
6 -3 V
6 -1 V
6 -2 V
5 -2 V
6 -2 V
6 -2 V
6 -2 V
6 -2 V
6 -2 V
5 -2 V
6 -2 V
6 -1 V
6 -2 V
6 -2 V
6 -2 V
5 -2 V
6 -1 V
6 -2 V
6 -2 V
6 -2 V
6 -1 V
5 -2 V
6 -2 V
6 -2 V
6 -1 V
6 -2 V
6 -2 V
5 -1 V
6 -2 V
6 -2 V
6 -1 V
6 -2 V
6 -1 V
5 -2 V
6 -2 V
6 -1 V
6 -2 V
6 -2 V
6 -1 V
5 -1 V
6 -2 V
6 -1 V
6 -2 V
6 -1 V
6 -2 V
5 -1 V
6 -2 V
6 -2 V
6 -1 V
6 -2 V
5 -1 V
6 -2 V
6 -1 V
6 -2 V
6 -1 V
6 -2 V
5 -1 V
6 -2 V
6 -1 V
6 -2 V
6 -1 V
6 -2 V
5 -1 V
6 -2 V
6 -1 V
6 -1 V
6 -2 V
stroke 4125 976 M
6 -1 V
5 -1 V
6 -2 V
6 -1 V
6 -2 V
6 -1 V
6 -1 V
5 -1 V
6 -2 V
6 -1 V
6 -1 V
6 -2 V
6 -1 V
5 -1 V
6 -1 V
6 -2 V
6 -1 V
6 -1 V
6 -1 V
5 -1 V
6 -2 V
6 -1 V
6 -1 V
6 -1 V
6 -1 V
5 -2 V
6 0 V
6 -2 V
6 -1 V
6 -1 V
6 -1 V
5 -1 V
6 -1 V
6 -1 V
6 -2 V
6 -1 V
6 -1 V
5 -1 V
6 -1 V
6 -1 V
6 -1 V
6 -1 V
6 -2 V
5 -1 V
6 -1 V
6 -1 V
6 -1 V
6 -1 V
6 -1 V
5 -1 V
6 -2 V
6 0 V
6 -2 V
6 -1 V
6 -1 V
5 -1 V
6 -1 V
6 -1 V
6 -1 V
6 -1 V
6 -1 V
5 -1 V
6 -1 V
6 -2 V
6 0 V
6 -2 V
6 -1 V
5 -1 V
6 -1 V
6 -1 V
6 -1 V
6 -1 V
6 -1 V
5 -1 V
6 -1 V
6 -1 V
6 -2 V
6 0 V
6 -2 V
5 -1 V
6 -1 V
6 -1 V
6 -1 V
6 -1 V
6 -1 V
5 -1 V
6 -1 V
6 -1 V
6 -1 V
6 -1 V
6 -1 V
5 -1 V
6 -1 V
6 -1 V
6 -1 V
6 -1 V
6 -1 V
5 -1 V
6 -2 V
6 0 V
6 -2 V
6 -1 V
6 0 V
5 -2 V
stroke 4731 859 M
6 -1 V
6 -1 V
6 -1 V
6 -1 V
5 -1 V
6 -1 V
6 -1 V
6 -1 V
6 -1 V
6 -1 V
5 -1 V
6 -1 V
6 -1 V
6 -1 V
6 -1 V
6 -1 V
5 -1 V
6 -1 V
6 -1 V
6 -1 V
6 -1 V
6 -1 V
5 -1 V
6 -1 V
6 -2 V
6 0 V
6 -1 V
6 -2 V
5 0 V
6 -2 V
6 -1 V
6 -1 V
6 -1 V
6 0 V
5 -2 V
6 -1 V
6 -1 V
6 -1 V
6 -1 V
6 -1 V
5 -1 V
6 -1 V
6 -1 V
6 -1 V
6 -1 V
6 -1 V
5 -1 V
6 -1 V
6 -1 V
6 -1 V
6 -1 V
6 -1 V
5 -1 V
6 -1 V
6 -1 V
6 -1 V
6 -1 V
6 -2 V
5 0 V
6 -1 V
6 -2 V
6 0 V
6 -2 V
6 -1 V
5 -1 V
6 -1 V
6 0 V
6 -2 V
6 -1 V
6 -1 V
5 -1 V
6 -1 V
6 -1 V
6 -1 V
6 -1 V
6 -1 V
5 -1 V
6 -1 V
6 -1 V
6 -1 V
6 -1 V
6 -1 V
5 -1 V
6 -1 V
6 -1 V
6 -1 V
6 -1 V
6 -1 V
5 -1 V
6 -1 V
6 -1 V
6 -1 V
6 -1 V
6 -1 V
5 -1 V
6 -1 V
6 -1 V
6 -1 V
6 -1 V
6 -1 V
5 -1 V
6 -1 V
6 -1 V
6 0 V
stroke 5338 754 M
6 -2 V
6 -1 V
5 0 V
6 -1 V
6 -1 V
6 -1 V
6 -1 V
6 -1 V
5 -1 V
6 -1 V
6 -1 V
6 -1 V
6 -1 V
6 -1 V
5 -1 V
6 -1 V
6 -1 V
6 0 V
6 -1 V
6 -1 V
5 -1 V
6 -1 V
6 -1 V
6 -1 V
6 -1 V
5 -1 V
6 0 V
6 -1 V
6 -1 V
6 -1 V
6 -1 V
5 -1 V
6 -1 V
6 0 V
6 -1 V
6 -1 V
6 -1 V
5 -1 V
6 -1 V
6 -1 V
6 0 V
6 -1 V
6 -1 V
5 -1 V
6 -1 V
6 -1 V
6 0 V
6 -1 V
6 -1 V
5 -1 V
6 -1 V
6 -1 V
6 -1 V
6 0 V
6 -1 V
5 -1 V
6 -1 V
6 0 V
6 -1 V
6 -1 V
6 -1 V
5 -1 V
6 -1 V
6 -1 V
6 0 V
6 -1 V
6 -1 V
5 0 V
6 -1 V
6 -1 V
6 -1 V
6 0 V
6 -1 V
5 -1 V
6 -1 V
6 0 V
6 -1 V
6 -1 V
6 -1 V
5 0 V
6 -1 V
6 -1 V
6 -1 V
6 0 V
6 -1 V
5 -1 V
6 0 V
6 -1 V
6 -1 V
6 -1 V
6 0 V
5 -1 V
6 -1 V
6 -1 V
6 0 V
6 -1 V
6 -1 V
5 -1 V
6 0 V
6 -1 V
6 -1 V
6 -1 V
6 0 V
5 -1 V
stroke 5944 668 M
6 -1 V
6 0 V
6 -1 V
6 -1 V
6 0 V
5 -1 V
6 0 V
6 -1 V
6 -1 V
6 -1 V
6 0 V
5 -1 V
6 -1 V
6 -1 V
6 0 V
6 -1 V
6 -1 V
5 0 V
6 -1 V
6 0 V
6 -1 V
6 -1 V
6 -1 V
5 0 V
6 -1 V
6 -1 V
6 -1 V
6 0 V
6 -1 V
5 -1 V
6 0 V
6 -1 V
6 0 V
6 -1 V
6 -1 V
5 0 V
6 -1 V
6 -1 V
6 -1 V
6 0 V
6 -1 V
5 -1 V
6 -1 V
6 0 V
6 -1 V
6 0 V
5 -1 V
6 -1 V
6 0 V
6 -1 V
6 -1 V
6 0 V
5 -1 V
6 0 V
6 -1 V
6 -1 V
6 0 V
6 -1 V
5 0 V
6 -1 V
6 -1 V
6 0 V
6 -1 V
6 -1 V
5 0 V
6 -1 V
6 0 V
6 -1 V
6 -1 V
6 0 V
5 -1 V
6 0 V
6 -1 V
6 -1 V
6 0 V
6 -1 V
5 0 V
6 -1 V
6 -1 V
6 0 V
6 0 V
6 -1 V
5 -1 V
6 0 V
6 -1 V
6 0 V
6 -1 V
6 -1 V
5 0 V
6 -1 V
6 0 V
6 0 V
6 -1 V
6 -1 V
5 0 V
6 -1 V
6 0 V
6 0 V
6 -1 V
6 -1 V
5 0 V
6 -1 V
6 0 V
6 0 V
stroke 6551 604 M
6 -1 V
6 0 V
5 -1 V
6 0 V
6 -1 V
6 0 V
6 0 V
6 -1 V
5 0 V
6 -1 V
6 0 V
6 0 V
6 -1 V
6 0 V
5 -1 V
6 0 V
6 -1 V
6 0 V
6 0 V
6 -1 V
5 0 V
6 -1 V
6 0 V
6 -1 V
6 0 V
6 0 V
5 -1 V
6 0 V
6 -1 V
6 0 V
6 -1 V
6 0 V
5 0 V
6 -1 V
6 0 V
6 -1 V
6 0 V
6 -1 V
5 0 V
6 0 V
6 -1 V
6 0 V
6 -1 V
6 0 V
5 -1 V
6 0 V
6 -1 V
6 0 V
6 -1 V
6 0 V
5 0 V
6 -1 V
6 0 V
6 -1 V
6 0 V
6 -1 V
5 0 V
6 0 V
6 -1 V
6 0 V
6 0 V
6 -1 V
5 0 V
6 -1 V
6 0 V
stroke
1.000 UL
LTb
1098 4824 N
0 -4248 V
5832 0 V
0 4248 V
-5832 0 V
Z stroke
1.000 UP
1.000 UL
LTb
stroke
grestore
end
showpage
%%Trailer
%%DocumentFonts: arial
