%!PS-Adobe-2.0 EPSF-2.0
%%Title: ZDF.eps
%%Creator: gnuplot 4.2 patchlevel 6 
%%CreationDate: Tue Jul 19 16:41:15 2016
%%DocumentFonts: (atend)
%%BoundingBox: 50 50 410 302
%%EndComments
%%BeginProlog
/gnudict 256 dict def
gnudict begin
%
% The following 6 true/false flags may be edited by hand if required
% The unit line width may also be changed
%
/Color true def
/Blacktext false def
/Solid false def
/Dashlength 1 def
/Landscape false def
/Level1 false def
/Rounded false def
/TransparentPatterns false def
/gnulinewidth 5.000 def
/userlinewidth gnulinewidth def
%
/vshift -40 def
/dl1 {
  10.0 Dashlength mul mul
  Rounded { currentlinewidth 0.75 mul sub dup 0 le { pop 0.01 } if } if
} def
/dl2 {
  10.0 Dashlength mul mul
  Rounded { currentlinewidth 0.75 mul add } if
} def
/hpt_ 31.5 def
/vpt_ 31.5 def
/hpt hpt_ def
/vpt vpt_ def
Level1 {} {
/SDict 10 dict def
systemdict /pdfmark known not {
  userdict /pdfmark systemdict /cleartomark get put
} if
SDict begin [
  /Title (ZDF.eps)
  /Subject (gnuplot plot)
  /Creator (gnuplot 4.2 patchlevel 6 )
  /Author (Marcos F. Calegari Andrade,Chemistry,Annabella Selloni)
%  /Producer (gnuplot)
%  /Keywords ()
  /CreationDate (Tue Jul 19 16:41:15 2016)
  /DOCINFO pdfmark
end
} ifelse
%
% Gnuplot Prolog Version 4.2 (August 2006)
%
/M {moveto} bind def
/L {lineto} bind def
/R {rmoveto} bind def
/V {rlineto} bind def
/N {newpath moveto} bind def
/Z {closepath} bind def
/C {setrgbcolor} bind def
/f {rlineto fill} bind def
/vpt2 vpt 2 mul def
/hpt2 hpt 2 mul def
/Lshow {currentpoint stroke M 0 vshift R 
	Blacktext {gsave 0 setgray show grestore} {show} ifelse} def
/Rshow {currentpoint stroke M dup stringwidth pop neg vshift R
	Blacktext {gsave 0 setgray show grestore} {show} ifelse} def
/Cshow {currentpoint stroke M dup stringwidth pop -2 div vshift R 
	Blacktext {gsave 0 setgray show grestore} {show} ifelse} def
/UP {dup vpt_ mul /vpt exch def hpt_ mul /hpt exch def
  /hpt2 hpt 2 mul def /vpt2 vpt 2 mul def} def
/DL {Color {setrgbcolor Solid {pop []} if 0 setdash}
 {pop pop pop 0 setgray Solid {pop []} if 0 setdash} ifelse} def
/BL {stroke userlinewidth 2 mul setlinewidth
	Rounded {1 setlinejoin 1 setlinecap} if} def
/AL {stroke userlinewidth 2 div setlinewidth
	Rounded {1 setlinejoin 1 setlinecap} if} def
/UL {dup gnulinewidth mul /userlinewidth exch def
	dup 1 lt {pop 1} if 10 mul /udl exch def} def
/PL {stroke userlinewidth setlinewidth
	Rounded {1 setlinejoin 1 setlinecap} if} def
% Default Line colors
/LCw {1 1 1} def
/LCb {0 0 0} def
/LCa {0 0 0} def
/LC0 {1 0 0} def
/LC1 {0 1 0} def
/LC2 {0 0 1} def
/LC3 {1 0 1} def
/LC4 {0 1 1} def
/LC5 {1 1 0} def
/LC6 {0 0 0} def
/LC7 {1 0.3 0} def
/LC8 {0.5 0.5 0.5} def
% Default Line Types
/LTw {PL [] 1 setgray} def
/LTb {BL [] LCb DL} def
/LTa {AL [1 udl mul 2 udl mul] 0 setdash LCa setrgbcolor} def
/LT0 {PL [] LC0 DL} def
/LT1 {PL [4 dl1 2 dl2] LC1 DL} def
/LT2 {PL [2 dl1 3 dl2] LC2 DL} def
/LT3 {PL [1 dl1 1.5 dl2] LC3 DL} def
/LT4 {PL [6 dl1 2 dl2 1 dl1 2 dl2] LC4 DL} def
/LT5 {PL [3 dl1 3 dl2 1 dl1 3 dl2] LC5 DL} def
/LT6 {PL [2 dl1 2 dl2 2 dl1 6 dl2] LC6 DL} def
/LT7 {PL [1 dl1 2 dl2 6 dl1 2 dl2 1 dl1 2 dl2] LC7 DL} def
/LT8 {PL [2 dl1 2 dl2 2 dl1 2 dl2 2 dl1 2 dl2 2 dl1 4 dl2] LC8 DL} def
/Pnt {stroke [] 0 setdash gsave 1 setlinecap M 0 0 V stroke grestore} def
/Dia {stroke [] 0 setdash 2 copy vpt add M
  hpt neg vpt neg V hpt vpt neg V
  hpt vpt V hpt neg vpt V closepath stroke
  Pnt} def
/Pls {stroke [] 0 setdash vpt sub M 0 vpt2 V
  currentpoint stroke M
  hpt neg vpt neg R hpt2 0 V stroke
 } def
/Box {stroke [] 0 setdash 2 copy exch hpt sub exch vpt add M
  0 vpt2 neg V hpt2 0 V 0 vpt2 V
  hpt2 neg 0 V closepath stroke
  Pnt} def
/Crs {stroke [] 0 setdash exch hpt sub exch vpt add M
  hpt2 vpt2 neg V currentpoint stroke M
  hpt2 neg 0 R hpt2 vpt2 V stroke} def
/TriU {stroke [] 0 setdash 2 copy vpt 1.12 mul add M
  hpt neg vpt -1.62 mul V
  hpt 2 mul 0 V
  hpt neg vpt 1.62 mul V closepath stroke
  Pnt} def
/Star {2 copy Pls Crs} def
/BoxF {stroke [] 0 setdash exch hpt sub exch vpt add M
  0 vpt2 neg V hpt2 0 V 0 vpt2 V
  hpt2 neg 0 V closepath fill} def
/TriUF {stroke [] 0 setdash vpt 1.12 mul add M
  hpt neg vpt -1.62 mul V
  hpt 2 mul 0 V
  hpt neg vpt 1.62 mul V closepath fill} def
/TriD {stroke [] 0 setdash 2 copy vpt 1.12 mul sub M
  hpt neg vpt 1.62 mul V
  hpt 2 mul 0 V
  hpt neg vpt -1.62 mul V closepath stroke
  Pnt} def
/TriDF {stroke [] 0 setdash vpt 1.12 mul sub M
  hpt neg vpt 1.62 mul V
  hpt 2 mul 0 V
  hpt neg vpt -1.62 mul V closepath fill} def
/DiaF {stroke [] 0 setdash vpt add M
  hpt neg vpt neg V hpt vpt neg V
  hpt vpt V hpt neg vpt V closepath fill} def
/Pent {stroke [] 0 setdash 2 copy gsave
  translate 0 hpt M 4 {72 rotate 0 hpt L} repeat
  closepath stroke grestore Pnt} def
/PentF {stroke [] 0 setdash gsave
  translate 0 hpt M 4 {72 rotate 0 hpt L} repeat
  closepath fill grestore} def
/Circle {stroke [] 0 setdash 2 copy
  hpt 0 360 arc stroke Pnt} def
/CircleF {stroke [] 0 setdash hpt 0 360 arc fill} def
/C0 {BL [] 0 setdash 2 copy moveto vpt 90 450 arc} bind def
/C1 {BL [] 0 setdash 2 copy moveto
	2 copy vpt 0 90 arc closepath fill
	vpt 0 360 arc closepath} bind def
/C2 {BL [] 0 setdash 2 copy moveto
	2 copy vpt 90 180 arc closepath fill
	vpt 0 360 arc closepath} bind def
/C3 {BL [] 0 setdash 2 copy moveto
	2 copy vpt 0 180 arc closepath fill
	vpt 0 360 arc closepath} bind def
/C4 {BL [] 0 setdash 2 copy moveto
	2 copy vpt 180 270 arc closepath fill
	vpt 0 360 arc closepath} bind def
/C5 {BL [] 0 setdash 2 copy moveto
	2 copy vpt 0 90 arc
	2 copy moveto
	2 copy vpt 180 270 arc closepath fill
	vpt 0 360 arc} bind def
/C6 {BL [] 0 setdash 2 copy moveto
	2 copy vpt 90 270 arc closepath fill
	vpt 0 360 arc closepath} bind def
/C7 {BL [] 0 setdash 2 copy moveto
	2 copy vpt 0 270 arc closepath fill
	vpt 0 360 arc closepath} bind def
/C8 {BL [] 0 setdash 2 copy moveto
	2 copy vpt 270 360 arc closepath fill
	vpt 0 360 arc closepath} bind def
/C9 {BL [] 0 setdash 2 copy moveto
	2 copy vpt 270 450 arc closepath fill
	vpt 0 360 arc closepath} bind def
/C10 {BL [] 0 setdash 2 copy 2 copy moveto vpt 270 360 arc closepath fill
	2 copy moveto
	2 copy vpt 90 180 arc closepath fill
	vpt 0 360 arc closepath} bind def
/C11 {BL [] 0 setdash 2 copy moveto
	2 copy vpt 0 180 arc closepath fill
	2 copy moveto
	2 copy vpt 270 360 arc closepath fill
	vpt 0 360 arc closepath} bind def
/C12 {BL [] 0 setdash 2 copy moveto
	2 copy vpt 180 360 arc closepath fill
	vpt 0 360 arc closepath} bind def
/C13 {BL [] 0 setdash 2 copy moveto
	2 copy vpt 0 90 arc closepath fill
	2 copy moveto
	2 copy vpt 180 360 arc closepath fill
	vpt 0 360 arc closepath} bind def
/C14 {BL [] 0 setdash 2 copy moveto
	2 copy vpt 90 360 arc closepath fill
	vpt 0 360 arc} bind def
/C15 {BL [] 0 setdash 2 copy vpt 0 360 arc closepath fill
	vpt 0 360 arc closepath} bind def
/Rec {newpath 4 2 roll moveto 1 index 0 rlineto 0 exch rlineto
	neg 0 rlineto closepath} bind def
/Square {dup Rec} bind def
/Bsquare {vpt sub exch vpt sub exch vpt2 Square} bind def
/S0 {BL [] 0 setdash 2 copy moveto 0 vpt rlineto BL Bsquare} bind def
/S1 {BL [] 0 setdash 2 copy vpt Square fill Bsquare} bind def
/S2 {BL [] 0 setdash 2 copy exch vpt sub exch vpt Square fill Bsquare} bind def
/S3 {BL [] 0 setdash 2 copy exch vpt sub exch vpt2 vpt Rec fill Bsquare} bind def
/S4 {BL [] 0 setdash 2 copy exch vpt sub exch vpt sub vpt Square fill Bsquare} bind def
/S5 {BL [] 0 setdash 2 copy 2 copy vpt Square fill
	exch vpt sub exch vpt sub vpt Square fill Bsquare} bind def
/S6 {BL [] 0 setdash 2 copy exch vpt sub exch vpt sub vpt vpt2 Rec fill Bsquare} bind def
/S7 {BL [] 0 setdash 2 copy exch vpt sub exch vpt sub vpt vpt2 Rec fill
	2 copy vpt Square fill Bsquare} bind def
/S8 {BL [] 0 setdash 2 copy vpt sub vpt Square fill Bsquare} bind def
/S9 {BL [] 0 setdash 2 copy vpt sub vpt vpt2 Rec fill Bsquare} bind def
/S10 {BL [] 0 setdash 2 copy vpt sub vpt Square fill 2 copy exch vpt sub exch vpt Square fill
	Bsquare} bind def
/S11 {BL [] 0 setdash 2 copy vpt sub vpt Square fill 2 copy exch vpt sub exch vpt2 vpt Rec fill
	Bsquare} bind def
/S12 {BL [] 0 setdash 2 copy exch vpt sub exch vpt sub vpt2 vpt Rec fill Bsquare} bind def
/S13 {BL [] 0 setdash 2 copy exch vpt sub exch vpt sub vpt2 vpt Rec fill
	2 copy vpt Square fill Bsquare} bind def
/S14 {BL [] 0 setdash 2 copy exch vpt sub exch vpt sub vpt2 vpt Rec fill
	2 copy exch vpt sub exch vpt Square fill Bsquare} bind def
/S15 {BL [] 0 setdash 2 copy Bsquare fill Bsquare} bind def
/D0 {gsave translate 45 rotate 0 0 S0 stroke grestore} bind def
/D1 {gsave translate 45 rotate 0 0 S1 stroke grestore} bind def
/D2 {gsave translate 45 rotate 0 0 S2 stroke grestore} bind def
/D3 {gsave translate 45 rotate 0 0 S3 stroke grestore} bind def
/D4 {gsave translate 45 rotate 0 0 S4 stroke grestore} bind def
/D5 {gsave translate 45 rotate 0 0 S5 stroke grestore} bind def
/D6 {gsave translate 45 rotate 0 0 S6 stroke grestore} bind def
/D7 {gsave translate 45 rotate 0 0 S7 stroke grestore} bind def
/D8 {gsave translate 45 rotate 0 0 S8 stroke grestore} bind def
/D9 {gsave translate 45 rotate 0 0 S9 stroke grestore} bind def
/D10 {gsave translate 45 rotate 0 0 S10 stroke grestore} bind def
/D11 {gsave translate 45 rotate 0 0 S11 stroke grestore} bind def
/D12 {gsave translate 45 rotate 0 0 S12 stroke grestore} bind def
/D13 {gsave translate 45 rotate 0 0 S13 stroke grestore} bind def
/D14 {gsave translate 45 rotate 0 0 S14 stroke grestore} bind def
/D15 {gsave translate 45 rotate 0 0 S15 stroke grestore} bind def
/DiaE {stroke [] 0 setdash vpt add M
  hpt neg vpt neg V hpt vpt neg V
  hpt vpt V hpt neg vpt V closepath stroke} def
/BoxE {stroke [] 0 setdash exch hpt sub exch vpt add M
  0 vpt2 neg V hpt2 0 V 0 vpt2 V
  hpt2 neg 0 V closepath stroke} def
/TriUE {stroke [] 0 setdash vpt 1.12 mul add M
  hpt neg vpt -1.62 mul V
  hpt 2 mul 0 V
  hpt neg vpt 1.62 mul V closepath stroke} def
/TriDE {stroke [] 0 setdash vpt 1.12 mul sub M
  hpt neg vpt 1.62 mul V
  hpt 2 mul 0 V
  hpt neg vpt -1.62 mul V closepath stroke} def
/PentE {stroke [] 0 setdash gsave
  translate 0 hpt M 4 {72 rotate 0 hpt L} repeat
  closepath stroke grestore} def
/CircE {stroke [] 0 setdash 
  hpt 0 360 arc stroke} def
/Opaque {gsave closepath 1 setgray fill grestore 0 setgray closepath} def
/DiaW {stroke [] 0 setdash vpt add M
  hpt neg vpt neg V hpt vpt neg V
  hpt vpt V hpt neg vpt V Opaque stroke} def
/BoxW {stroke [] 0 setdash exch hpt sub exch vpt add M
  0 vpt2 neg V hpt2 0 V 0 vpt2 V
  hpt2 neg 0 V Opaque stroke} def
/TriUW {stroke [] 0 setdash vpt 1.12 mul add M
  hpt neg vpt -1.62 mul V
  hpt 2 mul 0 V
  hpt neg vpt 1.62 mul V Opaque stroke} def
/TriDW {stroke [] 0 setdash vpt 1.12 mul sub M
  hpt neg vpt 1.62 mul V
  hpt 2 mul 0 V
  hpt neg vpt -1.62 mul V Opaque stroke} def
/PentW {stroke [] 0 setdash gsave
  translate 0 hpt M 4 {72 rotate 0 hpt L} repeat
  Opaque stroke grestore} def
/CircW {stroke [] 0 setdash 
  hpt 0 360 arc Opaque stroke} def
/BoxFill {gsave Rec 1 setgray fill grestore} def
/Density {
  /Fillden exch def
  currentrgbcolor
  /ColB exch def /ColG exch def /ColR exch def
  /ColR ColR Fillden mul Fillden sub 1 add def
  /ColG ColG Fillden mul Fillden sub 1 add def
  /ColB ColB Fillden mul Fillden sub 1 add def
  ColR ColG ColB setrgbcolor} def
/BoxColFill {gsave Rec PolyFill} def
/PolyFill {gsave Density fill grestore grestore} def
/h {rlineto rlineto rlineto gsave closepath fill grestore} bind def
%
% PostScript Level 1 Pattern Fill routine for rectangles
% Usage: x y w h s a XX PatternFill
%	x,y = lower left corner of box to be filled
%	w,h = width and height of box
%	  a = angle in degrees between lines and x-axis
%	 XX = 0/1 for no/yes cross-hatch
%
/PatternFill {gsave /PFa [ 9 2 roll ] def
  PFa 0 get PFa 2 get 2 div add PFa 1 get PFa 3 get 2 div add translate
  PFa 2 get -2 div PFa 3 get -2 div PFa 2 get PFa 3 get Rec
  gsave 1 setgray fill grestore clip
  currentlinewidth 0.5 mul setlinewidth
  /PFs PFa 2 get dup mul PFa 3 get dup mul add sqrt def
  0 0 M PFa 5 get rotate PFs -2 div dup translate
  0 1 PFs PFa 4 get div 1 add floor cvi
	{PFa 4 get mul 0 M 0 PFs V} for
  0 PFa 6 get ne {
	0 1 PFs PFa 4 get div 1 add floor cvi
	{PFa 4 get mul 0 2 1 roll M PFs 0 V} for
 } if
  stroke grestore} def
%
/languagelevel where
 {pop languagelevel} {1} ifelse
 2 lt
	{/InterpretLevel1 true def}
	{/InterpretLevel1 Level1 def}
 ifelse
%
% PostScript level 2 pattern fill definitions
%
/Level2PatternFill {
/Tile8x8 {/PaintType 2 /PatternType 1 /TilingType 1 /BBox [0 0 8 8] /XStep 8 /YStep 8}
	bind def
/KeepColor {currentrgbcolor [/Pattern /DeviceRGB] setcolorspace} bind def
<< Tile8x8
 /PaintProc {0.5 setlinewidth pop 0 0 M 8 8 L 0 8 M 8 0 L stroke} 
>> matrix makepattern
/Pat1 exch def
<< Tile8x8
 /PaintProc {0.5 setlinewidth pop 0 0 M 8 8 L 0 8 M 8 0 L stroke
	0 4 M 4 8 L 8 4 L 4 0 L 0 4 L stroke}
>> matrix makepattern
/Pat2 exch def
<< Tile8x8
 /PaintProc {0.5 setlinewidth pop 0 0 M 0 8 L
	8 8 L 8 0 L 0 0 L fill}
>> matrix makepattern
/Pat3 exch def
<< Tile8x8
 /PaintProc {0.5 setlinewidth pop -4 8 M 8 -4 L
	0 12 M 12 0 L stroke}
>> matrix makepattern
/Pat4 exch def
<< Tile8x8
 /PaintProc {0.5 setlinewidth pop -4 0 M 8 12 L
	0 -4 M 12 8 L stroke}
>> matrix makepattern
/Pat5 exch def
<< Tile8x8
 /PaintProc {0.5 setlinewidth pop -2 8 M 4 -4 L
	0 12 M 8 -4 L 4 12 M 10 0 L stroke}
>> matrix makepattern
/Pat6 exch def
<< Tile8x8
 /PaintProc {0.5 setlinewidth pop -2 0 M 4 12 L
	0 -4 M 8 12 L 4 -4 M 10 8 L stroke}
>> matrix makepattern
/Pat7 exch def
<< Tile8x8
 /PaintProc {0.5 setlinewidth pop 8 -2 M -4 4 L
	12 0 M -4 8 L 12 4 M 0 10 L stroke}
>> matrix makepattern
/Pat8 exch def
<< Tile8x8
 /PaintProc {0.5 setlinewidth pop 0 -2 M 12 4 L
	-4 0 M 12 8 L -4 4 M 8 10 L stroke}
>> matrix makepattern
/Pat9 exch def
/Pattern1 {PatternBgnd KeepColor Pat1 setpattern} bind def
/Pattern2 {PatternBgnd KeepColor Pat2 setpattern} bind def
/Pattern3 {PatternBgnd KeepColor Pat3 setpattern} bind def
/Pattern4 {PatternBgnd KeepColor Landscape {Pat5} {Pat4} ifelse setpattern} bind def
/Pattern5 {PatternBgnd KeepColor Landscape {Pat4} {Pat5} ifelse setpattern} bind def
/Pattern6 {PatternBgnd KeepColor Landscape {Pat9} {Pat6} ifelse setpattern} bind def
/Pattern7 {PatternBgnd KeepColor Landscape {Pat8} {Pat7} ifelse setpattern} bind def
} def
%
%
%End of PostScript Level 2 code
%
/PatternBgnd {
  TransparentPatterns {} {gsave 1 setgray fill grestore} ifelse
} def
%
% Substitute for Level 2 pattern fill codes with
% grayscale if Level 2 support is not selected.
%
/Level1PatternFill {
/Pattern1 {0.250 Density} bind def
/Pattern2 {0.500 Density} bind def
/Pattern3 {0.750 Density} bind def
/Pattern4 {0.125 Density} bind def
/Pattern5 {0.375 Density} bind def
/Pattern6 {0.625 Density} bind def
/Pattern7 {0.875 Density} bind def
} def
%
% Now test for support of Level 2 code
%
Level1 {Level1PatternFill} {Level2PatternFill} ifelse
%
/Symbol-Oblique /Symbol findfont [1 0 .167 1 0 0] makefont
dup length dict begin {1 index /FID eq {pop pop} {def} ifelse} forall
currentdict end definefont pop
/MFshow {
   { dup 5 get 3 ge
     { 5 get 3 eq {gsave} {grestore} ifelse }
     {dup dup 0 get findfont exch 1 get scalefont setfont
     [ currentpoint ] exch dup 2 get 0 exch R dup 5 get 2 ne {dup dup 6
     get exch 4 get {show} {stringwidth pop 0 R} ifelse }if dup 5 get 0 eq
     {dup 3 get {2 get neg 0 exch R pop} {pop aload pop M} ifelse} {dup 5
     get 1 eq {dup 2 get exch dup 3 get exch 6 get stringwidth pop -2 div
     dup 0 R} {dup 6 get stringwidth pop -2 div 0 R 6 get
     show 2 index {aload pop M neg 3 -1 roll neg R pop pop} {pop pop pop
     pop aload pop M} ifelse }ifelse }ifelse }
     ifelse }
   forall} bind def
/MFwidth {0 exch { dup 5 get 3 ge { 5 get 3 eq { 0 } { pop } ifelse }
 {dup 3 get{dup dup 0 get findfont exch 1 get scalefont setfont
     6 get stringwidth pop add} {pop} ifelse} ifelse} forall} bind def
/MLshow { currentpoint stroke M
  0 exch R
  Blacktext {gsave 0 setgray MFshow grestore} {MFshow} ifelse } bind def
/MRshow { currentpoint stroke M
  exch dup MFwidth neg 3 -1 roll R
  Blacktext {gsave 0 setgray MFshow grestore} {MFshow} ifelse } bind def
/MCshow { currentpoint stroke M
  exch dup MFwidth -2 div 3 -1 roll R
  Blacktext {gsave 0 setgray MFshow grestore} {MFshow} ifelse } bind def
/XYsave    { [( ) 1 2 true false 3 ()] } bind def
/XYrestore { [( ) 1 2 true false 4 ()] } bind def
end
%%EndProlog
gnudict begin
gsave
50 50 translate
0.050 0.050 scale
0 setgray
newpath
(times) findfont 120 scalefont setfont
1.000 UL
LTb
804 384 M
63 0 V
6153 0 R
-63 0 V
stroke
732 384 M
[ [(times) 120.0 0.0 true true 0 ( 0)]
] -40.0 MRshow
1.000 UL
LTb
804 1136 M
63 0 V
6153 0 R
-63 0 V
stroke
732 1136 M
[ [(times) 120.0 0.0 true true 0 ( 0.05)]
] -40.0 MRshow
1.000 UL
LTb
804 1888 M
63 0 V
6153 0 R
-63 0 V
stroke
732 1888 M
[ [(times) 120.0 0.0 true true 0 ( 0.1)]
] -40.0 MRshow
1.000 UL
LTb
804 2640 M
63 0 V
6153 0 R
-63 0 V
stroke
732 2640 M
[ [(times) 120.0 0.0 true true 0 ( 0.15)]
] -40.0 MRshow
1.000 UL
LTb
804 3392 M
63 0 V
6153 0 R
-63 0 V
stroke
732 3392 M
[ [(times) 120.0 0.0 true true 0 ( 0.2)]
] -40.0 MRshow
1.000 UL
LTb
804 4144 M
63 0 V
6153 0 R
-63 0 V
stroke
732 4144 M
[ [(times) 120.0 0.0 true true 0 ( 0.25)]
] -40.0 MRshow
1.000 UL
LTb
804 4896 M
63 0 V
6153 0 R
-63 0 V
stroke
732 4896 M
[ [(times) 120.0 0.0 true true 0 ( 0.3)]
] -40.0 MRshow
1.000 UL
LTb
804 384 M
0 63 V
0 4449 R
0 -63 V
stroke
804 264 M
[ [(times) 120.0 0.0 true true 0 ( 0)]
] -40.0 MCshow
1.000 UL
LTb
1840 384 M
0 63 V
0 4449 R
0 -63 V
stroke
1840 264 M
[ [(times) 120.0 0.0 true true 0 ( 5)]
] -40.0 MCshow
1.000 UL
LTb
2876 384 M
0 63 V
0 4449 R
0 -63 V
stroke
2876 264 M
[ [(times) 120.0 0.0 true true 0 ( 10)]
] -40.0 MCshow
1.000 UL
LTb
3912 384 M
0 63 V
0 4449 R
0 -63 V
stroke
3912 264 M
[ [(times) 120.0 0.0 true true 0 ( 15)]
] -40.0 MCshow
1.000 UL
LTb
4948 384 M
0 63 V
0 4449 R
0 -63 V
stroke
4948 264 M
[ [(times) 120.0 0.0 true true 0 ( 20)]
] -40.0 MCshow
1.000 UL
LTb
5984 384 M
0 63 V
0 4449 R
0 -63 V
stroke
5984 264 M
[ [(times) 120.0 0.0 true true 0 ( 25)]
] -40.0 MCshow
1.000 UL
LTb
7020 384 M
0 63 V
0 4449 R
0 -63 V
stroke
7020 264 M
[ [(times) 120.0 0.0 true true 0 ( 30)]
] -40.0 MCshow
1.000 UL
LTb
1.000 UL
LTb
804 4896 N
804 384 L
6216 0 V
0 4512 V
-6216 0 V
Z stroke
LCb setrgbcolor
240 2640 M
currentpoint gsave translate 90 rotate 0 0 moveto
[ [(times) 120.0 0.0 true true 0 (ZDF \(atoms/Angstrom)]
[(times) 96.0 60.0 true true 0 (3)]
[(times) 120.0 0.0 true true 0 (\))]
] -52.0 MCshow
grestore
LTb
LCb setrgbcolor
3912 84 M
[ [(times) 120.0 0.0 true true 0 (Z \(Angstrom\))]
] -40.0 MCshow
LTb
1.000 UP
1.000 UL
LTb
2.000 UL
LT0
LTb
6453 4773 M
[ [(times) 120.0 0.0 true true 0 (Ot)]
] -40.0 MRshow
LT0
6525 4773 M
351 0 V
815 4266 M
838 1101 L
861 431 L
23 -44 V
23 17 V
23 331 V
23 1697 V
22 1866 V
998 3025 L
1021 894 L
23 -485 V
23 -25 V
23 0 V
23 0 V
22 0 V
23 0 V
23 0 V
23 0 V
23 5 V
23 102 V
23 1025 V
22 2286 V
23 95 V
23 -2328 V
1364 533 L
23 -144 V
23 19 V
22 373 V
23 1270 V
23 1662 V
23 -478 V
23 -1778 V
23 -911 V
23 -154 V
22 -8 V
23 0 V
23 0 V
23 0 V
23 0 V
23 1 V
23 12 V
22 164 V
23 1011 V
23 2043 V
23 -13 V
23 -1826 V
1867 645 L
23 -213 V
22 34 V
23 235 V
23 458 V
23 473 V
23 307 V
23 -228 V
23 -586 V
22 -500 V
23 -200 V
23 -28 V
23 33 V
23 92 V
23 258 V
23 414 V
22 89 V
23 -294 V
23 -387 V
23 -173 V
23 -44 V
23 -1 V
23 0 V
22 0 V
23 0 V
23 0 V
23 0 V
23 0 V
23 0 V
23 0 V
22 0 V
23 0 V
23 0 V
23 0 V
23 0 V
23 0 V
22 0 V
23 0 V
23 0 V
23 0 V
23 0 V
23 0 V
23 0 V
22 0 V
23 0 V
23 0 V
23 0 V
23 0 V
23 0 V
23 0 V
22 0 V
23 0 V
23 0 V
23 0 V
23 0 V
23 0 V
23 0 V
22 0 V
23 0 V
23 0 V
23 0 V
23 0 V
23 0 V
23 0 V
22 0 V
23 0 V
23 0 V
23 0 V
23 0 V
23 0 V
23 0 V
22 0 V
23 0 V
23 0 V
23 0 V
23 0 V
23 0 V
23 0 V
22 0 V
23 0 V
23 0 V
23 0 V
23 0 V
23 0 V
22 0 V
23 0 V
23 0 V
23 0 V
23 0 V
23 0 V
23 0 V
22 0 V
23 0 V
23 0 V
23 0 V
23 0 V
23 0 V
23 0 V
22 0 V
23 0 V
23 0 V
23 0 V
23 0 V
23 0 V
23 0 V
stroke 4244 384 M
22 0 V
23 0 V
23 0 V
23 0 V
23 0 V
23 0 V
23 0 V
22 0 V
23 0 V
23 0 V
23 0 V
23 0 V
23 0 V
23 0 V
22 0 V
23 0 V
23 0 V
23 4 V
23 40 V
23 199 V
23 402 V
22 327 V
23 -213 V
23 -381 V
23 -278 V
23 -74 V
23 -26 V
22 10 V
23 93 V
23 369 V
23 479 V
23 447 V
23 129 V
23 -362 V
22 -627 V
23 -396 V
23 -91 V
23 80 V
23 803 V
23 1921 V
23 810 V
22 -2022 V
5226 644 L
23 -249 V
23 -11 V
23 0 V
23 0 V
23 0 V
22 0 V
23 0 V
23 0 V
23 51 V
23 555 V
23 1756 V
23 1264 V
22 -1327 V
5546 917 L
23 -499 V
23 -27 V
23 73 V
23 578 V
23 2186 V
22 1143 V
23 -2242 V
5729 574 L
23 -186 V
23 -4 V
23 0 V
23 0 V
22 0 V
23 0 V
23 0 V
23 0 V
23 11 V
23 257 V
23 1493 V
22 2270 V
23 -1267 V
23 -2127 V
23 -596 V
23 -38 V
23 34 V
22 409 V
23 1944 V
23 1821 V
23 -2096 V
6232 684 L
23 -288 V
23 -12 V
22 0 V
23 0 V
23 0 V
23 0 V
23 0 V
23 0 V
23 9 V
22 126 V
23 1244 V
23 1964 V
stroke
LT1
LTb
6453 4653 M
[ [(times) 120.0 0.0 true true 0 (Ti)]
] -40.0 MRshow
LT1
6525 4653 M
351 0 V
815 389 M
23 226 V
23 1524 V
23 2260 V
907 3299 L
930 941 L
953 420 L
22 -36 V
23 0 V
23 0 V
23 0 V
23 0 V
23 0 V
23 0 V
22 0 V
23 0 V
23 0 V
23 0 V
23 0 V
23 0 V
23 0 V
22 0 V
23 2 V
23 187 V
23 1248 V
23 2165 V
23 -419 V
22 -2182 V
23 -904 V
23 -94 V
23 -3 V
23 0 V
23 0 V
23 0 V
22 0 V
23 0 V
23 0 V
23 0 V
23 0 V
23 0 V
23 0 V
22 0 V
23 0 V
23 1 V
23 55 V
23 260 V
23 1138 V
23 1970 V
22 -449 V
23 -1884 V
23 -905 V
23 -174 V
23 -12 V
23 0 V
23 0 V
22 0 V
23 0 V
23 0 V
23 0 V
23 0 V
23 0 V
23 0 V
22 0 V
23 0 V
23 0 V
23 0 V
23 0 V
23 0 V
23 0 V
22 0 V
23 0 V
23 0 V
23 0 V
23 0 V
23 0 V
23 0 V
22 0 V
23 0 V
23 0 V
23 0 V
23 0 V
23 0 V
22 0 V
23 0 V
23 0 V
23 0 V
23 0 V
23 0 V
23 0 V
22 0 V
23 0 V
23 0 V
23 0 V
23 0 V
23 0 V
23 0 V
22 0 V
23 0 V
23 0 V
23 0 V
23 0 V
23 0 V
23 0 V
22 0 V
23 0 V
23 0 V
23 0 V
23 0 V
23 0 V
23 0 V
22 0 V
stroke 3329 384 M
23 0 V
23 0 V
23 0 V
23 0 V
23 0 V
23 0 V
22 0 V
23 0 V
23 0 V
23 0 V
23 0 V
23 0 V
23 0 V
22 0 V
23 0 V
23 0 V
23 0 V
23 0 V
23 0 V
22 0 V
23 0 V
23 0 V
23 0 V
23 0 V
23 0 V
23 0 V
22 0 V
23 0 V
23 0 V
23 0 V
23 0 V
23 0 V
23 0 V
22 0 V
23 0 V
23 0 V
23 0 V
23 0 V
23 0 V
23 0 V
22 0 V
23 0 V
23 0 V
23 0 V
23 0 V
23 0 V
23 0 V
22 0 V
23 0 V
23 0 V
23 0 V
23 0 V
23 0 V
23 0 V
22 0 V
23 0 V
23 0 V
23 0 V
23 0 V
23 0 V
23 0 V
22 0 V
23 0 V
23 0 V
23 0 V
23 0 V
23 0 V
22 0 V
23 0 V
23 0 V
23 0 V
23 0 V
23 0 V
23 81 V
22 713 V
23 1854 V
23 892 V
23 -1700 V
5135 923 L
23 -472 V
23 -64 V
22 -3 V
23 0 V
23 0 V
23 0 V
23 0 V
23 0 V
23 0 V
22 0 V
23 0 V
23 0 V
23 0 V
23 0 V
23 0 V
23 0 V
22 34 V
23 613 V
23 2007 V
23 1195 V
23 -1875 V
5638 726 L
23 -330 V
22 -12 V
23 0 V
23 0 V
23 0 V
23 0 V
23 0 V
23 0 V
22 0 V
23 0 V
23 0 V
23 0 V
23 0 V
23 0 V
23 0 V
22 0 V
23 16 V
23 337 V
23 1749 V
23 2140 V
23 -1817 V
6140 748 L
23 -353 V
23 -11 V
23 0 V
23 0 V
23 0 V
23 0 V
22 0 V
23 0 V
23 0 V
23 0 V
23 0 V
23 0 V
23 0 V
22 0 V
23 0 V
23 0 V
stroke
LT2
LTb
6453 4533 M
[ [(times) 120.0 0.0 true true 0 (Ow)]
] -40.0 MRshow
LT2
6525 4533 M
351 0 V
815 384 M
23 0 V
23 0 V
23 0 V
23 0 V
23 0 V
23 0 V
22 0 V
23 0 V
23 0 V
23 0 V
23 0 V
23 0 V
23 0 V
22 0 V
23 0 V
23 0 V
23 0 V
23 0 V
23 0 V
23 0 V
22 0 V
23 0 V
23 0 V
23 0 V
23 0 V
23 0 V
22 0 V
23 0 V
23 0 V
23 0 V
23 0 V
23 0 V
23 0 V
22 0 V
23 0 V
23 0 V
23 0 V
23 0 V
23 0 V
23 0 V
22 0 V
23 0 V
23 0 V
23 0 V
23 0 V
23 0 V
23 0 V
22 0 V
23 0 V
23 0 V
23 0 V
23 0 V
23 0 V
23 0 V
22 0 V
23 2 V
23 3 V
23 7 V
23 65 V
23 201 V
23 323 V
22 283 V
23 -79 V
23 -345 V
23 -207 V
23 223 V
23 275 V
23 -115 V
22 -291 V
23 -188 V
23 -111 V
23 -10 V
23 15 V
23 86 V
23 136 V
22 376 V
23 410 V
23 164 V
23 128 V
23 56 V
23 -301 V
22 -163 V
23 -63 V
23 -69 V
23 -154 V
23 -208 V
23 -72 V
23 -97 V
22 -57 V
23 -62 V
23 -55 V
23 28 V
23 39 V
23 99 V
23 95 V
22 88 V
23 199 V
23 97 V
23 179 V
23 7 V
23 -2 V
23 -89 V
stroke 3147 1230 M
22 -12 V
23 -122 V
23 -27 V
23 -9 V
23 -118 V
23 12 V
23 -123 V
22 55 V
23 -69 V
23 -1 V
23 83 V
23 -64 V
23 -64 V
23 24 V
22 -22 V
23 112 V
23 78 V
23 144 V
23 54 V
23 179 V
23 -67 V
22 -23 V
23 -128 V
23 -103 V
23 -6 V
23 -49 V
23 -11 V
22 31 V
23 -84 V
23 22 V
23 3 V
23 -49 V
23 -25 V
23 34 V
22 -38 V
23 43 V
23 -14 V
23 43 V
23 39 V
23 -121 V
23 66 V
22 -78 V
23 75 V
23 -20 V
23 100 V
23 13 V
23 22 V
23 35 V
22 5 V
23 74 V
23 173 V
23 27 V
23 24 V
23 -4 V
23 -344 V
22 -229 V
23 -146 V
23 7 V
23 77 V
23 42 V
23 -71 V
23 -86 V
22 -12 V
23 247 V
23 205 V
23 46 V
23 -324 V
23 1 V
23 466 V
22 144 V
23 -282 V
23 -466 V
23 -206 V
23 -34 V
23 0 V
22 0 V
23 0 V
23 0 V
23 0 V
23 0 V
23 0 V
23 0 V
22 0 V
23 0 V
23 0 V
23 0 V
23 0 V
23 0 V
23 0 V
22 0 V
23 0 V
23 0 V
23 0 V
23 0 V
23 0 V
23 0 V
22 0 V
23 0 V
23 0 V
23 0 V
23 0 V
23 0 V
23 0 V
22 0 V
stroke 5523 384 M
23 0 V
23 0 V
23 0 V
23 0 V
23 0 V
23 0 V
22 0 V
23 0 V
23 0 V
23 0 V
23 0 V
23 0 V
23 0 V
22 0 V
23 0 V
23 0 V
23 0 V
23 0 V
23 0 V
23 0 V
22 0 V
23 0 V
23 0 V
23 0 V
23 0 V
23 0 V
22 0 V
23 0 V
23 0 V
23 0 V
23 0 V
23 0 V
23 0 V
22 0 V
23 0 V
23 0 V
23 0 V
23 0 V
23 0 V
23 0 V
22 0 V
23 0 V
23 0 V
stroke
LT3
LTb
6453 4413 M
[ [(times) 120.0 0.0 true true 0 (H)]
] -40.0 MRshow
LT3
6525 4413 M
351 0 V
815 384 M
23 0 V
23 0 V
23 0 V
23 0 V
23 0 V
23 0 V
22 0 V
23 0 V
23 0 V
23 0 V
23 0 V
23 0 V
23 0 V
22 0 V
23 0 V
23 0 V
23 0 V
23 0 V
23 0 V
23 0 V
22 0 V
23 0 V
23 0 V
23 0 V
23 0 V
23 0 V
22 0 V
23 0 V
23 0 V
23 0 V
23 0 V
23 0 V
23 0 V
22 0 V
23 0 V
23 0 V
23 0 V
23 0 V
23 0 V
23 0 V
22 0 V
23 0 V
23 0 V
23 0 V
23 0 V
23 0 V
23 0 V
22 0 V
23 0 V
23 0 V
23 0 V
23 0 V
23 0 V
23 0 V
22 0 V
23 1 V
23 1 V
23 14 V
23 72 V
23 243 V
23 440 V
22 151 V
23 -250 V
23 -286 V
23 -117 V
23 36 V
23 331 V
23 459 V
22 311 V
23 407 V
23 361 V
23 315 V
23 2 V
23 -538 V
23 -628 V
22 -403 V
23 -139 V
23 -57 V
23 154 V
23 206 V
23 238 V
22 130 V
23 -42 V
23 -161 V
23 -208 V
23 -54 V
23 -6 V
23 71 V
22 -62 V
23 61 V
23 -57 V
23 108 V
23 20 V
23 -102 V
23 -107 V
22 -83 V
23 148 V
23 146 V
23 148 V
23 20 V
23 133 V
23 -49 V
stroke 3147 1762 M
22 -40 V
23 -84 V
23 -14 V
23 -90 V
23 -9 V
23 -72 V
23 -69 V
22 -9 V
23 -42 V
23 91 V
23 189 V
23 -28 V
23 60 V
23 72 V
22 24 V
23 -47 V
23 27 V
23 -52 V
23 -40 V
23 -82 V
23 -36 V
22 51 V
23 75 V
23 36 V
23 71 V
23 -7 V
23 -77 V
22 -80 V
23 15 V
23 16 V
23 -33 V
23 -81 V
23 46 V
23 17 V
22 -53 V
23 -19 V
23 -63 V
23 -157 V
23 -60 V
23 -144 V
23 10 V
22 108 V
23 87 V
23 151 V
23 177 V
23 161 V
23 131 V
23 99 V
22 9 V
23 -111 V
23 -89 V
23 -290 V
23 -220 V
23 -46 V
23 73 V
22 86 V
23 119 V
23 44 V
23 71 V
23 246 V
23 253 V
23 74 V
22 -75 V
23 -252 V
23 -315 V
23 -456 V
23 -235 V
23 81 V
23 252 V
22 7 V
23 -254 V
23 -344 V
23 -175 V
23 -46 V
23 -10 V
22 -1 V
23 0 V
23 0 V
23 0 V
23 0 V
23 0 V
23 0 V
22 0 V
23 0 V
23 0 V
23 0 V
23 0 V
23 0 V
23 0 V
22 0 V
23 0 V
23 0 V
23 0 V
23 0 V
23 0 V
23 0 V
22 0 V
23 0 V
23 0 V
23 0 V
23 0 V
23 0 V
23 0 V
22 0 V
stroke 5523 384 M
23 0 V
23 0 V
23 0 V
23 0 V
23 0 V
23 0 V
22 0 V
23 0 V
23 0 V
23 0 V
23 0 V
23 0 V
23 0 V
22 0 V
23 0 V
23 0 V
23 0 V
23 0 V
23 0 V
23 0 V
22 0 V
23 0 V
23 0 V
23 0 V
23 0 V
23 0 V
22 0 V
23 0 V
23 0 V
23 0 V
23 0 V
23 0 V
23 0 V
22 0 V
23 0 V
23 0 V
23 0 V
23 0 V
23 0 V
23 0 V
22 0 V
23 0 V
23 0 V
stroke
1.000 UL
LTb
804 4896 N
804 384 L
6216 0 V
0 4512 V
-6216 0 V
Z stroke
1.000 UP
1.000 UL
LTb
stroke
grestore
end
showpage
%%Trailer
%%DocumentFonts: times
